05_04/Datos2/ALL0028/F0028CH1.CSV

Record Length,2.500000e+03,,  -0.000000225000,  -0.00800,
Sample Interval,1.000000e-10,,  -0.000000224900,  -0.00800,
Trigger Point,2.250000000000e+03,,  -0.000000224800,  -0.00800,
,,,  -0.000000224700,  -0.01600,
,,,  -0.000000224600,  -0.01600,
,,,  -0.000000224500,  -0.01600,
Source,CH1,,  -0.000000224400,  -0.02400,
Vertical Units,V,,  -0.000000224300,  -0.02400,
Vertical Scale,2.000000e-01,,  -0.000000224200,  -0.02400,
Vertical Offset,1.040000e-01,,  -0.000000224100,  -0.03200,
Horizontal Units,s,,  -0.000000224000,  -0.03200,
Horizontal Scale,2.500000e-08,,  -0.000000223900,  -0.03200,
Pt Fmt,Y,,  -0.000000223800,  -0.03200,
Yzero,0.000000e+00,,  -0.000000223700,  -0.04000,
Probe Atten,1.000000e+01,,  -0.000000223600,  -0.04000,
Model Number,TBS1052B-EDU,,  -0.000000223500,  -0.04000,
Serial Number,C017051,,  -0.000000223400,  -0.04000,
Firmware Version,FV:v3.25,,  -0.000000223300,  -0.04000,
,,,-00.000000223200,  -0.04000,
,,,-00.000000223100,  -0.04800,
,,,-00.000000223000,  -0.04800,
,,,-00.000000222900,  -0.04800,
,,,-00.000000222800,  -0.04800,
,,,-00.000000222700,  -0.05600,
,,,-00.000000222600,  -0.05600,
,,,-00.000000222500,  -0.06400,
,,,-00.000000222400,  -0.06400,
,,,-00.000000222300,  -0.06400,
,,,-00.000000222200,  -0.07200,
,,,-00.000000222100,  -0.07200,
,,,-00.000000222000,  -0.08000,
,,,-00.000000221900,  -0.08000,
,,,-00.000000221800,  -0.08000,
,,,-00.000000221700,  -0.08800,
,,,-00.000000221600,  -0.08800,
,,,-00.000000221500,  -0.08800,
,,,-00.000000221400,  -0.08800,
,,,-00.000000221300,  -0.08800,
,,,-00.000000221200,  -0.09600,
,,,-00.000000221100,  -0.09600,
,,,-00.000000221000,  -0.09600,
,,,-00.000000220900,  -0.09600,
,,,-00.000000220800,  -0.09600,
,,,-00.000000220700,  -0.10400,
,,,-00.000000220600,  -0.10400,
,,,-00.000000220500,  -0.10400,
,,,-00.000000220400,  -0.10400,
,,,-00.000000220300,  -0.10400,
,,,-00.000000220200,  -0.10400,
,,,-00.000000220100,  -0.11200,
,,,-00.000000220000,  -0.11200,
,,,-00.000000219900,  -0.11200,
,,,-00.000000219800,  -0.11200,
,,,-00.000000219700,  -0.12000,
,,,-00.000000219600,  -0.12000,
,,,-00.000000219500,  -0.12000,
,,,-00.000000219400,  -0.12800,
,,,-00.000000219300,  -0.12800,
,,,-00.000000219200,  -0.12800,
,,,-00.000000219100,  -0.12800,
,,,-00.000000219000,  -0.13600,
,,,-00.000000218900,  -0.13600,
,,,-00.000000218800,  -0.13600,
,,,-00.000000218700,  -0.14400,
,,,-00.000000218600,  -0.14400,
,,,-00.000000218500,  -0.14400,
,,,-00.000000218400,  -0.14400,
,,,-00.000000218300,  -0.14400,
,,,-00.000000218200,  -0.15200,
,,,-00.000000218100,  -0.15200,
,,,-00.000000218000,  -0.15200,
,,,-00.000000217900,  -0.15200,
,,,-00.000000217800,  -0.15200,
,,,-00.000000217700,  -0.16000,
,,,-00.000000217600,  -0.16000,
,,,-00.000000217500,  -0.16000,
,,,-00.000000217400,  -0.16000,
,,,-00.000000217300,  -0.16000,
,,,-00.000000217200,  -0.16800,
,,,-00.000000217100,  -0.16800,
,,,-00.000000217000,  -0.16800,
,,,-00.000000216900,  -0.16800,
,,,-00.000000216800,  -0.16800,
,,,-00.000000216700,  -0.17600,
,,,-00.000000216600,  -0.17600,
,,,-00.000000216500,  -0.17600,
,,,-00.000000216400,  -0.17600,
,,,-00.000000216300,  -0.17600,
,,,-00.000000216200,  -0.17600,
,,,-00.000000216100,  -0.17600,
,,,-00.000000216000,  -0.17600,
,,,-00.000000215900,  -0.17600,
,,,-00.000000215800,  -0.17600,
,,,-00.000000215700,  -0.17600,
,,,-00.000000215600,  -0.18400,
,,,-00.000000215500,  -0.18400,
,,,-00.000000215400,  -0.18400,
,,,-00.000000215300,  -0.18400,
,,,-00.000000215200,  -0.18400,
,,,-00.000000215100,  -0.18400,
,,,-00.000000215000,  -0.18400,
,,,-00.000000214900,  -0.18400,
,,,-00.000000214800,  -0.18400,
,,,-00.000000214700,  -0.19200,
,,,-00.000000214600,  -0.19200,
,,,-00.000000214500,  -0.19200,
,,,-00.000000214400,  -0.19200,
,,,-00.000000214300,  -0.19200,
,,,-00.000000214200,  -0.19200,
,,,-00.000000214100,  -0.20000,
,,,-00.000000214000,  -0.20000,
,,,-00.000000213900,  -0.20000,
,,,-00.000000213800,  -0.20000,
,,,-00.000000213700,  -0.20800,
,,,-00.000000213600,  -0.20800,
,,,-00.000000213500,  -0.20800,
,,,-00.000000213400,  -0.21600,
,,,-00.000000213300,  -0.21600,
,,,-00.000000213200,  -0.21600,
,,,-00.000000213100,  -0.22400,
,,,-00.000000213000,  -0.22400,
,,,-00.000000212900,  -0.22400,
,,,-00.000000212800,  -0.22400,
,,,-00.000000212700,  -0.23200,
,,,-00.000000212600,  -0.23200,
,,,-00.000000212500,  -0.23200,
,,,-00.000000212400,  -0.23200,
,,,-00.000000212300,  -0.23200,
,,,-00.000000212200,  -0.23200,
,,,-00.000000212100,  -0.23200,
,,,-00.000000212000,  -0.23200,
,,,-00.000000211900,  -0.23200,
,,,-00.000000211800,  -0.23200,
,,,-00.000000211700,  -0.23200,
,,,-00.000000211600,  -0.23200,
,,,-00.000000211500,  -0.23200,
,,,-00.000000211400,  -0.23200,
,,,-00.000000211300,  -0.23200,
,,,-00.000000211200,  -0.23200,
,,,-00.000000211100,  -0.23200,
,,,-00.000000211000,  -0.23200,
,,,-00.000000210900,  -0.22400,
,,,-00.000000210800,  -0.22400,
,,,-00.000000210700,  -0.22400,
,,,-00.000000210600,  -0.22400,
,,,-00.000000210500,  -0.22400,
,,,-00.000000210400,  -0.23200,
,,,-00.000000210300,  -0.23200,
,,,-00.000000210200,  -0.23200,
,,,-00.000000210100,  -0.23200,
,,,-00.000000210000,  -0.23200,
,,,-00.000000209900,  -0.23200,
,,,-00.000000209800,  -0.23200,
,,,-00.000000209700,  -0.24000,
,,,-00.000000209600,  -0.24000,
,,,-00.000000209500,  -0.24000,
,,,-00.000000209400,  -0.24000,
,,,-00.000000209300,  -0.24000,
,,,-00.000000209200,  -0.24800,
,,,-00.000000209100,  -0.24800,
,,,-00.000000209000,  -0.24800,
,,,-00.000000208900,  -0.24800,
,,,-00.000000208800,  -0.24800,
,,,-00.000000208700,  -0.25600,
,,,-00.000000208600,  -0.25600,
,,,-00.000000208500,  -0.25600,
,,,-00.000000208400,  -0.25600,
,,,-00.000000208300,  -0.25600,
,,,-00.000000208200,  -0.25600,
,,,-00.000000208100,  -0.25600,
,,,-00.000000208000,  -0.25600,
,,,-00.000000207900,  -0.25600,
,,,-00.000000207800,  -0.25600,
,,,-00.000000207700,  -0.25600,
,,,-00.000000207600,  -0.25600,
,,,-00.000000207500,  -0.25600,
,,,-00.000000207400,  -0.25600,
,,,-00.000000207300,  -0.25600,
,,,-00.000000207200,  -0.25600,
,,,-00.000000207100,  -0.25600,
,,,-00.000000207000,  -0.25600,
,,,-00.000000206900,  -0.25600,
,,,-00.000000206800,  -0.25600,
,,,-00.000000206700,  -0.25600,
,,,-00.000000206600,  -0.25600,
,,,-00.000000206500,  -0.25600,
,,,-00.000000206400,  -0.25600,
,,,-00.000000206300,  -0.25600,
,,,-00.000000206200,  -0.25600,
,,,-00.000000206100,  -0.25600,
,,,-00.000000206000,  -0.25600,
,,,-00.000000205900,  -0.25600,
,,,-00.000000205800,  -0.25600,
,,,-00.000000205700,  -0.25600,
,,,-00.000000205600,  -0.26400,
,,,-00.000000205500,  -0.26400,
,,,-00.000000205400,  -0.26400,
,,,-00.000000205300,  -0.26400,
,,,-00.000000205200,  -0.26400,
,,,-00.000000205100,  -0.26400,
,,,-00.000000205000,  -0.26400,
,,,-00.000000204900,  -0.26400,
,,,-00.000000204800,  -0.26400,
,,,-00.000000204700,  -0.26400,
,,,-00.000000204600,  -0.27200,
,,,-00.000000204500,  -0.27200,
,,,-00.000000204400,  -0.27200,
,,,-00.000000204300,  -0.27200,
,,,-00.000000204200,  -0.27200,
,,,-00.000000204100,  -0.27200,
,,,-00.000000204000,  -0.27200,
,,,-00.000000203900,  -0.27200,
,,,-00.000000203800,  -0.27200,
,,,-00.000000203700,  -0.27200,
,,,-00.000000203600,  -0.27200,
,,,-00.000000203500,  -0.27200,
,,,-00.000000203400,  -0.27200,
,,,-00.000000203300,  -0.27200,
,,,-00.000000203200,  -0.27200,
,,,-00.000000203100,  -0.27200,
,,,-00.000000203000,  -0.27200,
,,,-00.000000202900,  -0.27200,
,,,-00.000000202800,  -0.27200,
,,,-00.000000202700,  -0.27200,
,,,-00.000000202600,  -0.27200,
,,,-00.000000202500,  -0.27200,
,,,-00.000000202400,  -0.27200,
,,,-00.000000202300,  -0.27200,
,,,-00.000000202200,  -0.27200,
,,,-00.000000202100,  -0.27200,
,,,-00.000000202000,  -0.27200,
,,,-00.000000201900,  -0.27200,
,,,-00.000000201800,  -0.27200,
,,,-00.000000201700,  -0.27200,
,,,-00.000000201600,  -0.28000,
,,,-00.000000201500,  -0.28000,
,,,-00.000000201400,  -0.28000,
,,,-00.000000201300,  -0.28000,
,,,-00.000000201200,  -0.28000,
,,,-00.000000201100,  -0.28000,
,,,-00.000000201000,  -0.28000,
,,,-00.000000200900,  -0.28000,
,,,-00.000000200800,  -0.28000,
,,,-00.000000200700,  -0.28000,
,,,-00.000000200600,  -0.28800,
,,,-00.000000200500,  -0.28800,
,,,-00.000000200400,  -0.28800,
,,,-00.000000200300,  -0.28800,
,,,-00.000000200200,  -0.28800,
,,,-00.000000200100,  -0.28800,
,,,-00.000000200000,  -0.28800,
,,,-00.000000199900,  -0.28800,
,,,-00.000000199800,  -0.28800,
,,,-00.000000199700,  -0.28800,
,,,-00.000000199600,  -0.29600,
,,,-00.000000199500,  -0.29600,
,,,-00.000000199400,  -0.29600,
,,,-00.000000199300,  -0.29600,
,,,-00.000000199200,  -0.29600,
,,,-00.000000199100,  -0.29600,
,,,-00.000000199000,  -0.29600,
,,,-00.000000198900,  -0.29600,
,,,-00.000000198800,  -0.29600,
,,,-00.000000198700,  -0.29600,
,,,-00.000000198600,  -0.30400,
,,,-00.000000198500,  -0.30400,
,,,-00.000000198400,  -0.30400,
,,,-00.000000198300,  -0.30400,
,,,-00.000000198200,  -0.30400,
,,,-00.000000198100,  -0.30400,
,,,-00.000000198000,  -0.30400,
,,,-00.000000197900,  -0.29600,
,,,-00.000000197800,  -0.29600,
,,,-00.000000197700,  -0.29600,
,,,-00.000000197600,  -0.29600,
,,,-00.000000197500,  -0.29600,
,,,-00.000000197400,  -0.29600,
,,,-00.000000197300,  -0.28800,
,,,-00.000000197200,  -0.28800,
,,,-00.000000197100,  -0.28800,
,,,-00.000000197000,  -0.28800,
,,,-00.000000196900,  -0.28800,
,,,-00.000000196800,  -0.28000,
,,,-00.000000196700,  -0.28000,
,,,-00.000000196600,  -0.28000,
,,,-00.000000196500,  -0.28800,
,,,-00.000000196400,  -0.28800,
,,,-00.000000196300,  -0.28800,
,,,-00.000000196200,  -0.28800,
,,,-00.000000196100,  -0.28800,
,,,-00.000000196000,  -0.28800,
,,,-00.000000195900,  -0.28800,
,,,-00.000000195800,  -0.28800,
,,,-00.000000195700,  -0.28800,
,,,-00.000000195600,  -0.28800,
,,,-00.000000195500,  -0.28800,
,,,-00.000000195400,  -0.28800,
,,,-00.000000195300,  -0.28800,
,,,-00.000000195200,  -0.28800,
,,,-00.000000195100,  -0.28800,
,,,-00.000000195000,  -0.28800,
,,,-00.000000194900,  -0.28800,
,,,-00.000000194800,  -0.28000,
,,,-00.000000194700,  -0.28000,
,,,-00.000000194600,  -0.28000,
,,,-00.000000194500,  -0.28000,
,,,-00.000000194400,  -0.28000,
,,,-00.000000194300,  -0.27200,
,,,-00.000000194200,  -0.27200,
,,,-00.000000194100,  -0.27200,
,,,-00.000000194000,  -0.27200,
,,,-00.000000193900,  -0.27200,
,,,-00.000000193800,  -0.26400,
,,,-00.000000193700,  -0.26400,
,,,-00.000000193600,  -0.26400,
,,,-00.000000193500,  -0.26400,
,,,-00.000000193400,  -0.26400,
,,,-00.000000193300,  -0.26400,
,,,-00.000000193200,  -0.26400,
,,,-00.000000193100,  -0.26400,
,,,-00.000000193000,  -0.26400,
,,,-00.000000192900,  -0.26400,
,,,-00.000000192800,  -0.26400,
,,,-00.000000192700,  -0.26400,
,,,-00.000000192600,  -0.26400,
,,,-00.000000192500,  -0.26400,
,,,-00.000000192400,  -0.26400,
,,,-00.000000192300,  -0.26400,
,,,-00.000000192200,  -0.26400,
,,,-00.000000192100,  -0.26400,
,,,-00.000000192000,  -0.26400,
,,,-00.000000191900,  -0.26400,
,,,-00.000000191800,  -0.25600,
,,,-00.000000191700,  -0.25600,
,,,-00.000000191600,  -0.25600,
,,,-00.000000191500,  -0.25600,
,,,-00.000000191400,  -0.24800,
,,,-00.000000191300,  -0.24800,
,,,-00.000000191200,  -0.24800,
,,,-00.000000191100,  -0.24000,
,,,-00.000000191000,  -0.24000,
,,,-00.000000190900,  -0.24000,
,,,-00.000000190800,  -0.23200,
,,,-00.000000190700,  -0.23200,
,,,-00.000000190600,  -0.23200,
,,,-00.000000190500,  -0.23200,
,,,-00.000000190400,  -0.23200,
,,,-00.000000190300,  -0.22400,
,,,-00.000000190200,  -0.22400,
,,,-00.000000190100,  -0.22400,
,,,-00.000000190000,  -0.22400,
,,,-00.000000189900,  -0.22400,
,,,-00.000000189800,  -0.21600,
,,,-00.000000189700,  -0.21600,
,,,-00.000000189600,  -0.21600,
,,,-00.000000189500,  -0.21600,
,,,-00.000000189400,  -0.20800,
,,,-00.000000189300,  -0.20800,
,,,-00.000000189200,  -0.20800,
,,,-00.000000189100,  -0.20000,
,,,-00.000000189000,  -0.20000,
,,,-00.000000188900,  -0.20000,
,,,-00.000000188800,  -0.19200,
,,,-00.000000188700,  -0.19200,
,,,-00.000000188600,  -0.19200,
,,,-00.000000188500,  -0.18400,
,,,-00.000000188400,  -0.18400,
,,,-00.000000188300,  -0.17600,
,,,-00.000000188200,  -0.17600,
,,,-00.000000188100,  -0.17600,
,,,-00.000000188000,  -0.16800,
,,,-00.000000187900,  -0.16800,
,,,-00.000000187800,  -0.16000,
,,,-00.000000187700,  -0.16000,
,,,-00.000000187600,  -0.16000,
,,,-00.000000187500,  -0.15200,
,,,-00.000000187400,  -0.15200,
,,,-00.000000187300,  -0.14400,
,,,-00.000000187200,  -0.14400,
,,,-00.000000187100,  -0.14400,
,,,-00.000000187000,  -0.13600,
,,,-00.000000186900,  -0.13600,
,,,-00.000000186800,  -0.12800,
,,,-00.000000186700,  -0.12800,
,,,-00.000000186600,  -0.12800,
,,,-00.000000186500,  -0.12000,
,,,-00.000000186400,  -0.12000,
,,,-00.000000186300,  -0.11200,
,,,-00.000000186200,  -0.11200,
,,,-00.000000186100,  -0.11200,
,,,-00.000000186000,  -0.10400,
,,,-00.000000185900,  -0.10400,
,,,-00.000000185800,  -0.09600,
,,,-00.000000185700,  -0.09600,
,,,-00.000000185600,  -0.09600,
,,,-00.000000185500,  -0.08800,
,,,-00.000000185400,  -0.08800,
,,,-00.000000185300,  -0.08000,
,,,-00.000000185200,  -0.08000,
,,,-00.000000185100,  -0.08000,
,,,-00.000000185000,  -0.07200,
,,,-00.000000184900,  -0.07200,
,,,-00.000000184800,  -0.06400,
,,,-00.000000184700,  -0.06400,
,,,-00.000000184600,  -0.06400,
,,,-00.000000184500,  -0.05600,
,,,-00.000000184400,  -0.05600,
,,,-00.000000184300,  -0.05600,
,,,-00.000000184200,  -0.05600,
,,,-00.000000184100,  -0.04800,
,,,-00.000000184000,  -0.04800,
,,,-00.000000183900,  -0.04800,
,,,-00.000000183800,  -0.04000,
,,,-00.000000183700,  -0.04000,
,,,-00.000000183600,  -0.04000,
,,,-00.000000183500,  -0.03200,
,,,-00.000000183400,  -0.03200,
,,,-00.000000183300,  -0.02400,
,,,-00.000000183200,  -0.02400,
,,,-00.000000183100,  -0.02400,
,,,-00.000000183000,  -0.01600,
,,,-00.000000182900,  -0.01600,
,,,-00.000000182800,  -0.00800,
,,,-00.000000182700,  -0.00800,
,,,-00.000000182600,  -0.00800,
,,,-00.000000182500,   0.00000,
,,,-00.000000182400,   0.00000,
,,,-00.000000182300,   0.00000,
,,,-00.000000182200,   0.00000,
,,,-00.000000182100,   0.00800,
,,,-00.000000182000,   0.00800,
,,,-00.000000181900,   0.00800,
,,,-00.000000181800,   0.01600,
,,,-00.000000181700,   0.01600,
,,,-00.000000181600,   0.01600,
,,,-00.000000181500,   0.02400,
,,,-00.000000181400,   0.02400,
,,,-00.000000181300,   0.02400,
,,,-00.000000181200,   0.02400,
,,,-00.000000181100,   0.03200,
,,,-00.000000181000,   0.03200,
,,,-00.000000180900,   0.03200,
,,,-00.000000180800,   0.04000,
,,,-00.000000180700,   0.04000,
,,,-00.000000180600,   0.04000,
,,,-00.000000180500,   0.04800,
,,,-00.000000180400,   0.04800,
,,,-00.000000180300,   0.04800,
,,,-00.000000180200,   0.04800,
,,,-00.000000180100,   0.05600,
,,,-00.000000180000,   0.05600,
,,,-00.000000179900,   0.05600,
,,,-00.000000179800,   0.06400,
,,,-00.000000179700,   0.06400,
,,,-00.000000179600,   0.06400,
,,,-00.000000179500,   0.06400,
,,,-00.000000179400,   0.06400,
,,,-00.000000179300,   0.07200,
,,,-00.000000179200,   0.07200,
,,,-00.000000179100,   0.07200,
,,,-00.000000179000,   0.07200,
,,,-00.000000178900,   0.07200,
,,,-00.000000178800,   0.08000,
,,,-00.000000178700,   0.08000,
,,,-00.000000178600,   0.08000,
,,,-00.000000178500,   0.08000,
,,,-00.000000178400,   0.08000,
,,,-00.000000178300,   0.08800,
,,,-00.000000178200,   0.08800,
,,,-00.000000178100,   0.08800,
,,,-00.000000178000,   0.08800,
,,,-00.000000177900,   0.08800,
,,,-00.000000177800,   0.09600,
,,,-00.000000177700,   0.09600,
,,,-00.000000177600,   0.09600,
,,,-00.000000177500,   0.09600,
,,,-00.000000177400,   0.09600,
,,,-00.000000177300,   0.10400,
,,,-00.000000177200,   0.10400,
,,,-00.000000177100,   0.10400,
,,,-00.000000177000,   0.10400,
,,,-00.000000176900,   0.10400,
,,,-00.000000176800,   0.11200,
,,,-00.000000176700,   0.11200,
,,,-00.000000176600,   0.11200,
,,,-00.000000176500,   0.11200,
,,,-00.000000176400,   0.11200,
,,,-00.000000176300,   0.12000,
,,,-00.000000176200,   0.12000,
,,,-00.000000176100,   0.12000,
,,,-00.000000176000,   0.12000,
,,,-00.000000175900,   0.12000,
,,,-00.000000175800,   0.12800,
,,,-00.000000175700,   0.12800,
,,,-00.000000175600,   0.12800,
,,,-00.000000175500,   0.12800,
,,,-00.000000175400,   0.12800,
,,,-00.000000175300,   0.13600,
,,,-00.000000175200,   0.13600,
,,,-00.000000175100,   0.13600,
,,,-00.000000175000,   0.13600,
,,,-00.000000174900,   0.13600,
,,,-00.000000174800,   0.14400,
,,,-00.000000174700,   0.14400,
,,,-00.000000174600,   0.14400,
,,,-00.000000174500,   0.15200,
,,,-00.000000174400,   0.15200,
,,,-00.000000174300,   0.15200,
,,,-00.000000174200,   0.16000,
,,,-00.000000174100,   0.16000,
,,,-00.000000174000,   0.16000,
,,,-00.000000173900,   0.16000,
,,,-00.000000173800,   0.16800,
,,,-00.000000173700,   0.16800,
,,,-00.000000173600,   0.16800,
,,,-00.000000173500,   0.16800,
,,,-00.000000173400,   0.16800,
,,,-00.000000173300,   0.16800,
,,,-00.000000173200,   0.16800,
,,,-00.000000173100,   0.16800,
,,,-00.000000173000,   0.17600,
,,,-00.000000172900,   0.17600,
,,,-00.000000172800,   0.17600,
,,,-00.000000172700,   0.17600,
,,,-00.000000172600,   0.17600,
,,,-00.000000172500,   0.17600,
,,,-00.000000172400,   0.17600,
,,,-00.000000172300,   0.17600,
,,,-00.000000172200,   0.17600,
,,,-00.000000172100,   0.17600,
,,,-00.000000172000,   0.17600,
,,,-00.000000171900,   0.17600,
,,,-00.000000171800,   0.18400,
,,,-00.000000171700,   0.18400,
,,,-00.000000171600,   0.18400,
,,,-00.000000171500,   0.18400,
,,,-00.000000171400,   0.18400,
,,,-00.000000171300,   0.19200,
,,,-00.000000171200,   0.19200,
,,,-00.000000171100,   0.19200,
,,,-00.000000171000,   0.19200,
,,,-00.000000170900,   0.19200,
,,,-00.000000170800,   0.20000,
,,,-00.000000170700,   0.20000,
,,,-00.000000170600,   0.20000,
,,,-00.000000170500,   0.20000,
,,,-00.000000170400,   0.20000,
,,,-00.000000170300,   0.20000,
,,,-00.000000170200,   0.20000,
,,,-00.000000170100,   0.20000,
,,,-00.000000170000,   0.20000,
,,,-00.000000169900,   0.20800,
,,,-00.000000169800,   0.20800,
,,,-00.000000169700,   0.20800,
,,,-00.000000169600,   0.20800,
,,,-00.000000169500,   0.20800,
,,,-00.000000169400,   0.20800,
,,,-00.000000169300,   0.20800,
,,,-00.000000169200,   0.20800,
,,,-00.000000169100,   0.20800,
,,,-00.000000169000,   0.20800,
,,,-00.000000168900,   0.21600,
,,,-00.000000168800,   0.21600,
,,,-00.000000168700,   0.21600,
,,,-00.000000168600,   0.21600,
,,,-00.000000168500,   0.21600,
,,,-00.000000168400,   0.21600,
,,,-00.000000168300,   0.21600,
,,,-00.000000168200,   0.21600,
,,,-00.000000168100,   0.21600,
,,,-00.000000168000,   0.21600,
,,,-00.000000167900,   0.22400,
,,,-00.000000167800,   0.22400,
,,,-00.000000167700,   0.22400,
,,,-00.000000167600,   0.22400,
,,,-00.000000167500,   0.22400,
,,,-00.000000167400,   0.22400,
,,,-00.000000167300,   0.22400,
,,,-00.000000167200,   0.22400,
,,,-00.000000167100,   0.22400,
,,,-00.000000167000,   0.22400,
,,,-00.000000166900,   0.22400,
,,,-00.000000166800,   0.22400,
,,,-00.000000166700,   0.22400,
,,,-00.000000166600,   0.22400,
,,,-00.000000166500,   0.22400,
,,,-00.000000166400,   0.22400,
,,,-00.000000166300,   0.22400,
,,,-00.000000166200,   0.22400,
,,,-00.000000166100,   0.22400,
,,,-00.000000166000,   0.22400,
,,,-00.000000165900,   0.23200,
,,,-00.000000165800,   0.23200,
,,,-00.000000165700,   0.23200,
,,,-00.000000165600,   0.23200,
,,,-00.000000165500,   0.23200,
,,,-00.000000165400,   0.23200,
,,,-00.000000165300,   0.23200,
,,,-00.000000165200,   0.23200,
,,,-00.000000165100,   0.23200,
,,,-00.000000165000,   0.23200,
,,,-00.000000164900,   0.23200,
,,,-00.000000164800,   0.23200,
,,,-00.000000164700,   0.23200,
,,,-00.000000164600,   0.23200,
,,,-00.000000164500,   0.23200,
,,,-00.000000164400,   0.23200,
,,,-00.000000164300,   0.23200,
,,,-00.000000164200,   0.23200,
,,,-00.000000164100,   0.23200,
,,,-00.000000164000,   0.23200,
,,,-00.000000163900,   0.23200,
,,,-00.000000163800,   0.24000,
,,,-00.000000163700,   0.24000,
