viejas/05_04/Datos2/ALL0023/F0023CH1.CSV

Record Length,2.500000e+03,,  -0.000000450000,   0.28000,
Sample Interval,2.000000e-10,,  -0.000000449800,   0.28000,
Trigger Point,2.250000000000e+03,,  -0.000000449600,   0.28000,
,,,  -0.000000449400,   0.28000,
,,,  -0.000000449200,   0.28000,
,,,  -0.000000449000,   0.28000,
Source,CH1,,  -0.000000448800,   0.28000,
Vertical Units,V,,  -0.000000448600,   0.28000,
Vertical Scale,2.000000e-01,,  -0.000000448400,   0.28000,
Vertical Offset,1.040000e-01,,  -0.000000448200,   0.28000,
Horizontal Units,s,,  -0.000000448000,   0.28000,
Horizontal Scale,5.000000e-08,,  -0.000000447800,   0.28000,
Pt Fmt,Y,,  -0.000000447600,   0.28000,
Yzero,0.000000e+00,,  -0.000000447400,   0.28000,
Probe Atten,1.000000e+01,,  -0.000000447200,   0.28000,
Model Number,TBS1052B-EDU,,  -0.000000447000,   0.27200,
Serial Number,C017051,,  -0.000000446800,   0.27200,
Firmware Version,FV:v3.25,,  -0.000000446600,   0.27200,
,,,-00.000000446400,   0.27200,
,,,-00.000000446200,   0.27200,
,,,-00.000000446000,   0.27200,
,,,-00.000000445800,   0.27200,
,,,-00.000000445600,   0.27200,
,,,-00.000000445400,   0.27200,
,,,-00.000000445200,   0.28000,
,,,-00.000000445000,   0.28000,
,,,-00.000000444800,   0.27200,
,,,-00.000000444600,   0.27200,
,,,-00.000000444400,   0.27200,
,,,-00.000000444200,   0.27200,
,,,-00.000000444000,   0.26400,
,,,-00.000000443800,   0.26400,
,,,-00.000000443600,   0.25600,
,,,-00.000000443400,   0.25600,
,,,-00.000000443200,   0.25600,
,,,-00.000000443000,   0.24800,
,,,-00.000000442800,   0.24800,
,,,-00.000000442600,   0.24800,
,,,-00.000000442400,   0.24800,
,,,-00.000000442200,   0.24800,
,,,-00.000000442000,   0.24000,
,,,-00.000000441800,   0.24000,
,,,-00.000000441600,   0.23200,
,,,-00.000000441400,   0.23200,
,,,-00.000000441200,   0.23200,
,,,-00.000000441000,   0.22400,
,,,-00.000000440800,   0.22400,
,,,-00.000000440600,   0.22400,
,,,-00.000000440400,   0.22400,
,,,-00.000000440200,   0.22400,
,,,-00.000000440000,   0.21600,
,,,-00.000000439800,   0.21600,
,,,-00.000000439600,   0.21600,
,,,-00.000000439400,   0.20800,
,,,-00.000000439200,   0.20800,
,,,-00.000000439000,   0.20000,
,,,-00.000000438800,   0.19200,
,,,-00.000000438600,   0.18400,
,,,-00.000000438400,   0.18400,
,,,-00.000000438200,   0.17600,
,,,-00.000000438000,   0.16800,
,,,-00.000000437800,   0.16000,
,,,-00.000000437600,   0.15200,
,,,-00.000000437400,   0.14400,
,,,-00.000000437200,   0.14400,
,,,-00.000000437000,   0.13600,
,,,-00.000000436800,   0.12800,
,,,-00.000000436600,   0.12000,
,,,-00.000000436400,   0.11200,
,,,-00.000000436200,   0.11200,
,,,-00.000000436000,   0.10400,
,,,-00.000000435800,   0.09600,
,,,-00.000000435600,   0.08800,
,,,-00.000000435400,   0.08000,
,,,-00.000000435200,   0.08000,
,,,-00.000000435000,   0.07200,
,,,-00.000000434800,   0.06400,
,,,-00.000000434600,   0.05600,
,,,-00.000000434400,   0.04800,
,,,-00.000000434200,   0.04800,
,,,-00.000000434000,   0.04000,
,,,-00.000000433800,   0.03200,
,,,-00.000000433600,   0.03200,
,,,-00.000000433400,   0.02400,
,,,-00.000000433200,   0.02400,
,,,-00.000000433000,   0.01600,
,,,-00.000000432800,   0.00800,
,,,-00.000000432600,   0.00800,
,,,-00.000000432400,   0.00000,
,,,-00.000000432200,   0.00000,
,,,-00.000000432000,  -0.00800,
,,,-00.000000431800,  -0.01600,
,,,-00.000000431600,  -0.02400,
,,,-00.000000431400,  -0.03200,
,,,-00.000000431200,  -0.03200,
,,,-00.000000431000,  -0.04000,
,,,-00.000000430800,  -0.04800,
,,,-00.000000430600,  -0.04800,
,,,-00.000000430400,  -0.05600,
,,,-00.000000430200,  -0.05600,
,,,-00.000000430000,  -0.06400,
,,,-00.000000429800,  -0.06400,
,,,-00.000000429600,  -0.07200,
,,,-00.000000429400,  -0.07200,
,,,-00.000000429200,  -0.07200,
,,,-00.000000429000,  -0.08000,
,,,-00.000000428800,  -0.08000,
,,,-00.000000428600,  -0.08800,
,,,-00.000000428400,  -0.09600,
,,,-00.000000428200,  -0.09600,
,,,-00.000000428000,  -0.10400,
,,,-00.000000427800,  -0.11200,
,,,-00.000000427600,  -0.12000,
,,,-00.000000427400,  -0.12800,
,,,-00.000000427200,  -0.12800,
,,,-00.000000427000,  -0.13600,
,,,-00.000000426800,  -0.13600,
,,,-00.000000426600,  -0.14400,
,,,-00.000000426400,  -0.14400,
,,,-00.000000426200,  -0.14400,
,,,-00.000000426000,  -0.15200,
,,,-00.000000425800,  -0.15200,
,,,-00.000000425600,  -0.16000,
,,,-00.000000425400,  -0.16000,
,,,-00.000000425200,  -0.16000,
,,,-00.000000425000,  -0.16800,
,,,-00.000000424800,  -0.16800,
,,,-00.000000424600,  -0.17600,
,,,-00.000000424400,  -0.17600,
,,,-00.000000424200,  -0.17600,
,,,-00.000000424000,  -0.18400,
,,,-00.000000423800,  -0.18400,
,,,-00.000000423600,  -0.19200,
,,,-00.000000423400,  -0.19200,
,,,-00.000000423200,  -0.19200,
,,,-00.000000423000,  -0.20000,
,,,-00.000000422800,  -0.20000,
,,,-00.000000422600,  -0.20000,
,,,-00.000000422400,  -0.20000,
,,,-00.000000422200,  -0.20000,
,,,-00.000000422000,  -0.20800,
,,,-00.000000421800,  -0.20800,
,,,-00.000000421600,  -0.20800,
,,,-00.000000421400,  -0.20800,
,,,-00.000000421200,  -0.20800,
,,,-00.000000421000,  -0.21600,
,,,-00.000000420800,  -0.21600,
,,,-00.000000420600,  -0.21600,
,,,-00.000000420400,  -0.21600,
,,,-00.000000420200,  -0.21600,
,,,-00.000000420000,  -0.21600,
,,,-00.000000419800,  -0.21600,
,,,-00.000000419600,  -0.21600,
,,,-00.000000419400,  -0.21600,
,,,-00.000000419200,  -0.21600,
,,,-00.000000419000,  -0.22400,
,,,-00.000000418800,  -0.22400,
,,,-00.000000418600,  -0.23200,
,,,-00.000000418400,  -0.23200,
,,,-00.000000418200,  -0.23200,
,,,-00.000000418000,  -0.24000,
,,,-00.000000417800,  -0.24000,
,,,-00.000000417600,  -0.24000,
,,,-00.000000417400,  -0.24000,
,,,-00.000000417200,  -0.24000,
,,,-00.000000417000,  -0.24800,
,,,-00.000000416800,  -0.24800,
,,,-00.000000416600,  -0.24800,
,,,-00.000000416400,  -0.24800,
,,,-00.000000416200,  -0.24800,
,,,-00.000000416000,  -0.24800,
,,,-00.000000415800,  -0.24800,
,,,-00.000000415600,  -0.24800,
,,,-00.000000415400,  -0.24800,
,,,-00.000000415200,  -0.24800,
,,,-00.000000415000,  -0.24800,
,,,-00.000000414800,  -0.25600,
,,,-00.000000414600,  -0.25600,
,,,-00.000000414400,  -0.25600,
,,,-00.000000414200,  -0.25600,
,,,-00.000000414000,  -0.26400,
,,,-00.000000413800,  -0.26400,
,,,-00.000000413600,  -0.27200,
,,,-00.000000413400,  -0.27200,
,,,-00.000000413200,  -0.27200,
,,,-00.000000413000,  -0.27200,
,,,-00.000000412800,  -0.27200,
,,,-00.000000412600,  -0.27200,
,,,-00.000000412400,  -0.27200,
,,,-00.000000412200,  -0.26400,
,,,-00.000000412000,  -0.26400,
,,,-00.000000411800,  -0.27200,
,,,-00.000000411600,  -0.27200,
,,,-00.000000411400,  -0.27200,
,,,-00.000000411200,  -0.27200,
,,,-00.000000411000,  -0.28000,
,,,-00.000000410800,  -0.28000,
,,,-00.000000410600,  -0.28000,
,,,-00.000000410400,  -0.28000,
,,,-00.000000410200,  -0.28000,
,,,-00.000000410000,  -0.28800,
,,,-00.000000409800,  -0.28800,
,,,-00.000000409600,  -0.28800,
,,,-00.000000409400,  -0.28800,
,,,-00.000000409200,  -0.28800,
,,,-00.000000409000,  -0.28800,
,,,-00.000000408800,  -0.28800,
,,,-00.000000408600,  -0.28800,
,,,-00.000000408400,  -0.28800,
,,,-00.000000408200,  -0.28000,
,,,-00.000000408000,  -0.28800,
,,,-00.000000407800,  -0.28800,
,,,-00.000000407600,  -0.28800,
,,,-00.000000407400,  -0.28800,
,,,-00.000000407200,  -0.28800,
,,,-00.000000407000,  -0.28800,
,,,-00.000000406800,  -0.28800,
,,,-00.000000406600,  -0.28800,
,,,-00.000000406400,  -0.28800,
,,,-00.000000406200,  -0.28800,
,,,-00.000000406000,  -0.28800,
,,,-00.000000405800,  -0.28800,
,,,-00.000000405600,  -0.28800,
,,,-00.000000405400,  -0.28800,
,,,-00.000000405200,  -0.28800,
,,,-00.000000405000,  -0.28800,
,,,-00.000000404800,  -0.28800,
,,,-00.000000404600,  -0.28800,
,,,-00.000000404400,  -0.28800,
,,,-00.000000404200,  -0.28800,
,,,-00.000000404000,  -0.29600,
,,,-00.000000403800,  -0.29600,
,,,-00.000000403600,  -0.29600,
,,,-00.000000403400,  -0.29600,
,,,-00.000000403200,  -0.29600,
,,,-00.000000403000,  -0.30400,
,,,-00.000000402800,  -0.30400,
,,,-00.000000402600,  -0.30400,
,,,-00.000000402400,  -0.30400,
,,,-00.000000402200,  -0.30400,
,,,-00.000000402000,  -0.30400,
,,,-00.000000401800,  -0.30400,
,,,-00.000000401600,  -0.30400,
,,,-00.000000401400,  -0.30400,
,,,-00.000000401200,  -0.29600,
,,,-00.000000401000,  -0.29600,
,,,-00.000000400800,  -0.29600,
,,,-00.000000400600,  -0.29600,
,,,-00.000000400400,  -0.29600,
,,,-00.000000400200,  -0.29600,
,,,-00.000000400000,  -0.30400,
,,,-00.000000399800,  -0.30400,
,,,-00.000000399600,  -0.30400,
,,,-00.000000399400,  -0.30400,
,,,-00.000000399200,  -0.30400,
,,,-00.000000399000,  -0.31200,
,,,-00.000000398800,  -0.31200,
,,,-00.000000398600,  -0.31200,
,,,-00.000000398400,  -0.31200,
,,,-00.000000398200,  -0.31200,
,,,-00.000000398000,  -0.31200,
,,,-00.000000397800,  -0.31200,
,,,-00.000000397600,  -0.31200,
,,,-00.000000397400,  -0.31200,
,,,-00.000000397200,  -0.31200,
,,,-00.000000397000,  -0.31200,
,,,-00.000000396800,  -0.31200,
,,,-00.000000396600,  -0.31200,
,,,-00.000000396400,  -0.31200,
,,,-00.000000396200,  -0.31200,
,,,-00.000000396000,  -0.31200,
,,,-00.000000395800,  -0.31200,
,,,-00.000000395600,  -0.31200,
,,,-00.000000395400,  -0.31200,
,,,-00.000000395200,  -0.31200,
,,,-00.000000395000,  -0.32000,
,,,-00.000000394800,  -0.32000,
,,,-00.000000394600,  -0.32000,
,,,-00.000000394400,  -0.32000,
,,,-00.000000394200,  -0.32000,
,,,-00.000000394000,  -0.32000,
,,,-00.000000393800,  -0.32000,
,,,-00.000000393600,  -0.32000,
,,,-00.000000393400,  -0.32000,
,,,-00.000000393200,  -0.32000,
,,,-00.000000393000,  -0.32000,
,,,-00.000000392800,  -0.32000,
,,,-00.000000392600,  -0.32000,
,,,-00.000000392400,  -0.32000,
,,,-00.000000392200,  -0.32000,
,,,-00.000000392000,  -0.32000,
,,,-00.000000391800,  -0.32000,
,,,-00.000000391600,  -0.32000,
,,,-00.000000391400,  -0.32000,
,,,-00.000000391200,  -0.32000,
,,,-00.000000391000,  -0.32000,
,,,-00.000000390800,  -0.32000,
,,,-00.000000390600,  -0.32000,
,,,-00.000000390400,  -0.32000,
,,,-00.000000390200,  -0.31200,
,,,-00.000000390000,  -0.31200,
,,,-00.000000389800,  -0.31200,
,,,-00.000000389600,  -0.31200,
,,,-00.000000389400,  -0.31200,
,,,-00.000000389200,  -0.31200,
,,,-00.000000389000,  -0.31200,
,,,-00.000000388800,  -0.31200,
,,,-00.000000388600,  -0.31200,
,,,-00.000000388400,  -0.31200,
,,,-00.000000388200,  -0.31200,
,,,-00.000000388000,  -0.32000,
,,,-00.000000387800,  -0.32000,
,,,-00.000000387600,  -0.32800,
,,,-00.000000387400,  -0.32800,
,,,-00.000000387200,  -0.32800,
,,,-00.000000387000,  -0.33600,
,,,-00.000000386800,  -0.33600,
,,,-00.000000386600,  -0.33600,
,,,-00.000000386400,  -0.33600,
,,,-00.000000386200,  -0.32800,
,,,-00.000000386000,  -0.32800,
,,,-00.000000385800,  -0.32800,
,,,-00.000000385600,  -0.32800,
,,,-00.000000385400,  -0.32800,
,,,-00.000000385200,  -0.32000,
,,,-00.000000385000,  -0.32800,
,,,-00.000000384800,  -0.32800,
,,,-00.000000384600,  -0.32800,
,,,-00.000000384400,  -0.32800,
,,,-00.000000384200,  -0.32800,
,,,-00.000000384000,  -0.32800,
,,,-00.000000383800,  -0.32800,
,,,-00.000000383600,  -0.32800,
,,,-00.000000383400,  -0.32800,
,,,-00.000000383200,  -0.32000,
,,,-00.000000383000,  -0.32000,
,,,-00.000000382800,  -0.32000,
,,,-00.000000382600,  -0.32000,
,,,-00.000000382400,  -0.32000,
,,,-00.000000382200,  -0.32000,
,,,-00.000000382000,  -0.32800,
,,,-00.000000381800,  -0.32800,
,,,-00.000000381600,  -0.32800,
,,,-00.000000381400,  -0.32800,
,,,-00.000000381200,  -0.32800,
,,,-00.000000381000,  -0.32800,
,,,-00.000000380800,  -0.32800,
,,,-00.000000380600,  -0.32800,
,,,-00.000000380400,  -0.32800,
,,,-00.000000380200,  -0.32800,
,,,-00.000000380000,  -0.32800,
,,,-00.000000379800,  -0.32800,
,,,-00.000000379600,  -0.32800,
,,,-00.000000379400,  -0.32800,
,,,-00.000000379200,  -0.32800,
,,,-00.000000379000,  -0.33600,
,,,-00.000000378800,  -0.33600,
,,,-00.000000378600,  -0.33600,
,,,-00.000000378400,  -0.33600,
,,,-00.000000378200,  -0.33600,
,,,-00.000000378000,  -0.33600,
,,,-00.000000377800,  -0.34400,
,,,-00.000000377600,  -0.34400,
,,,-00.000000377400,  -0.33600,
,,,-00.000000377200,  -0.33600,
,,,-00.000000377000,  -0.33600,
,,,-00.000000376800,  -0.33600,
,,,-00.000000376600,  -0.33600,
,,,-00.000000376400,  -0.33600,
,,,-00.000000376200,  -0.32800,
,,,-00.000000376000,  -0.32800,
,,,-00.000000375800,  -0.32800,
,,,-00.000000375600,  -0.32800,
,,,-00.000000375400,  -0.32800,
,,,-00.000000375200,  -0.32800,
,,,-00.000000375000,  -0.32800,
,,,-00.000000374800,  -0.32800,
,,,-00.000000374600,  -0.32800,
,,,-00.000000374400,  -0.32800,
,,,-00.000000374200,  -0.32000,
,,,-00.000000374000,  -0.32000,
,,,-00.000000373800,  -0.32000,
,,,-00.000000373600,  -0.32000,
,,,-00.000000373400,  -0.32000,
,,,-00.000000373200,  -0.32000,
,,,-00.000000373000,  -0.32000,
,,,-00.000000372800,  -0.32000,
,,,-00.000000372600,  -0.32000,
,,,-00.000000372400,  -0.32000,
,,,-00.000000372200,  -0.32000,
,,,-00.000000372000,  -0.32000,
,,,-00.000000371800,  -0.32000,
,,,-00.000000371600,  -0.32000,
,,,-00.000000371400,  -0.32000,
,,,-00.000000371200,  -0.32000,
,,,-00.000000371000,  -0.32000,
,,,-00.000000370800,  -0.32000,
,,,-00.000000370600,  -0.32000,
,,,-00.000000370400,  -0.32000,
,,,-00.000000370200,  -0.32000,
,,,-00.000000370000,  -0.32800,
,,,-00.000000369800,  -0.32800,
,,,-00.000000369600,  -0.32800,
,,,-00.000000369400,  -0.32800,
,,,-00.000000369200,  -0.32800,
,,,-00.000000369000,  -0.32800,
,,,-00.000000368800,  -0.32800,
,,,-00.000000368600,  -0.32800,
,,,-00.000000368400,  -0.32800,
,,,-00.000000368200,  -0.32000,
,,,-00.000000368000,  -0.32000,
,,,-00.000000367800,  -0.32000,
,,,-00.000000367600,  -0.32000,
,,,-00.000000367400,  -0.32000,
,,,-00.000000367200,  -0.32000,
,,,-00.000000367000,  -0.32800,
,,,-00.000000366800,  -0.32800,
,,,-00.000000366600,  -0.33600,
,,,-00.000000366400,  -0.33600,
,,,-00.000000366200,  -0.33600,
,,,-00.000000366000,  -0.33600,
,,,-00.000000365800,  -0.33600,
,,,-00.000000365600,  -0.33600,
,,,-00.000000365400,  -0.33600,
,,,-00.000000365200,  -0.32800,
,,,-00.000000365000,  -0.32800,
,,,-00.000000364800,  -0.32800,
,,,-00.000000364600,  -0.32800,
,,,-00.000000364400,  -0.32800,
,,,-00.000000364200,  -0.32800,
,,,-00.000000364000,  -0.32800,
,,,-00.000000363800,  -0.32800,
,,,-00.000000363600,  -0.32800,
,,,-00.000000363400,  -0.32800,
,,,-00.000000363200,  -0.32800,
,,,-00.000000363000,  -0.32800,
,,,-00.000000362800,  -0.32800,
,,,-00.000000362600,  -0.32800,
,,,-00.000000362400,  -0.32800,
,,,-00.000000362200,  -0.32000,
,,,-00.000000362000,  -0.32000,
,,,-00.000000361800,  -0.32000,
,,,-00.000000361600,  -0.31200,
,,,-00.000000361400,  -0.31200,
,,,-00.000000361200,  -0.30400,
,,,-00.000000361000,  -0.30400,
,,,-00.000000360800,  -0.30400,
,,,-00.000000360600,  -0.30400,
,,,-00.000000360400,  -0.30400,
,,,-00.000000360200,  -0.29600,
,,,-00.000000360000,  -0.29600,
,,,-00.000000359800,  -0.29600,
,,,-00.000000359600,  -0.29600,
,,,-00.000000359400,  -0.29600,
,,,-00.000000359200,  -0.28800,
,,,-00.000000359000,  -0.28800,
,,,-00.000000358800,  -0.28800,
,,,-00.000000358600,  -0.28000,
,,,-00.000000358400,  -0.28000,
,,,-00.000000358200,  -0.27200,
,,,-00.000000358000,  -0.27200,
,,,-00.000000357800,  -0.26400,
,,,-00.000000357600,  -0.26400,
,,,-00.000000357400,  -0.25600,
,,,-00.000000357200,  -0.24800,
,,,-00.000000357000,  -0.24800,
,,,-00.000000356800,  -0.24800,
,,,-00.000000356600,  -0.24000,
,,,-00.000000356400,  -0.24000,
,,,-00.000000356200,  -0.23200,
,,,-00.000000356000,  -0.23200,
,,,-00.000000355800,  -0.22400,
,,,-00.000000355600,  -0.21600,
,,,-00.000000355400,  -0.20800,
,,,-00.000000355200,  -0.20000,
,,,-00.000000355000,  -0.20000,
,,,-00.000000354800,  -0.20000,
,,,-00.000000354600,  -0.19200,
,,,-00.000000354400,  -0.19200,
,,,-00.000000354200,  -0.18400,
,,,-00.000000354000,  -0.18400,
,,,-00.000000353800,  -0.17600,
,,,-00.000000353600,  -0.16800,
,,,-00.000000353400,  -0.16000,
,,,-00.000000353200,  -0.15200,
,,,-00.000000353000,  -0.14400,
,,,-00.000000352800,  -0.13600,
,,,-00.000000352600,  -0.12800,
,,,-00.000000352400,  -0.12000,
,,,-00.000000352200,  -0.10400,
,,,-00.000000352000,  -0.09600,
,,,-00.000000351800,  -0.09600,
,,,-00.000000351600,  -0.08800,
,,,-00.000000351400,  -0.08000,
,,,-00.000000351200,  -0.07200,
,,,-00.000000351000,  -0.07200,
,,,-00.000000350800,  -0.06400,
,,,-00.000000350600,  -0.06400,
,,,-00.000000350400,  -0.05600,
,,,-00.000000350200,  -0.04800,
,,,-00.000000350000,  -0.04800,
,,,-00.000000349800,  -0.04000,
,,,-00.000000349600,  -0.03200,
,,,-00.000000349400,  -0.02400,
,,,-00.000000349200,  -0.01600,
,,,-00.000000349000,  -0.00800,
,,,-00.000000348800,   0.00000,
,,,-00.000000348600,   0.00800,
,,,-00.000000348400,   0.01600,
,,,-00.000000348200,   0.02400,
,,,-00.000000348000,   0.02400,
,,,-00.000000347800,   0.03200,
,,,-00.000000347600,   0.04000,
,,,-00.000000347400,   0.04000,
,,,-00.000000347200,   0.04800,
,,,-00.000000347000,   0.04800,
,,,-00.000000346800,   0.05600,
,,,-00.000000346600,   0.05600,
,,,-00.000000346400,   0.06400,
,,,-00.000000346200,   0.07200,
,,,-00.000000346000,   0.07200,
,,,-00.000000345800,   0.07200,
,,,-00.000000345600,   0.08000,
,,,-00.000000345400,   0.08000,
,,,-00.000000345200,   0.08800,
,,,-00.000000345000,   0.08800,
,,,-00.000000344800,   0.08800,
,,,-00.000000344600,   0.09600,
,,,-00.000000344400,   0.09600,
,,,-00.000000344200,   0.10400,
,,,-00.000000344000,   0.10400,
,,,-00.000000343800,   0.10400,
,,,-00.000000343600,   0.11200,
,,,-00.000000343400,   0.11200,
,,,-00.000000343200,   0.12000,
,,,-00.000000343000,   0.12000,
,,,-00.000000342800,   0.12000,
,,,-00.000000342600,   0.12800,
,,,-00.000000342400,   0.12800,
,,,-00.000000342200,   0.13600,
,,,-00.000000342000,   0.13600,
,,,-00.000000341800,   0.14400,
,,,-00.000000341600,   0.14400,
,,,-00.000000341400,   0.14400,
,,,-00.000000341200,   0.15200,
,,,-00.000000341000,   0.15200,
,,,-00.000000340800,   0.15200,
,,,-00.000000340600,   0.15200,
,,,-00.000000340400,   0.15200,
,,,-00.000000340200,   0.15200,
,,,-00.000000340000,   0.15200,
,,,-00.000000339800,   0.15200,
,,,-00.000000339600,   0.16000,
,,,-00.000000339400,   0.16000,
,,,-00.000000339200,   0.16800,
,,,-00.000000339000,   0.16800,
,,,-00.000000338800,   0.16800,
,,,-00.000000338600,   0.17600,
,,,-00.000000338400,   0.17600,
,,,-00.000000338200,   0.18400,
,,,-00.000000338000,   0.18400,
,,,-00.000000337800,   0.18400,
,,,-00.000000337600,   0.19200,
,,,-00.000000337400,   0.19200,
,,,-00.000000337200,   0.20000,
,,,-00.000000337000,   0.20000,
,,,-00.000000336800,   0.20000,
,,,-00.000000336600,   0.20000,
,,,-00.000000336400,   0.20800,
,,,-00.000000336200,   0.20800,
,,,-00.000000336000,   0.20800,
,,,-00.000000335800,   0.20800,
,,,-00.000000335600,   0.20800,
,,,-00.000000335400,   0.20800,
,,,-00.000000335200,   0.20800,
,,,-00.000000335000,   0.20800,
,,,-00.000000334800,   0.20800,
,,,-00.000000334600,   0.21600,
,,,-00.000000334400,   0.21600,
,,,-00.000000334200,   0.22400,
,,,-00.000000334000,   0.22400,
,,,-00.000000333800,   0.22400,
,,,-00.000000333600,   0.23200,
,,,-00.000000333400,   0.23200,
,,,-00.000000333200,   0.24000,
,,,-00.000000333000,   0.24000,
,,,-00.000000332800,   0.24000,
,,,-00.000000332600,   0.24000,
,,,-00.000000332400,   0.24800,
,,,-00.000000332200,   0.24800,
,,,-00.000000332000,   0.24800,
,,,-00.000000331800,   0.24800,
,,,-00.000000331600,   0.24800,
,,,-00.000000331400,   0.24800,
,,,-00.000000331200,   0.24800,
,,,-00.000000331000,   0.24000,
,,,-00.000000330800,   0.24000,
,,,-00.000000330600,   0.24000,
,,,-00.000000330400,   0.24000,
,,,-00.000000330200,   0.24000,
,,,-00.000000330000,   0.24000,
,,,-00.000000329800,   0.24000,
,,,-00.000000329600,   0.24800,
,,,-00.000000329400,   0.24800,
,,,-00.000000329200,   0.25600,
,,,-00.000000329000,   0.25600,
,,,-00.000000328800,   0.25600,
,,,-00.000000328600,   0.25600,
,,,-00.000000328400,   0.25600,
,,,-00.000000328200,   0.25600,
,,,-00.000000328000,   0.25600,
,,,-00.000000327800,   0.25600,
,,,-00.000000327600,   0.25600,
,,,-00.000000327400,   0.25600,
