05_04/Datos0/ALL0029/F0029CH1.CSV

Record Length,2.500000e+03,,  -0.000031000000,  -0.09600,
Sample Interval,2.000000e-08,,  -0.000030980000,  -0.09600,
Trigger Point,1.550000000000e+03,,  -0.000030960000,  -0.08800,
,,,  -0.000030940000,  -0.08400,
,,,  -0.000030920000,  -0.07600,
,,,  -0.000030900000,  -0.08000,
Source,CH1,,  -0.000030880000,  -0.07200,
Vertical Units,V,,  -0.000030860000,  -0.06400,
Vertical Scale,1.000000e-01,,  -0.000030840000,  -0.07200,
Vertical Offset,5.200000e-02,,  -0.000030820000,  -0.05600,
Horizontal Units,s,,  -0.000030800000,  -0.06000,
Horizontal Scale,5.000000e-06,,  -0.000030780000,  -0.04800,
Pt Fmt,Y,,  -0.000030760000,  -0.05200,
Yzero,0.000000e+00,,  -0.000030740000,  -0.04400,
Probe Atten,1.000000e+01,,  -0.000030720000,  -0.04800,
Model Number,TBS1052B-EDU,,  -0.000030700000,  -0.04400,
Serial Number,C017051,,  -0.000030680000,  -0.04000,
Firmware Version,FV:v3.25,,  -0.000030660000,  -0.04000,
,,,-00.000030640000,  -0.02800,
,,,-00.000030620000,  -0.02400,
,,,-00.000030600000,  -0.02000,
,,,-00.000030580000,  -0.02800,
,,,-00.000030560000,  -0.01600,
,,,-00.000030540000,  -0.01600,
,,,-00.000030520000,  -0.01600,
,,,-00.000030500000,  -0.01600,
,,,-00.000030480000,  -0.01600,
,,,-00.000030460000,  -0.00400,
,,,-00.000030440000,  -0.00800,
,,,-00.000030420000,  -0.00400,
,,,-00.000030400000,   0.00000,
,,,-00.000030380000,   0.00400,
,,,-00.000030360000,   0.00800,
,,,-00.000030340000,   0.01200,
,,,-00.000030320000,   0.00800,
,,,-00.000030300000,   0.00400,
,,,-00.000030280000,   0.01600,
,,,-00.000030260000,   0.01600,
,,,-00.000030240000,   0.02400,
,,,-00.000030220000,   0.02000,
,,,-00.000030200000,   0.03200,
,,,-00.000030180000,   0.03200,
,,,-00.000030160000,   0.02400,
,,,-00.000030140000,   0.03600,
,,,-00.000030120000,   0.03600,
,,,-00.000030100000,   0.03600,
,,,-00.000030080000,   0.03200,
,,,-00.000030060000,   0.03600,
,,,-00.000030040000,   0.04000,
,,,-00.000030020000,   0.04800,
,,,-00.000030000000,   0.05600,
,,,-00.000029980000,   0.05600,
,,,-00.000029960000,   0.05600,
,,,-00.000029940000,   0.05600,
,,,-00.000029920000,   0.06000,
,,,-00.000029900000,   0.06000,
,,,-00.000029880000,   0.07200,
,,,-00.000029860000,   0.07200,
,,,-00.000029840000,   0.07600,
,,,-00.000029820000,   0.08400,
,,,-00.000029800000,   0.08400,
,,,-00.000029780000,   0.08000,
,,,-00.000029760000,   0.09200,
,,,-00.000029740000,   0.09600,
,,,-00.000029720000,   0.10000,
,,,-00.000029700000,   0.10800,
,,,-00.000029680000,   0.11600,
,,,-00.000029660000,   0.10800,
,,,-00.000029640000,   0.11200,
,,,-00.000029620000,   0.12400,
,,,-00.000029600000,   0.12400,
,,,-00.000029580000,   0.12400,
,,,-00.000029560000,   0.13200,
,,,-00.000029540000,   0.13600,
,,,-00.000029520000,   0.14000,
,,,-00.000029500000,   0.14400,
,,,-00.000029480000,   0.14400,
,,,-00.000029460000,   0.15200,
,,,-00.000029440000,   0.14800,
,,,-00.000029420000,   0.15200,
,,,-00.000029400000,   0.15600,
,,,-00.000029380000,   0.16800,
,,,-00.000029360000,   0.16000,
,,,-00.000029340000,   0.16400,
,,,-00.000029320000,   0.16400,
,,,-00.000029300000,   0.17200,
,,,-00.000029280000,   0.16800,
,,,-00.000029260000,   0.17600,
,,,-00.000029240000,   0.18000,
,,,-00.000029220000,   0.18400,
,,,-00.000029200000,   0.18800,
,,,-00.000029180000,   0.19200,
,,,-00.000029160000,   0.18400,
,,,-00.000029140000,   0.19200,
,,,-00.000029120000,   0.19200,
,,,-00.000029100000,   0.20000,
,,,-00.000029080000,   0.20000,
,,,-00.000029060000,   0.20000,
,,,-00.000029040000,   0.20400,
,,,-00.000029020000,   0.20800,
,,,-00.000029000000,   0.19600,
,,,-00.000028980000,   0.21200,
,,,-00.000028960000,   0.21200,
,,,-00.000028940000,   0.20400,
,,,-00.000028920000,   0.21200,
,,,-00.000028900000,   0.20800,
,,,-00.000028880000,   0.21600,
,,,-00.000028860000,   0.20800,
,,,-00.000028840000,   0.21200,
,,,-00.000028820000,   0.21600,
,,,-00.000028800000,   0.21600,
,,,-00.000028780000,   0.22400,
,,,-00.000028760000,   0.22400,
,,,-00.000028740000,   0.22000,
,,,-00.000028720000,   0.22000,
,,,-00.000028700000,   0.22400,
,,,-00.000028680000,   0.22800,
,,,-00.000028660000,   0.22000,
,,,-00.000028640000,   0.22400,
,,,-00.000028620000,   0.22400,
,,,-00.000028600000,   0.22800,
,,,-00.000028580000,   0.22800,
,,,-00.000028560000,   0.22800,
,,,-00.000028540000,   0.23200,
,,,-00.000028520000,   0.22800,
,,,-00.000028500000,   0.22400,
,,,-00.000028480000,   0.24000,
,,,-00.000028460000,   0.23200,
,,,-00.000028440000,   0.23200,
,,,-00.000028420000,   0.23200,
,,,-00.000028400000,   0.24000,
,,,-00.000028380000,   0.24000,
,,,-00.000028360000,   0.23200,
,,,-00.000028340000,   0.24000,
,,,-00.000028320000,   0.24800,
,,,-00.000028300000,   0.24400,
,,,-00.000028280000,   0.24000,
,,,-00.000028260000,   0.24400,
,,,-00.000028240000,   0.24000,
,,,-00.000028220000,   0.24400,
,,,-00.000028200000,   0.24000,
,,,-00.000028180000,   0.24400,
,,,-00.000028160000,   0.24000,
,,,-00.000028140000,   0.24000,
,,,-00.000028120000,   0.24800,
,,,-00.000028100000,   0.24400,
,,,-00.000028080000,   0.24800,
,,,-00.000028060000,   0.24800,
,,,-00.000028040000,   0.24400,
,,,-00.000028020000,   0.24800,
,,,-00.000028000000,   0.24800,
,,,-00.000027980000,   0.25200,
,,,-00.000027960000,   0.24400,
,,,-00.000027940000,   0.24800,
,,,-00.000027920000,   0.24400,
,,,-00.000027900000,   0.25600,
,,,-00.000027880000,   0.25200,
,,,-00.000027860000,   0.24400,
,,,-00.000027840000,   0.24800,
,,,-00.000027820000,   0.24800,
,,,-00.000027800000,   0.25200,
,,,-00.000027780000,   0.24800,
,,,-00.000027760000,   0.25200,
,,,-00.000027740000,   0.24800,
,,,-00.000027720000,   0.25200,
,,,-00.000027700000,   0.25200,
,,,-00.000027680000,   0.25200,
,,,-00.000027660000,   0.24800,
,,,-00.000027640000,   0.24800,
,,,-00.000027620000,   0.25200,
,,,-00.000027600000,   0.25600,
,,,-00.000027580000,   0.24800,
,,,-00.000027560000,   0.24400,
,,,-00.000027540000,   0.25200,
,,,-00.000027520000,   0.24800,
,,,-00.000027500000,   0.25200,
,,,-00.000027480000,   0.24800,
,,,-00.000027460000,   0.24400,
,,,-00.000027440000,   0.24400,
,,,-00.000027420000,   0.24800,
,,,-00.000027400000,   0.24400,
,,,-00.000027380000,   0.24800,
,,,-00.000027360000,   0.24000,
,,,-00.000027340000,   0.24000,
,,,-00.000027320000,   0.24000,
,,,-00.000027300000,   0.22800,
,,,-00.000027280000,   0.22800,
,,,-00.000027260000,   0.23200,
,,,-00.000027240000,   0.22400,
,,,-00.000027220000,   0.22400,
,,,-00.000027200000,   0.22000,
,,,-00.000027180000,   0.22000,
,,,-00.000027160000,   0.22000,
,,,-00.000027140000,   0.22000,
,,,-00.000027120000,   0.21200,
,,,-00.000027100000,   0.20400,
,,,-00.000027080000,   0.20800,
,,,-00.000027060000,   0.20000,
,,,-00.000027040000,   0.20400,
,,,-00.000027020000,   0.20000,
,,,-00.000027000000,   0.19600,
,,,-00.000026980000,   0.20000,
,,,-00.000026960000,   0.20000,
,,,-00.000026940000,   0.19200,
,,,-00.000026920000,   0.18800,
,,,-00.000026900000,   0.18800,
,,,-00.000026880000,   0.18800,
,,,-00.000026860000,   0.18000,
,,,-00.000026840000,   0.18400,
,,,-00.000026820000,   0.17200,
,,,-00.000026800000,   0.18000,
,,,-00.000026780000,   0.17200,
,,,-00.000026760000,   0.16000,
,,,-00.000026740000,   0.18800,
,,,-00.000026720000,   0.15600,
,,,-00.000026700000,   0.17200,
,,,-00.000026680000,   0.16400,
,,,-00.000026660000,   0.16000,
,,,-00.000026640000,   0.15600,
,,,-00.000026620000,   0.14800,
,,,-00.000026600000,   0.15600,
,,,-00.000026580000,   0.15600,
,,,-00.000026560000,   0.15200,
,,,-00.000026540000,   0.14400,
,,,-00.000026520000,   0.14000,
,,,-00.000026500000,   0.14400,
,,,-00.000026480000,   0.14400,
,,,-00.000026460000,   0.13200,
,,,-00.000026440000,   0.13600,
,,,-00.000026420000,   0.13600,
,,,-00.000026400000,   0.12800,
,,,-00.000026380000,   0.13600,
,,,-00.000026360000,   0.12800,
,,,-00.000026340000,   0.12800,
,,,-00.000026320000,   0.12800,
,,,-00.000026300000,   0.12000,
,,,-00.000026280000,   0.11600,
,,,-00.000026260000,   0.11200,
,,,-00.000026240000,   0.11200,
,,,-00.000026220000,   0.10400,
,,,-00.000026200000,   0.10400,
,,,-00.000026180000,   0.10000,
,,,-00.000026160000,   0.10000,
,,,-00.000026140000,   0.10400,
,,,-00.000026120000,   0.09600,
,,,-00.000026100000,   0.08000,
,,,-00.000026080000,   0.08000,
,,,-00.000026060000,   0.07600,
,,,-00.000026040000,   0.08800,
,,,-00.000026020000,   0.07200,
,,,-00.000026000000,   0.07600,
,,,-00.000025980000,   0.07200,
,,,-00.000025960000,   0.07600,
,,,-00.000025940000,   0.06000,
,,,-00.000025920000,   0.05600,
,,,-00.000025900000,   0.06000,
,,,-00.000025880000,   0.05600,
,,,-00.000025860000,   0.05600,
,,,-00.000025840000,   0.05200,
,,,-00.000025820000,   0.04800,
,,,-00.000025800000,   0.04000,
,,,-00.000025780000,   0.04000,
,,,-00.000025760000,   0.04400,
,,,-00.000025740000,   0.03200,
,,,-00.000025720000,   0.03200,
,,,-00.000025700000,   0.03200,
,,,-00.000025680000,   0.02800,
,,,-00.000025660000,   0.02400,
,,,-00.000025640000,   0.02400,
,,,-00.000025620000,   0.01600,
,,,-00.000025600000,   0.00400,
,,,-00.000025580000,   0.00800,
,,,-00.000025560000,   0.00400,
,,,-00.000025540000,   0.00800,
,,,-00.000025520000,   0.00800,
,,,-00.000025500000,  -0.00400,
,,,-00.000025480000,   0.00400,
,,,-00.000025460000,  -0.00400,
,,,-00.000025440000,  -0.01200,
,,,-00.000025420000,  -0.01200,
,,,-00.000025400000,  -0.01600,
,,,-00.000025380000,  -0.02000,
,,,-00.000025360000,  -0.01600,
,,,-00.000025340000,  -0.01600,
,,,-00.000025320000,  -0.02400,
,,,-00.000025300000,  -0.02400,
,,,-00.000025280000,  -0.03600,
,,,-00.000025260000,  -0.03200,
,,,-00.000025240000,  -0.04000,
,,,-00.000025220000,  -0.04000,
,,,-00.000025200000,  -0.03600,
,,,-00.000025180000,  -0.04400,
,,,-00.000025160000,  -0.05600,
,,,-00.000025140000,  -0.06000,
,,,-00.000025120000,  -0.06000,
,,,-00.000025100000,  -0.06400,
,,,-00.000025080000,  -0.06800,
,,,-00.000025060000,  -0.07200,
,,,-00.000025040000,  -0.08000,
,,,-00.000025020000,  -0.08800,
,,,-00.000025000000,  -0.09600,
,,,-00.000024980000,  -0.08800,
,,,-00.000024960000,  -0.09600,
,,,-00.000024940000,  -0.10000,
,,,-00.000024920000,  -0.09600,
,,,-00.000024900000,  -0.10400,
,,,-00.000024880000,  -0.11200,
,,,-00.000024860000,  -0.11200,
,,,-00.000024840000,  -0.12400,
,,,-00.000024820000,  -0.11600,
,,,-00.000024800000,  -0.12800,
,,,-00.000024780000,  -0.12400,
,,,-00.000024760000,  -0.12000,
,,,-00.000024740000,  -0.12800,
,,,-00.000024720000,  -0.13200,
,,,-00.000024700000,  -0.14000,
,,,-00.000024680000,  -0.14000,
,,,-00.000024660000,  -0.14400,
,,,-00.000024640000,  -0.14000,
,,,-00.000024620000,  -0.14000,
,,,-00.000024600000,  -0.15200,
,,,-00.000024580000,  -0.15600,
,,,-00.000024560000,  -0.15600,
,,,-00.000024540000,  -0.16000,
,,,-00.000024520000,  -0.15600,
,,,-00.000024500000,  -0.16800,
,,,-00.000024480000,  -0.16400,
,,,-00.000024460000,  -0.16800,
,,,-00.000024440000,  -0.17200,
,,,-00.000024420000,  -0.17200,
,,,-00.000024400000,  -0.17200,
,,,-00.000024380000,  -0.17600,
,,,-00.000024360000,  -0.17200,
,,,-00.000024340000,  -0.17600,
,,,-00.000024320000,  -0.18400,
,,,-00.000024300000,  -0.18800,
,,,-00.000024280000,  -0.18800,
,,,-00.000024260000,  -0.18800,
,,,-00.000024240000,  -0.19200,
,,,-00.000024220000,  -0.19200,
,,,-00.000024200000,  -0.19200,
,,,-00.000024180000,  -0.19600,
,,,-00.000024160000,  -0.19200,
,,,-00.000024140000,  -0.20000,
,,,-00.000024120000,  -0.20000,
,,,-00.000024100000,  -0.20000,
,,,-00.000024080000,  -0.20800,
,,,-00.000024060000,  -0.20800,
,,,-00.000024040000,  -0.20800,
,,,-00.000024020000,  -0.21200,
,,,-00.000024000000,  -0.20800,
,,,-00.000023980000,  -0.20400,
,,,-00.000023960000,  -0.22400,
,,,-00.000023940000,  -0.21200,
,,,-00.000023920000,  -0.21600,
,,,-00.000023900000,  -0.22000,
,,,-00.000023880000,  -0.22800,
,,,-00.000023860000,  -0.22000,
,,,-00.000023840000,  -0.22800,
,,,-00.000023820000,  -0.22800,
,,,-00.000023800000,  -0.22800,
,,,-00.000023780000,  -0.22800,
,,,-00.000023760000,  -0.23200,
,,,-00.000023740000,  -0.23200,
,,,-00.000023720000,  -0.23600,
,,,-00.000023700000,  -0.23600,
,,,-00.000023680000,  -0.23200,
,,,-00.000023660000,  -0.23200,
,,,-00.000023640000,  -0.23200,
,,,-00.000023620000,  -0.22800,
,,,-00.000023600000,  -0.23600,
,,,-00.000023580000,  -0.23200,
,,,-00.000023560000,  -0.23600,
,,,-00.000023540000,  -0.24000,
,,,-00.000023520000,  -0.24400,
,,,-00.000023500000,  -0.24000,
,,,-00.000023480000,  -0.24800,
,,,-00.000023460000,  -0.25200,
,,,-00.000023440000,  -0.25600,
,,,-00.000023420000,  -0.25600,
,,,-00.000023400000,  -0.25600,
,,,-00.000023380000,  -0.26000,
,,,-00.000023360000,  -0.27200,
,,,-00.000023340000,  -0.27600,
,,,-00.000023320000,  -0.26800,
,,,-00.000023300000,  -0.27600,
,,,-00.000023280000,  -0.27200,
,,,-00.000023260000,  -0.27600,
,,,-00.000023240000,  -0.28400,
,,,-00.000023220000,  -0.28400,
,,,-00.000023200000,  -0.28800,
,,,-00.000023180000,  -0.29200,
,,,-00.000023160000,  -0.29600,
,,,-00.000023140000,  -0.29200,
,,,-00.000023120000,  -0.28800,
,,,-00.000023100000,  -0.29600,
,,,-00.000023080000,  -0.29600,
,,,-00.000023060000,  -0.29600,
,,,-00.000023040000,  -0.29200,
,,,-00.000023020000,  -0.29600,
,,,-00.000023000000,  -0.29200,
,,,-00.000022980000,  -0.28800,
,,,-00.000022960000,  -0.29200,
,,,-00.000022940000,  -0.28800,
,,,-00.000022920000,  -0.28400,
,,,-00.000022900000,  -0.29200,
,,,-00.000022880000,  -0.30000,
,,,-00.000022860000,  -0.28400,
,,,-00.000022840000,  -0.28800,
,,,-00.000022820000,  -0.29200,
,,,-00.000022800000,  -0.28800,
,,,-00.000022780000,  -0.28400,
,,,-00.000022760000,  -0.28400,
,,,-00.000022740000,  -0.28400,
,,,-00.000022720000,  -0.28000,
,,,-00.000022700000,  -0.28000,
,,,-00.000022680000,  -0.28000,
,,,-00.000022660000,  -0.27200,
,,,-00.000022640000,  -0.27200,
,,,-00.000022620000,  -0.26800,
,,,-00.000022600000,  -0.27600,
,,,-00.000022580000,  -0.26800,
,,,-00.000022560000,  -0.26400,
,,,-00.000022540000,  -0.26400,
,,,-00.000022520000,  -0.27200,
,,,-00.000022500000,  -0.25600,
,,,-00.000022480000,  -0.25600,
,,,-00.000022460000,  -0.25600,
,,,-00.000022440000,  -0.24800,
,,,-00.000022420000,  -0.23600,
,,,-00.000022400000,  -0.24800,
,,,-00.000022380000,  -0.24000,
,,,-00.000022360000,  -0.24800,
,,,-00.000022340000,  -0.24800,
,,,-00.000022320000,  -0.24400,
,,,-00.000022300000,  -0.24400,
,,,-00.000022280000,  -0.23600,
,,,-00.000022260000,  -0.24400,
,,,-00.000022240000,  -0.24400,
,,,-00.000022220000,  -0.23600,
,,,-00.000022200000,  -0.23600,
,,,-00.000022180000,  -0.23200,
,,,-00.000022160000,  -0.23600,
,,,-00.000022140000,  -0.24000,
,,,-00.000022120000,  -0.23600,
,,,-00.000022100000,  -0.23600,
,,,-00.000022080000,  -0.23600,
,,,-00.000022060000,  -0.23600,
,,,-00.000022040000,  -0.24000,
,,,-00.000022020000,  -0.23600,
,,,-00.000022000000,  -0.22400,
,,,-00.000021980000,  -0.23200,
,,,-00.000021960000,  -0.22000,
,,,-00.000021940000,  -0.22000,
,,,-00.000021920000,  -0.22400,
,,,-00.000021900000,  -0.21600,
,,,-00.000021880000,  -0.22800,
,,,-00.000021860000,  -0.21600,
,,,-00.000021840000,  -0.21200,
,,,-00.000021820000,  -0.22000,
,,,-00.000021800000,  -0.22000,
,,,-00.000021780000,  -0.22000,
,,,-00.000021760000,  -0.22400,
,,,-00.000021740000,  -0.21600,
,,,-00.000021720000,  -0.21200,
,,,-00.000021700000,  -0.21600,
,,,-00.000021680000,  -0.20800,
,,,-00.000021660000,  -0.22000,
,,,-00.000021640000,  -0.21200,
,,,-00.000021620000,  -0.20800,
,,,-00.000021600000,  -0.21200,
,,,-00.000021580000,  -0.20400,
,,,-00.000021560000,  -0.20000,
,,,-00.000021540000,  -0.20000,
,,,-00.000021520000,  -0.19600,
,,,-00.000021500000,  -0.19600,
,,,-00.000021480000,  -0.19200,
,,,-00.000021460000,  -0.18800,
,,,-00.000021440000,  -0.18800,
,,,-00.000021420000,  -0.18000,
,,,-00.000021400000,  -0.18800,
,,,-00.000021380000,  -0.18000,
,,,-00.000021360000,  -0.17200,
,,,-00.000021340000,  -0.17200,
,,,-00.000021320000,  -0.16400,
,,,-00.000021300000,  -0.16000,
,,,-00.000021280000,  -0.16800,
,,,-00.000021260000,  -0.15600,
,,,-00.000021240000,  -0.14800,
,,,-00.000021220000,  -0.14800,
,,,-00.000021200000,  -0.14400,
,,,-00.000021180000,  -0.14400,
,,,-00.000021160000,  -0.13200,
,,,-00.000021140000,  -0.14000,
,,,-00.000021120000,  -0.13200,
,,,-00.000021100000,  -0.12400,
,,,-00.000021080000,  -0.12400,
,,,-00.000021060000,  -0.11600,
,,,-00.000021040000,  -0.12400,
,,,-00.000021020000,  -0.11600,
,,,-00.000021000000,  -0.11200,
,,,-00.000020980000,  -0.11200,
,,,-00.000020960000,  -0.10000,
,,,-00.000020940000,  -0.10400,
,,,-00.000020920000,  -0.08800,
,,,-00.000020900000,  -0.09600,
,,,-00.000020880000,  -0.08800,
,,,-00.000020860000,  -0.08400,
,,,-00.000020840000,  -0.07200,
,,,-00.000020820000,  -0.06800,
,,,-00.000020800000,  -0.07200,
,,,-00.000020780000,  -0.06400,
,,,-00.000020760000,  -0.05600,
,,,-00.000020740000,  -0.05600,
,,,-00.000020720000,  -0.05600,
,,,-00.000020700000,  -0.04800,
,,,-00.000020680000,  -0.04400,
,,,-00.000020660000,  -0.04800,
,,,-00.000020640000,  -0.04000,
,,,-00.000020620000,  -0.04400,
,,,-00.000020600000,  -0.03600,
,,,-00.000020580000,  -0.03200,
,,,-00.000020560000,  -0.02800,
,,,-00.000020540000,  -0.02800,
,,,-00.000020520000,  -0.02400,
,,,-00.000020500000,  -0.02000,
,,,-00.000020480000,  -0.02000,
,,,-00.000020460000,  -0.02000,
,,,-00.000020440000,  -0.01600,
,,,-00.000020420000,  -0.01200,
,,,-00.000020400000,  -0.01200,
,,,-00.000020380000,  -0.00400,
,,,-00.000020360000,  -0.00400,
,,,-00.000020340000,   0.00400,
,,,-00.000020320000,   0.00400,
,,,-00.000020300000,   0.00800,
,,,-00.000020280000,   0.00800,
,,,-00.000020260000,   0.00800,
,,,-00.000020240000,   0.02000,
,,,-00.000020220000,   0.02400,
,,,-00.000020200000,   0.02400,
,,,-00.000020180000,   0.02400,
,,,-00.000020160000,   0.02400,
,,,-00.000020140000,   0.02800,
,,,-00.000020120000,   0.02800,
,,,-00.000020100000,   0.03200,
,,,-00.000020080000,   0.04000,
,,,-00.000020060000,   0.04000,
,,,-00.000020040000,   0.04000,
,,,-00.000020020000,   0.04400,
,,,-00.000020000000,   0.05200,
,,,-00.000019980000,   0.04400,
,,,-00.000019960000,   0.06000,
,,,-00.000019940000,   0.06400,
,,,-00.000019920000,   0.05200,
,,,-00.000019900000,   0.06800,
,,,-00.000019880000,   0.06400,
,,,-00.000019860000,   0.06800,
,,,-00.000019840000,   0.06000,
,,,-00.000019820000,   0.07200,
,,,-00.000019800000,   0.07600,
,,,-00.000019780000,   0.08400,
,,,-00.000019760000,   0.08000,
,,,-00.000019740000,   0.09200,
,,,-00.000019720000,   0.08400,
,,,-00.000019700000,   0.10000,
,,,-00.000019680000,   0.09600,
,,,-00.000019660000,   0.09600,
,,,-00.000019640000,   0.09600,
,,,-00.000019620000,   0.10400,
,,,-00.000019600000,   0.10800,
,,,-00.000019580000,   0.11600,
,,,-00.000019560000,   0.11600,
,,,-00.000019540000,   0.12400,
,,,-00.000019520000,   0.12000,
,,,-00.000019500000,   0.12400,
,,,-00.000019480000,   0.12800,
,,,-00.000019460000,   0.12800,
,,,-00.000019440000,   0.14000,
,,,-00.000019420000,   0.14000,
,,,-00.000019400000,   0.14000,
,,,-00.000019380000,   0.14000,
,,,-00.000019360000,   0.15200,
,,,-00.000019340000,   0.15200,
,,,-00.000019320000,   0.15200,
,,,-00.000019300000,   0.16000,
,,,-00.000019280000,   0.16400,
,,,-00.000019260000,   0.16400,
,,,-00.000019240000,   0.16000,
,,,-00.000019220000,   0.17600,
,,,-00.000019200000,   0.17200,
,,,-00.000019180000,   0.17200,
,,,-00.000019160000,   0.18000,
,,,-00.000019140000,   0.17600,
,,,-00.000019120000,   0.18000,
,,,-00.000019100000,   0.18000,
,,,-00.000019080000,   0.18800,
,,,-00.000019060000,   0.19200,
,,,-00.000019040000,   0.19200,
,,,-00.000019020000,   0.20400,
,,,-00.000019000000,   0.19200,
,,,-00.000018980000,   0.19600,
,,,-00.000018960000,   0.20000,
,,,-00.000018940000,   0.20400,
,,,-00.000018920000,   0.19600,
,,,-00.000018900000,   0.20400,
,,,-00.000018880000,   0.20400,
,,,-00.000018860000,   0.20800,
,,,-00.000018840000,   0.21200,
,,,-00.000018820000,   0.21200,
,,,-00.000018800000,   0.20800,
,,,-00.000018780000,   0.21600,
,,,-00.000018760000,   0.21200,
,,,-00.000018740000,   0.21600,
