viejas/05_04/Datos0/ALL0092/F0092CH1.CSV

Record Length,2.500000e+03,,  -0.000090000000,   0.02400,
Sample Interval,4.000000e-08,,  -0.000089960000,   0.03200,
Trigger Point,2.250000000000e+03,,  -0.000089920000,   0.02400,
,,,  -0.000089880000,   0.02400,
,,,  -0.000089840000,   0.01600,
,,,  -0.000089800000,   0.04000,
Source,CH1,,  -0.000089760000,  -0.25600,
Vertical Units,V,,  -0.000089720000,  -0.56800,
Vertical Scale,2.000000e-01,,  -0.000089680000,  -0.54400,
Vertical Offset,1.040000e-01,,  -0.000089640000,  -0.54400,
Horizontal Units,s,,  -0.000089600000,  -0.52800,
Horizontal Scale,1.000000e-05,,  -0.000089560000,  -0.52800,
Pt Fmt,Y,,  -0.000089520000,  -0.51200,
Yzero,0.000000e+00,,  -0.000089480000,  -0.51200,
Probe Atten,1.000000e+01,,  -0.000089440000,  -0.51200,
Model Number,TBS1052B-EDU,,  -0.000089400000,  -0.50400,
Serial Number,C017051,,  -0.000089360000,  -0.51200,
Firmware Version,FV:v3.25,,  -0.000089320000,  -0.49600,
,,,-00.000089280000,  -0.48800,
,,,-00.000089240000,  -0.46400,
,,,-00.000089200000,  -0.47200,
,,,-00.000089160000,  -0.47200,
,,,-00.000089120000,  -0.45600,
,,,-00.000089080000,  -0.46400,
,,,-00.000089040000,  -0.45600,
,,,-00.000089000000,  -0.45600,
,,,-00.000088960000,  -0.43200,
,,,-00.000088920000,  -0.44800,
,,,-00.000088880000,  -0.44800,
,,,-00.000088840000,  -0.43200,
,,,-00.000088800000,  -0.44000,
,,,-00.000088760000,  -0.42400,
,,,-00.000088720000,  -0.42400,
,,,-00.000088680000,  -0.41600,
,,,-00.000088640000,  -0.41600,
,,,-00.000088600000,  -0.40000,
,,,-00.000088560000,  -0.40000,
,,,-00.000088520000,  -0.40000,
,,,-00.000088480000,  -0.39200,
,,,-00.000088440000,  -0.38400,
,,,-00.000088400000,  -0.38400,
,,,-00.000088360000,  -0.37600,
,,,-00.000088320000,  -0.37600,
,,,-00.000088280000,  -0.37600,
,,,-00.000088240000,  -0.36000,
,,,-00.000088200000,  -0.36800,
,,,-00.000088160000,  -0.35200,
,,,-00.000088120000,  -0.35200,
,,,-00.000088080000,  -0.35200,
,,,-00.000088040000,  -0.34400,
,,,-00.000088000000,  -0.34400,
,,,-00.000087960000,  -0.33600,
,,,-00.000087920000,  -0.32000,
,,,-00.000087880000,  -0.32000,
,,,-00.000087840000,  -0.32800,
,,,-00.000087800000,  -0.32800,
,,,-00.000087760000,  -0.32000,
,,,-00.000087720000,  -0.31200,
,,,-00.000087680000,  -0.31200,
,,,-00.000087640000,  -0.32000,
,,,-00.000087600000,  -0.30400,
,,,-00.000087560000,  -0.29600,
,,,-00.000087520000,  -0.29600,
,,,-00.000087480000,  -0.30400,
,,,-00.000087440000,  -0.29600,
,,,-00.000087400000,  -0.29600,
,,,-00.000087360000,  -0.29600,
,,,-00.000087320000,  -0.28000,
,,,-00.000087280000,  -0.28800,
,,,-00.000087240000,  -0.28000,
,,,-00.000087200000,  -0.28000,
,,,-00.000087160000,  -0.27200,
,,,-00.000087120000,  -0.27200,
,,,-00.000087080000,  -0.26400,
,,,-00.000087040000,  -0.26400,
,,,-00.000087000000,  -0.27200,
,,,-00.000086960000,  -0.25600,
,,,-00.000086920000,  -0.26400,
,,,-00.000086880000,  -0.24800,
,,,-00.000086840000,  -0.25600,
,,,-00.000086800000,  -0.25600,
,,,-00.000086760000,  -0.25600,
,,,-00.000086720000,  -0.24800,
,,,-00.000086680000,  -0.23200,
,,,-00.000086640000,  -0.23200,
,,,-00.000086600000,  -0.24000,
,,,-00.000086560000,  -0.23200,
,,,-00.000086520000,  -0.22400,
,,,-00.000086480000,  -0.23200,
,,,-00.000086440000,  -0.23200,
,,,-00.000086400000,  -0.22400,
,,,-00.000086360000,  -0.21600,
,,,-00.000086320000,  -0.20800,
,,,-00.000086280000,  -0.20800,
,,,-00.000086240000,  -0.20800,
,,,-00.000086200000,  -0.20800,
,,,-00.000086160000,  -0.22400,
,,,-00.000086120000,  -0.21600,
,,,-00.000086080000,  -0.21600,
,,,-00.000086040000,  -0.21600,
,,,-00.000086000000,  -0.20000,
,,,-00.000085960000,  -0.20800,
,,,-00.000085920000,  -0.21600,
,,,-00.000085880000,  -0.20000,
,,,-00.000085840000,  -0.20000,
,,,-00.000085800000,  -0.19200,
,,,-00.000085760000,  -0.20000,
,,,-00.000085720000,  -0.20000,
,,,-00.000085680000,  -0.18400,
,,,-00.000085640000,  -0.20000,
,,,-00.000085600000,  -0.19200,
,,,-00.000085560000,  -0.19200,
,,,-00.000085520000,  -0.19200,
,,,-00.000085480000,  -0.17600,
,,,-00.000085440000,  -0.19200,
,,,-00.000085400000,  -0.19200,
,,,-00.000085360000,  -0.17600,
,,,-00.000085320000,  -0.17600,
,,,-00.000085280000,  -0.16800,
,,,-00.000085240000,  -0.17600,
,,,-00.000085200000,  -0.17600,
,,,-00.000085160000,  -0.17600,
,,,-00.000085120000,  -0.16800,
,,,-00.000085080000,  -0.16800,
,,,-00.000085040000,  -0.16800,
,,,-00.000085000000,  -0.16000,
,,,-00.000084960000,  -0.16000,
,,,-00.000084920000,  -0.16000,
,,,-00.000084880000,  -0.16000,
,,,-00.000084840000,  -0.16800,
,,,-00.000084800000,  -0.16800,
,,,-00.000084760000,  -0.16000,
,,,-00.000084720000,  -0.15200,
,,,-00.000084680000,  -0.16000,
,,,-00.000084640000,  -0.14400,
,,,-00.000084600000,  -0.14400,
,,,-00.000084560000,  -0.15200,
,,,-00.000084520000,  -0.15200,
,,,-00.000084480000,  -0.14400,
,,,-00.000084440000,  -0.14400,
,,,-00.000084400000,  -0.14400,
,,,-00.000084360000,  -0.14400,
,,,-00.000084320000,  -0.14400,
,,,-00.000084280000,  -0.14400,
,,,-00.000084240000,  -0.14400,
,,,-00.000084200000,  -0.14400,
,,,-00.000084160000,  -0.13600,
,,,-00.000084120000,  -0.14400,
,,,-00.000084080000,  -0.13600,
,,,-00.000084040000,  -0.14400,
,,,-00.000084000000,  -0.13600,
,,,-00.000083960000,  -0.12800,
,,,-00.000083920000,  -0.13600,
,,,-00.000083880000,  -0.13600,
,,,-00.000083840000,  -0.12800,
,,,-00.000083800000,  -0.14400,
,,,-00.000083760000,  -0.13600,
,,,-00.000083720000,  -0.12800,
,,,-00.000083680000,  -0.13600,
,,,-00.000083640000,  -0.12000,
,,,-00.000083600000,  -0.12000,
,,,-00.000083560000,  -0.12800,
,,,-00.000083520000,  -0.12800,
,,,-00.000083480000,  -0.11200,
,,,-00.000083440000,  -0.12000,
,,,-00.000083400000,  -0.12800,
,,,-00.000083360000,  -0.12800,
,,,-00.000083320000,  -0.11200,
,,,-00.000083280000,  -0.11200,
,,,-00.000083240000,  -0.10400,
,,,-00.000083200000,  -0.11200,
,,,-00.000083160000,  -0.09600,
,,,-00.000083120000,  -0.10400,
,,,-00.000083080000,  -0.10400,
,,,-00.000083040000,  -0.11200,
,,,-00.000083000000,  -0.10400,
,,,-00.000082960000,  -0.10400,
,,,-00.000082920000,  -0.11200,
,,,-00.000082880000,  -0.10400,
,,,-00.000082840000,  -0.09600,
,,,-00.000082800000,  -0.10400,
,,,-00.000082760000,  -0.10400,
,,,-00.000082720000,  -0.10400,
,,,-00.000082680000,  -0.10400,
,,,-00.000082640000,  -0.11200,
,,,-00.000082600000,  -0.10400,
,,,-00.000082560000,  -0.09600,
,,,-00.000082520000,  -0.09600,
,,,-00.000082480000,  -0.10400,
,,,-00.000082440000,  -0.09600,
,,,-00.000082400000,  -0.10400,
,,,-00.000082360000,  -0.09600,
,,,-00.000082320000,  -0.10400,
,,,-00.000082280000,  -0.09600,
,,,-00.000082240000,  -0.09600,
,,,-00.000082200000,  -0.10400,
,,,-00.000082160000,  -0.08800,
,,,-00.000082120000,  -0.08800,
,,,-00.000082080000,  -0.09600,
,,,-00.000082040000,  -0.08000,
,,,-00.000082000000,  -0.08000,
,,,-00.000081960000,  -0.08800,
,,,-00.000081920000,  -0.08000,
,,,-00.000081880000,  -0.08800,
,,,-00.000081840000,  -0.08000,
,,,-00.000081800000,  -0.08000,
,,,-00.000081760000,  -0.08800,
,,,-00.000081720000,  -0.07200,
,,,-00.000081680000,  -0.08000,
,,,-00.000081640000,  -0.08800,
,,,-00.000081600000,  -0.07200,
,,,-00.000081560000,  -0.07200,
,,,-00.000081520000,  -0.07200,
,,,-00.000081480000,  -0.08000,
,,,-00.000081440000,  -0.08000,
,,,-00.000081400000,  -0.08000,
,,,-00.000081360000,  -0.07200,
,,,-00.000081320000,  -0.08000,
,,,-00.000081280000,  -0.08000,
,,,-00.000081240000,  -0.08000,
,,,-00.000081200000,  -0.06400,
,,,-00.000081160000,  -0.07200,
,,,-00.000081120000,  -0.06400,
,,,-00.000081080000,  -0.07200,
,,,-00.000081040000,  -0.06400,
,,,-00.000081000000,  -0.06400,
,,,-00.000080960000,  -0.07200,
,,,-00.000080920000,  -0.06400,
,,,-00.000080880000,  -0.06400,
,,,-00.000080840000,  -0.06400,
,,,-00.000080800000,  -0.06400,
,,,-00.000080760000,  -0.07200,
,,,-00.000080720000,  -0.06400,
,,,-00.000080680000,  -0.06400,
,,,-00.000080640000,  -0.07200,
,,,-00.000080600000,  -0.07200,
,,,-00.000080560000,  -0.07200,
,,,-00.000080520000,  -0.06400,
,,,-00.000080480000,  -0.07200,
,,,-00.000080440000,  -0.06400,
,,,-00.000080400000,  -0.05600,
,,,-00.000080360000,  -0.06400,
,,,-00.000080320000,  -0.05600,
,,,-00.000080280000,  -0.04800,
,,,-00.000080240000,  -0.04800,
,,,-00.000080200000,  -0.03200,
,,,-00.000080160000,  -0.04000,
,,,-00.000080120000,  -0.04000,
,,,-00.000080080000,  -0.04000,
,,,-00.000080040000,  -0.04000,
,,,-00.000080000000,  -0.04800,
,,,-00.000079960000,  -0.04000,
,,,-00.000079920000,  -0.04800,
,,,-00.000079880000,  -0.05600,
,,,-00.000079840000,  -0.06400,
,,,-00.000079800000,  -0.05600,
,,,-00.000079760000,   0.22400,
,,,-00.000079720000,   0.52000,
,,,-00.000079680000,   0.52800,
,,,-00.000079640000,   0.52000,
,,,-00.000079600000,   0.51200,
,,,-00.000079560000,   0.49600,
,,,-00.000079520000,   0.48800,
,,,-00.000079480000,   0.48000,
,,,-00.000079440000,   0.48000,
,,,-00.000079400000,   0.46400,
,,,-00.000079360000,   0.45600,
,,,-00.000079320000,   0.45600,
,,,-00.000079280000,   0.44800,
,,,-00.000079240000,   0.44000,
,,,-00.000079200000,   0.44000,
,,,-00.000079160000,   0.44000,
,,,-00.000079120000,   0.44800,
,,,-00.000079080000,   0.42400,
,,,-00.000079040000,   0.42400,
,,,-00.000079000000,   0.42400,
,,,-00.000078960000,   0.41600,
,,,-00.000078920000,   0.41600,
,,,-00.000078880000,   0.40800,
,,,-00.000078840000,   0.39200,
,,,-00.000078800000,   0.40000,
,,,-00.000078760000,   0.39200,
,,,-00.000078720000,   0.39200,
,,,-00.000078680000,   0.39200,
,,,-00.000078640000,   0.37600,
,,,-00.000078600000,   0.37600,
,,,-00.000078560000,   0.36000,
,,,-00.000078520000,   0.36800,
,,,-00.000078480000,   0.35200,
,,,-00.000078440000,   0.35200,
,,,-00.000078400000,   0.34400,
,,,-00.000078360000,   0.34400,
,,,-00.000078320000,   0.33600,
,,,-00.000078280000,   0.33600,
,,,-00.000078240000,   0.32000,
,,,-00.000078200000,   0.32000,
,,,-00.000078160000,   0.32800,
,,,-00.000078120000,   0.31200,
,,,-00.000078080000,   0.31200,
,,,-00.000078040000,   0.31200,
,,,-00.000078000000,   0.29600,
,,,-00.000077960000,   0.31200,
,,,-00.000077920000,   0.29600,
,,,-00.000077880000,   0.29600,
,,,-00.000077840000,   0.28800,
,,,-00.000077800000,   0.28800,
,,,-00.000077760000,   0.28000,
,,,-00.000077720000,   0.28000,
,,,-00.000077680000,   0.27200,
,,,-00.000077640000,   0.27200,
,,,-00.000077600000,   0.27200,
,,,-00.000077560000,   0.26400,
,,,-00.000077520000,   0.26400,
,,,-00.000077480000,   0.26400,
,,,-00.000077440000,   0.25600,
,,,-00.000077400000,   0.25600,
,,,-00.000077360000,   0.27200,
,,,-00.000077320000,   0.25600,
,,,-00.000077280000,   0.25600,
,,,-00.000077240000,   0.24800,
,,,-00.000077200000,   0.24000,
,,,-00.000077160000,   0.23200,
,,,-00.000077120000,   0.24000,
,,,-00.000077080000,   0.23200,
,,,-00.000077040000,   0.23200,
,,,-00.000077000000,   0.22400,
,,,-00.000076960000,   0.22400,
,,,-00.000076920000,   0.23200,
,,,-00.000076880000,   0.21600,
,,,-00.000076840000,   0.21600,
,,,-00.000076800000,   0.21600,
,,,-00.000076760000,   0.20800,
,,,-00.000076720000,   0.20800,
,,,-00.000076680000,   0.21600,
,,,-00.000076640000,   0.20000,
,,,-00.000076600000,   0.19200,
,,,-00.000076560000,   0.20000,
,,,-00.000076520000,   0.20000,
,,,-00.000076480000,   0.20000,
,,,-00.000076440000,   0.18400,
,,,-00.000076400000,   0.19200,
,,,-00.000076360000,   0.17600,
,,,-00.000076320000,   0.18400,
,,,-00.000076280000,   0.19200,
,,,-00.000076240000,   0.18400,
,,,-00.000076200000,   0.17600,
,,,-00.000076160000,   0.16800,
,,,-00.000076120000,   0.18400,
,,,-00.000076080000,   0.16800,
,,,-00.000076040000,   0.17600,
,,,-00.000076000000,   0.16800,
,,,-00.000075960000,   0.17600,
,,,-00.000075920000,   0.16000,
,,,-00.000075880000,   0.16800,
,,,-00.000075840000,   0.16800,
,,,-00.000075800000,   0.17600,
,,,-00.000075760000,   0.16000,
,,,-00.000075720000,   0.16000,
,,,-00.000075680000,   0.16800,
,,,-00.000075640000,   0.14400,
,,,-00.000075600000,   0.16000,
,,,-00.000075560000,   0.15200,
,,,-00.000075520000,   0.16000,
,,,-00.000075480000,   0.16000,
,,,-00.000075440000,   0.15200,
,,,-00.000075400000,   0.15200,
,,,-00.000075360000,   0.14400,
,,,-00.000075320000,   0.15200,
,,,-00.000075280000,   0.13600,
,,,-00.000075240000,   0.14400,
,,,-00.000075200000,   0.13600,
,,,-00.000075160000,   0.12800,
,,,-00.000075120000,   0.12800,
,,,-00.000075080000,   0.12800,
,,,-00.000075040000,   0.12800,
,,,-00.000075000000,   0.12000,
,,,-00.000074960000,   0.12800,
,,,-00.000074920000,   0.12000,
,,,-00.000074880000,   0.12000,
,,,-00.000074840000,   0.12800,
,,,-00.000074800000,   0.12000,
,,,-00.000074760000,   0.12000,
,,,-00.000074720000,   0.11200,
,,,-00.000074680000,   0.11200,
,,,-00.000074640000,   0.11200,
,,,-00.000074600000,   0.12800,
,,,-00.000074560000,   0.11200,
,,,-00.000074520000,   0.10400,
,,,-00.000074480000,   0.12000,
,,,-00.000074440000,   0.11200,
,,,-00.000074400000,   0.09600,
,,,-00.000074360000,   0.09600,
,,,-00.000074320000,   0.12000,
,,,-00.000074280000,   0.10400,
,,,-00.000074240000,   0.10400,
,,,-00.000074200000,   0.11200,
,,,-00.000074160000,   0.10400,
,,,-00.000074120000,   0.09600,
,,,-00.000074080000,   0.09600,
,,,-00.000074040000,   0.09600,
,,,-00.000074000000,   0.11200,
,,,-00.000073960000,   0.09600,
,,,-00.000073920000,   0.09600,
,,,-00.000073880000,   0.09600,
,,,-00.000073840000,   0.09600,
,,,-00.000073800000,   0.09600,
,,,-00.000073760000,   0.09600,
,,,-00.000073720000,   0.09600,
,,,-00.000073680000,   0.09600,
,,,-00.000073640000,   0.08800,
,,,-00.000073600000,   0.08800,
,,,-00.000073560000,   0.09600,
,,,-00.000073520000,   0.08000,
,,,-00.000073480000,   0.09600,
,,,-00.000073440000,   0.08000,
,,,-00.000073400000,   0.08000,
,,,-00.000073360000,   0.08000,
,,,-00.000073320000,   0.07200,
,,,-00.000073280000,   0.07200,
,,,-00.000073240000,   0.07200,
,,,-00.000073200000,   0.07200,
,,,-00.000073160000,   0.07200,
,,,-00.000073120000,   0.06400,
,,,-00.000073080000,   0.06400,
,,,-00.000073040000,   0.05600,
,,,-00.000073000000,   0.06400,
,,,-00.000072960000,   0.05600,
,,,-00.000072920000,   0.06400,
,,,-00.000072880000,   0.05600,
,,,-00.000072840000,   0.04000,
,,,-00.000072800000,   0.05600,
,,,-00.000072760000,   0.05600,
,,,-00.000072720000,   0.04800,
,,,-00.000072680000,   0.04000,
,,,-00.000072640000,   0.06400,
,,,-00.000072600000,   0.07200,
,,,-00.000072560000,   0.06400,
,,,-00.000072520000,   0.05600,
,,,-00.000072480000,   0.07200,
,,,-00.000072440000,   0.07200,
,,,-00.000072400000,   0.06400,
,,,-00.000072360000,   0.08000,
,,,-00.000072320000,   0.07200,
,,,-00.000072280000,   0.07200,
,,,-00.000072240000,   0.06400,
,,,-00.000072200000,   0.07200,
,,,-00.000072160000,   0.06400,
,,,-00.000072120000,   0.06400,
,,,-00.000072080000,   0.06400,
,,,-00.000072040000,   0.06400,
,,,-00.000072000000,   0.04800,
,,,-00.000071960000,   0.04800,
,,,-00.000071920000,   0.05600,
,,,-00.000071880000,   0.04000,
,,,-00.000071840000,   0.04000,
,,,-00.000071800000,   0.04000,
,,,-00.000071760000,   0.04000,
,,,-00.000071720000,   0.04800,
,,,-00.000071680000,   0.01600,
,,,-00.000071640000,   0.02400,
,,,-00.000071600000,   0.02400,
,,,-00.000071560000,   0.02400,
,,,-00.000071520000,   0.02400,
,,,-00.000071480000,   0.01600,
,,,-00.000071440000,   0.02400,
,,,-00.000071400000,   0.03200,
,,,-00.000071360000,   0.02400,
,,,-00.000071320000,   0.04000,
,,,-00.000071280000,   0.04000,
,,,-00.000071240000,   0.02400,
,,,-00.000071200000,   0.04800,
,,,-00.000071160000,   0.03200,
,,,-00.000071120000,   0.04000,
,,,-00.000071080000,   0.04000,
,,,-00.000071040000,   0.03200,
,,,-00.000071000000,   0.04000,
,,,-00.000070960000,   0.04000,
,,,-00.000070920000,   0.03200,
,,,-00.000070880000,   0.04000,
,,,-00.000070840000,   0.03200,
,,,-00.000070800000,   0.04000,
,,,-00.000070760000,   0.03200,
,,,-00.000070720000,   0.04000,
,,,-00.000070680000,   0.04000,
,,,-00.000070640000,   0.04000,
,,,-00.000070600000,   0.03200,
,,,-00.000070560000,   0.04000,
,,,-00.000070520000,   0.03200,
,,,-00.000070480000,   0.03200,
,,,-00.000070440000,   0.03200,
,,,-00.000070400000,   0.02400,
,,,-00.000070360000,   0.03200,
,,,-00.000070320000,   0.02400,
,,,-00.000070280000,   0.03200,
,,,-00.000070240000,   0.03200,
,,,-00.000070200000,   0.02400,
,,,-00.000070160000,   0.02400,
,,,-00.000070120000,   0.02400,
,,,-00.000070080000,   0.01600,
,,,-00.000070040000,   0.01600,
,,,-00.000070000000,   0.02400,
,,,-00.000069960000,   0.01600,
,,,-00.000069920000,   0.02400,
,,,-00.000069880000,   0.01600,
,,,-00.000069840000,   0.01600,
,,,-00.000069800000,   0.01600,
,,,-00.000069760000,  -0.28000,
,,,-00.000069720000,  -0.56000,
,,,-00.000069680000,  -0.56800,
,,,-00.000069640000,  -0.55200,
,,,-00.000069600000,  -0.56000,
,,,-00.000069560000,  -0.53600,
,,,-00.000069520000,  -0.54400,
,,,-00.000069480000,  -0.52000,
,,,-00.000069440000,  -0.52000,
,,,-00.000069400000,  -0.52000,
,,,-00.000069360000,  -0.50400,
,,,-00.000069320000,  -0.50400,
,,,-00.000069280000,  -0.49600,
,,,-00.000069240000,  -0.49600,
,,,-00.000069200000,  -0.48000,
,,,-00.000069160000,  -0.47200,
,,,-00.000069120000,  -0.47200,
,,,-00.000069080000,  -0.46400,
,,,-00.000069040000,  -0.44000,
,,,-00.000069000000,  -0.44000,
,,,-00.000068960000,  -0.44000,
,,,-00.000068920000,  -0.44800,
,,,-00.000068880000,  -0.44000,
,,,-00.000068840000,  -0.44000,
,,,-00.000068800000,  -0.41600,
,,,-00.000068760000,  -0.40800,
,,,-00.000068720000,  -0.42400,
,,,-00.000068680000,  -0.41600,
,,,-00.000068640000,  -0.40800,
,,,-00.000068600000,  -0.40000,
,,,-00.000068560000,  -0.40000,
,,,-00.000068520000,  -0.40000,
,,,-00.000068480000,  -0.40000,
,,,-00.000068440000,  -0.40000,
,,,-00.000068400000,  -0.39200,
,,,-00.000068360000,  -0.38400,
,,,-00.000068320000,  -0.38400,
,,,-00.000068280000,  -0.38400,
,,,-00.000068240000,  -0.37600,
,,,-00.000068200000,  -0.36800,
,,,-00.000068160000,  -0.36000,
,,,-00.000068120000,  -0.36000,
,,,-00.000068080000,  -0.36000,
,,,-00.000068040000,  -0.35200,
,,,-00.000068000000,  -0.35200,
,,,-00.000067960000,  -0.34400,
,,,-00.000067920000,  -0.33600,
,,,-00.000067880000,  -0.33600,
,,,-00.000067840000,  -0.32800,
,,,-00.000067800000,  -0.32000,
,,,-00.000067760000,  -0.32800,
,,,-00.000067720000,  -0.32000,
,,,-00.000067680000,  -0.32000,
,,,-00.000067640000,  -0.31200,
,,,-00.000067600000,  -0.30400,
,,,-00.000067560000,  -0.29600,
,,,-00.000067520000,  -0.29600,
,,,-00.000067480000,  -0.29600,
,,,-00.000067440000,  -0.28000,
,,,-00.000067400000,  -0.28800,
,,,-00.000067360000,  -0.28000,
,,,-00.000067320000,  -0.28000,
,,,-00.000067280000,  -0.28800,
,,,-00.000067240000,  -0.27200,
,,,-00.000067200000,  -0.28800,
,,,-00.000067160000,  -0.26400,
,,,-00.000067120000,  -0.28000,
,,,-00.000067080000,  -0.25600,
,,,-00.000067040000,  -0.26400,
,,,-00.000067000000,  -0.27200,
,,,-00.000066960000,  -0.25600,
,,,-00.000066920000,  -0.24000,
,,,-00.000066880000,  -0.25600,
,,,-00.000066840000,  -0.25600,
,,,-00.000066800000,  -0.25600,
,,,-00.000066760000,  -0.24800,
,,,-00.000066720000,  -0.24000,
,,,-00.000066680000,  -0.24000,
,,,-00.000066640000,  -0.23200,
,,,-00.000066600000,  -0.24800,
,,,-00.000066560000,  -0.23200,
,,,-00.000066520000,  -0.24000,
,,,-00.000066480000,  -0.23200,
,,,-00.000066440000,  -0.21600,
,,,-00.000066400000,  -0.21600,
,,,-00.000066360000,  -0.23200,
,,,-00.000066320000,  -0.20800,
,,,-00.000066280000,  -0.21600,
,,,-00.000066240000,  -0.21600,
,,,-00.000066200000,  -0.20000,
,,,-00.000066160000,  -0.20000,
,,,-00.000066120000,  -0.20000,
,,,-00.000066080000,  -0.20000,
,,,-00.000066040000,  -0.19200,
,,,-00.000066000000,  -0.19200,
,,,-00.000065960000,  -0.18400,
,,,-00.000065920000,  -0.20000,
,,,-00.000065880000,  -0.20000,
,,,-00.000065840000,  -0.19200,
,,,-00.000065800000,  -0.19200,
,,,-00.000065760000,  -0.20000,
,,,-00.000065720000,  -0.19200,
,,,-00.000065680000,  -0.18400,
,,,-00.000065640000,  -0.19200,
,,,-00.000065600000,  -0.18400,
,,,-00.000065560000,  -0.17600,
,,,-00.000065520000,  -0.17600,
,,,-00.000065480000,  -0.18400,
