05_04/Datos0/ALL0094/F0094CH1.CSV

Record Length,2.500000e+03,,  -0.000045000000,   0.11200,
Sample Interval,2.000000e-08,,  -0.000044980000,   0.10400,
Trigger Point,2.250000000000e+03,,  -0.000044960000,   0.10400,
,,,  -0.000044940000,   0.11200,
,,,  -0.000044920000,   0.11200,
,,,  -0.000044900000,   0.11200,
Source,CH1,,  -0.000044880000,  -0.28000,
Vertical Units,V,,  -0.000044860000,  -0.46400,
Vertical Scale,2.000000e-01,,  -0.000044840000,  -0.48800,
Vertical Offset,1.040000e-01,,  -0.000044820000,  -0.48800,
Horizontal Units,s,,  -0.000044800000,  -0.48800,
Horizontal Scale,5.000000e-06,,  -0.000044780000,  -0.48000,
Pt Fmt,Y,,  -0.000044760000,  -0.48000,
Yzero,0.000000e+00,,  -0.000044740000,  -0.48000,
Probe Atten,1.000000e+01,,  -0.000044720000,  -0.47200,
Model Number,TBS1052B-EDU,,  -0.000044700000,  -0.47200,
Serial Number,C017051,,  -0.000044680000,  -0.46400,
Firmware Version,FV:v3.25,,  -0.000044660000,  -0.47200,
,,,-00.000044640000,  -0.46400,
,,,-00.000044620000,  -0.46400,
,,,-00.000044600000,  -0.44800,
,,,-00.000044580000,  -0.45600,
,,,-00.000044560000,  -0.44800,
,,,-00.000044540000,  -0.44000,
,,,-00.000044520000,  -0.44000,
,,,-00.000044500000,  -0.44800,
,,,-00.000044480000,  -0.44800,
,,,-00.000044460000,  -0.43200,
,,,-00.000044440000,  -0.43200,
,,,-00.000044420000,  -0.42400,
,,,-00.000044400000,  -0.42400,
,,,-00.000044380000,  -0.41600,
,,,-00.000044360000,  -0.42400,
,,,-00.000044340000,  -0.43200,
,,,-00.000044320000,  -0.41600,
,,,-00.000044300000,  -0.42400,
,,,-00.000044280000,  -0.40800,
,,,-00.000044260000,  -0.40800,
,,,-00.000044240000,  -0.40800,
,,,-00.000044220000,  -0.40800,
,,,-00.000044200000,  -0.40800,
,,,-00.000044180000,  -0.40800,
,,,-00.000044160000,  -0.40000,
,,,-00.000044140000,  -0.40000,
,,,-00.000044120000,  -0.40000,
,,,-00.000044100000,  -0.38400,
,,,-00.000044080000,  -0.39200,
,,,-00.000044060000,  -0.38400,
,,,-00.000044040000,  -0.37600,
,,,-00.000044020000,  -0.37600,
,,,-00.000044000000,  -0.36800,
,,,-00.000043980000,  -0.37600,
,,,-00.000043960000,  -0.37600,
,,,-00.000043940000,  -0.38400,
,,,-00.000043920000,  -0.37600,
,,,-00.000043900000,  -0.36000,
,,,-00.000043880000,  -0.36000,
,,,-00.000043860000,  -0.36800,
,,,-00.000043840000,  -0.36800,
,,,-00.000043820000,  -0.36800,
,,,-00.000043800000,  -0.35200,
,,,-00.000043780000,  -0.35200,
,,,-00.000043760000,  -0.36000,
,,,-00.000043740000,  -0.35200,
,,,-00.000043720000,  -0.34400,
,,,-00.000043700000,  -0.35200,
,,,-00.000043680000,  -0.34400,
,,,-00.000043660000,  -0.33600,
,,,-00.000043640000,  -0.34400,
,,,-00.000043620000,  -0.33600,
,,,-00.000043600000,  -0.33600,
,,,-00.000043580000,  -0.34400,
,,,-00.000043560000,  -0.33600,
,,,-00.000043540000,  -0.33600,
,,,-00.000043520000,  -0.32800,
,,,-00.000043500000,  -0.32800,
,,,-00.000043480000,  -0.33600,
,,,-00.000043460000,  -0.32800,
,,,-00.000043440000,  -0.33600,
,,,-00.000043420000,  -0.32800,
,,,-00.000043400000,  -0.32800,
,,,-00.000043380000,  -0.32800,
,,,-00.000043360000,  -0.32000,
,,,-00.000043340000,  -0.32000,
,,,-00.000043320000,  -0.32000,
,,,-00.000043300000,  -0.31200,
,,,-00.000043280000,  -0.32000,
,,,-00.000043260000,  -0.31200,
,,,-00.000043240000,  -0.31200,
,,,-00.000043220000,  -0.31200,
,,,-00.000043200000,  -0.32000,
,,,-00.000043180000,  -0.31200,
,,,-00.000043160000,  -0.30400,
,,,-00.000043140000,  -0.31200,
,,,-00.000043120000,  -0.31200,
,,,-00.000043100000,  -0.31200,
,,,-00.000043080000,  -0.30400,
,,,-00.000043060000,  -0.31200,
,,,-00.000043040000,  -0.30400,
,,,-00.000043020000,  -0.30400,
,,,-00.000043000000,  -0.30400,
,,,-00.000042980000,  -0.29600,
,,,-00.000042960000,  -0.29600,
,,,-00.000042940000,  -0.29600,
,,,-00.000042920000,  -0.28800,
,,,-00.000042900000,  -0.28800,
,,,-00.000042880000,  -0.28800,
,,,-00.000042860000,  -0.28800,
,,,-00.000042840000,  -0.29600,
,,,-00.000042820000,  -0.28000,
,,,-00.000042800000,  -0.28000,
,,,-00.000042780000,  -0.28000,
,,,-00.000042760000,  -0.27200,
,,,-00.000042740000,  -0.27200,
,,,-00.000042720000,  -0.26400,
,,,-00.000042700000,  -0.26400,
,,,-00.000042680000,  -0.27200,
,,,-00.000042660000,  -0.26400,
,,,-00.000042640000,  -0.26400,
,,,-00.000042620000,  -0.26400,
,,,-00.000042600000,  -0.26400,
,,,-00.000042580000,  -0.26400,
,,,-00.000042560000,  -0.25600,
,,,-00.000042540000,  -0.25600,
,,,-00.000042520000,  -0.26400,
,,,-00.000042500000,  -0.25600,
,,,-00.000042480000,  -0.25600,
,,,-00.000042460000,  -0.24800,
,,,-00.000042440000,  -0.25600,
,,,-00.000042420000,  -0.24800,
,,,-00.000042400000,  -0.24800,
,,,-00.000042380000,  -0.24800,
,,,-00.000042360000,  -0.24000,
,,,-00.000042340000,  -0.24800,
,,,-00.000042320000,  -0.24000,
,,,-00.000042300000,  -0.24000,
,,,-00.000042280000,  -0.24800,
,,,-00.000042260000,  -0.24800,
,,,-00.000042240000,  -0.24000,
,,,-00.000042220000,  -0.24000,
,,,-00.000042200000,  -0.24000,
,,,-00.000042180000,  -0.24800,
,,,-00.000042160000,  -0.23200,
,,,-00.000042140000,  -0.24000,
,,,-00.000042120000,  -0.22400,
,,,-00.000042100000,  -0.24000,
,,,-00.000042080000,  -0.23200,
,,,-00.000042060000,  -0.23200,
,,,-00.000042040000,  -0.23200,
,,,-00.000042020000,  -0.23200,
,,,-00.000042000000,  -0.24000,
,,,-00.000041980000,  -0.21600,
,,,-00.000041960000,  -0.23200,
,,,-00.000041940000,  -0.23200,
,,,-00.000041920000,  -0.23200,
,,,-00.000041900000,  -0.21600,
,,,-00.000041880000,  -0.21600,
,,,-00.000041860000,  -0.21600,
,,,-00.000041840000,  -0.22400,
,,,-00.000041820000,  -0.21600,
,,,-00.000041800000,  -0.22400,
,,,-00.000041780000,  -0.22400,
,,,-00.000041760000,  -0.21600,
,,,-00.000041740000,  -0.21600,
,,,-00.000041720000,  -0.21600,
,,,-00.000041700000,  -0.22400,
,,,-00.000041680000,  -0.21600,
,,,-00.000041660000,  -0.21600,
,,,-00.000041640000,  -0.23200,
,,,-00.000041620000,  -0.20800,
,,,-00.000041600000,  -0.21600,
,,,-00.000041580000,  -0.20800,
,,,-00.000041560000,  -0.22400,
,,,-00.000041540000,  -0.21600,
,,,-00.000041520000,  -0.20800,
,,,-00.000041500000,  -0.20800,
,,,-00.000041480000,  -0.20800,
,,,-00.000041460000,  -0.20800,
,,,-00.000041440000,  -0.20800,
,,,-00.000041420000,  -0.20800,
,,,-00.000041400000,  -0.20800,
,,,-00.000041380000,  -0.20000,
,,,-00.000041360000,  -0.20000,
,,,-00.000041340000,  -0.20800,
,,,-00.000041320000,  -0.19200,
,,,-00.000041300000,  -0.20000,
,,,-00.000041280000,  -0.18400,
,,,-00.000041260000,  -0.20000,
,,,-00.000041240000,  -0.19200,
,,,-00.000041220000,  -0.19200,
,,,-00.000041200000,  -0.19200,
,,,-00.000041180000,  -0.18400,
,,,-00.000041160000,  -0.20000,
,,,-00.000041140000,  -0.18400,
,,,-00.000041120000,  -0.18400,
,,,-00.000041100000,  -0.18400,
,,,-00.000041080000,  -0.17600,
,,,-00.000041060000,  -0.18400,
,,,-00.000041040000,  -0.17600,
,,,-00.000041020000,  -0.17600,
,,,-00.000041000000,  -0.19200,
,,,-00.000040980000,  -0.17600,
,,,-00.000040960000,  -0.17600,
,,,-00.000040940000,  -0.17600,
,,,-00.000040920000,  -0.17600,
,,,-00.000040900000,  -0.17600,
,,,-00.000040880000,  -0.16800,
,,,-00.000040860000,  -0.17600,
,,,-00.000040840000,  -0.15200,
,,,-00.000040820000,  -0.16800,
,,,-00.000040800000,  -0.16800,
,,,-00.000040780000,  -0.16800,
,,,-00.000040760000,  -0.16800,
,,,-00.000040740000,  -0.16000,
,,,-00.000040720000,  -0.16800,
,,,-00.000040700000,  -0.16800,
,,,-00.000040680000,  -0.16800,
,,,-00.000040660000,  -0.18400,
,,,-00.000040640000,  -0.16800,
,,,-00.000040620000,  -0.16000,
,,,-00.000040600000,  -0.15200,
,,,-00.000040580000,  -0.14400,
,,,-00.000040560000,  -0.15200,
,,,-00.000040540000,  -0.16800,
,,,-00.000040520000,  -0.16800,
,,,-00.000040500000,  -0.16800,
,,,-00.000040480000,  -0.15200,
,,,-00.000040460000,  -0.16000,
,,,-00.000040440000,  -0.15200,
,,,-00.000040420000,  -0.16000,
,,,-00.000040400000,  -0.16000,
,,,-00.000040380000,  -0.16000,
,,,-00.000040360000,  -0.16800,
,,,-00.000040340000,  -0.16000,
,,,-00.000040320000,  -0.15200,
,,,-00.000040300000,  -0.15200,
,,,-00.000040280000,  -0.15200,
,,,-00.000040260000,  -0.15200,
,,,-00.000040240000,  -0.16000,
,,,-00.000040220000,  -0.16000,
,,,-00.000040200000,  -0.15200,
,,,-00.000040180000,  -0.15200,
,,,-00.000040160000,  -0.16000,
,,,-00.000040140000,  -0.14400,
,,,-00.000040120000,  -0.16000,
,,,-00.000040100000,  -0.14400,
,,,-00.000040080000,  -0.14400,
,,,-00.000040060000,  -0.14400,
,,,-00.000040040000,  -0.14400,
,,,-00.000040020000,  -0.15200,
,,,-00.000040000000,  -0.12800,
,,,-00.000039980000,  -0.14400,
,,,-00.000039960000,  -0.13600,
,,,-00.000039940000,  -0.14400,
,,,-00.000039920000,  -0.14400,
,,,-00.000039900000,  -0.12800,
,,,-00.000039880000,   0.24800,
,,,-00.000039860000,   0.41600,
,,,-00.000039840000,   0.44800,
,,,-00.000039820000,   0.45600,
,,,-00.000039800000,   0.44800,
,,,-00.000039780000,   0.44800,
,,,-00.000039760000,   0.44000,
,,,-00.000039740000,   0.43200,
,,,-00.000039720000,   0.41600,
,,,-00.000039700000,   0.41600,
,,,-00.000039680000,   0.42400,
,,,-00.000039660000,   0.42400,
,,,-00.000039640000,   0.42400,
,,,-00.000039620000,   0.41600,
,,,-00.000039600000,   0.41600,
,,,-00.000039580000,   0.40000,
,,,-00.000039560000,   0.40800,
,,,-00.000039540000,   0.40800,
,,,-00.000039520000,   0.40000,
,,,-00.000039500000,   0.40000,
,,,-00.000039480000,   0.40800,
,,,-00.000039460000,   0.39200,
,,,-00.000039440000,   0.39200,
,,,-00.000039420000,   0.37600,
,,,-00.000039400000,   0.38400,
,,,-00.000039380000,   0.38400,
,,,-00.000039360000,   0.36000,
,,,-00.000039340000,   0.38400,
,,,-00.000039320000,   0.37600,
,,,-00.000039300000,   0.37600,
,,,-00.000039280000,   0.36000,
,,,-00.000039260000,   0.36800,
,,,-00.000039240000,   0.36000,
,,,-00.000039220000,   0.36800,
,,,-00.000039200000,   0.36800,
,,,-00.000039180000,   0.35200,
,,,-00.000039160000,   0.35200,
,,,-00.000039140000,   0.34400,
,,,-00.000039120000,   0.35200,
,,,-00.000039100000,   0.35200,
,,,-00.000039080000,   0.35200,
,,,-00.000039060000,   0.35200,
,,,-00.000039040000,   0.33600,
,,,-00.000039020000,   0.34400,
,,,-00.000039000000,   0.33600,
,,,-00.000038980000,   0.32800,
,,,-00.000038960000,   0.34400,
,,,-00.000038940000,   0.32800,
,,,-00.000038920000,   0.32800,
,,,-00.000038900000,   0.33600,
,,,-00.000038880000,   0.32000,
,,,-00.000038860000,   0.32800,
,,,-00.000038840000,   0.32800,
,,,-00.000038820000,   0.33600,
,,,-00.000038800000,   0.32000,
,,,-00.000038780000,   0.32000,
,,,-00.000038760000,   0.32800,
,,,-00.000038740000,   0.32000,
,,,-00.000038720000,   0.32000,
,,,-00.000038700000,   0.31200,
,,,-00.000038680000,   0.31200,
,,,-00.000038660000,   0.30400,
,,,-00.000038640000,   0.29600,
,,,-00.000038620000,   0.30400,
,,,-00.000038600000,   0.31200,
,,,-00.000038580000,   0.31200,
,,,-00.000038560000,   0.31200,
,,,-00.000038540000,   0.29600,
,,,-00.000038520000,   0.29600,
,,,-00.000038500000,   0.28800,
,,,-00.000038480000,   0.30400,
,,,-00.000038460000,   0.30400,
,,,-00.000038440000,   0.28800,
,,,-00.000038420000,   0.28800,
,,,-00.000038400000,   0.28000,
,,,-00.000038380000,   0.28000,
,,,-00.000038360000,   0.30400,
,,,-00.000038340000,   0.28800,
,,,-00.000038320000,   0.28000,
,,,-00.000038300000,   0.28000,
,,,-00.000038280000,   0.28000,
,,,-00.000038260000,   0.28000,
,,,-00.000038240000,   0.28000,
,,,-00.000038220000,   0.27200,
,,,-00.000038200000,   0.27200,
,,,-00.000038180000,   0.26400,
,,,-00.000038160000,   0.28000,
,,,-00.000038140000,   0.26400,
,,,-00.000038120000,   0.26400,
,,,-00.000038100000,   0.26400,
,,,-00.000038080000,   0.26400,
,,,-00.000038060000,   0.26400,
,,,-00.000038040000,   0.26400,
,,,-00.000038020000,   0.27200,
,,,-00.000038000000,   0.25600,
,,,-00.000037980000,   0.25600,
,,,-00.000037960000,   0.25600,
,,,-00.000037940000,   0.24800,
,,,-00.000037920000,   0.25600,
,,,-00.000037900000,   0.24800,
,,,-00.000037880000,   0.24000,
,,,-00.000037860000,   0.24000,
,,,-00.000037840000,   0.24800,
,,,-00.000037820000,   0.24800,
,,,-00.000037800000,   0.24000,
,,,-00.000037780000,   0.24000,
,,,-00.000037760000,   0.24000,
,,,-00.000037740000,   0.24800,
,,,-00.000037720000,   0.24000,
,,,-00.000037700000,   0.23200,
,,,-00.000037680000,   0.23200,
,,,-00.000037660000,   0.23200,
,,,-00.000037640000,   0.23200,
,,,-00.000037620000,   0.24000,
,,,-00.000037600000,   0.22400,
,,,-00.000037580000,   0.21600,
,,,-00.000037560000,   0.22400,
,,,-00.000037540000,   0.22400,
,,,-00.000037520000,   0.22400,
,,,-00.000037500000,   0.21600,
,,,-00.000037480000,   0.22400,
,,,-00.000037460000,   0.24000,
,,,-00.000037440000,   0.21600,
,,,-00.000037420000,   0.20800,
,,,-00.000037400000,   0.20000,
,,,-00.000037380000,   0.20800,
,,,-00.000037360000,   0.20800,
,,,-00.000037340000,   0.20800,
,,,-00.000037320000,   0.21600,
,,,-00.000037300000,   0.20800,
,,,-00.000037280000,   0.20800,
,,,-00.000037260000,   0.20800,
,,,-00.000037240000,   0.20800,
,,,-00.000037220000,   0.20000,
,,,-00.000037200000,   0.20800,
,,,-00.000037180000,   0.20000,
,,,-00.000037160000,   0.19200,
,,,-00.000037140000,   0.19200,
,,,-00.000037120000,   0.20000,
,,,-00.000037100000,   0.19200,
,,,-00.000037080000,   0.19200,
,,,-00.000037060000,   0.19200,
,,,-00.000037040000,   0.20000,
,,,-00.000037020000,   0.19200,
,,,-00.000037000000,   0.20000,
,,,-00.000036980000,   0.18400,
,,,-00.000036960000,   0.18400,
,,,-00.000036940000,   0.19200,
,,,-00.000036920000,   0.19200,
,,,-00.000036900000,   0.18400,
,,,-00.000036880000,   0.18400,
,,,-00.000036860000,   0.18400,
,,,-00.000036840000,   0.18400,
,,,-00.000036820000,   0.18400,
,,,-00.000036800000,   0.19200,
,,,-00.000036780000,   0.18400,
,,,-00.000036760000,   0.16800,
,,,-00.000036740000,   0.17600,
,,,-00.000036720000,   0.18400,
,,,-00.000036700000,   0.17600,
,,,-00.000036680000,   0.16800,
,,,-00.000036660000,   0.18400,
,,,-00.000036640000,   0.16800,
,,,-00.000036620000,   0.17600,
,,,-00.000036600000,   0.16800,
,,,-00.000036580000,   0.16800,
,,,-00.000036560000,   0.17600,
,,,-00.000036540000,   0.17600,
,,,-00.000036520000,   0.16800,
,,,-00.000036500000,   0.16800,
,,,-00.000036480000,   0.16000,
,,,-00.000036460000,   0.15200,
,,,-00.000036440000,   0.16000,
,,,-00.000036420000,   0.16800,
,,,-00.000036400000,   0.15200,
,,,-00.000036380000,   0.16800,
,,,-00.000036360000,   0.15200,
,,,-00.000036340000,   0.16000,
,,,-00.000036320000,   0.16000,
,,,-00.000036300000,   0.16000,
,,,-00.000036280000,   0.16800,
,,,-00.000036260000,   0.14400,
,,,-00.000036240000,   0.15200,
,,,-00.000036220000,   0.15200,
,,,-00.000036200000,   0.14400,
,,,-00.000036180000,   0.15200,
,,,-00.000036160000,   0.14400,
,,,-00.000036140000,   0.15200,
,,,-00.000036120000,   0.15200,
,,,-00.000036100000,   0.14400,
,,,-00.000036080000,   0.14400,
,,,-00.000036060000,   0.14400,
,,,-00.000036040000,   0.13600,
,,,-00.000036020000,   0.14400,
,,,-00.000036000000,   0.13600,
,,,-00.000035980000,   0.13600,
,,,-00.000035960000,   0.14400,
,,,-00.000035940000,   0.14400,
,,,-00.000035920000,   0.12800,
,,,-00.000035900000,   0.14400,
,,,-00.000035880000,   0.12800,
,,,-00.000035860000,   0.12800,
,,,-00.000035840000,   0.13600,
,,,-00.000035820000,   0.12800,
,,,-00.000035800000,   0.13600,
,,,-00.000035780000,   0.12800,
,,,-00.000035760000,   0.12800,
,,,-00.000035740000,   0.13600,
,,,-00.000035720000,   0.13600,
,,,-00.000035700000,   0.11200,
,,,-00.000035680000,   0.12800,
,,,-00.000035660000,   0.12000,
,,,-00.000035640000,   0.12800,
,,,-00.000035620000,   0.12800,
,,,-00.000035600000,   0.12000,
,,,-00.000035580000,   0.11200,
,,,-00.000035560000,   0.12800,
,,,-00.000035540000,   0.12000,
,,,-00.000035520000,   0.12000,
,,,-00.000035500000,   0.12000,
,,,-00.000035480000,   0.12000,
,,,-00.000035460000,   0.12000,
,,,-00.000035440000,   0.12000,
,,,-00.000035420000,   0.11200,
,,,-00.000035400000,   0.11200,
,,,-00.000035380000,   0.12000,
,,,-00.000035360000,   0.11200,
,,,-00.000035340000,   0.12000,
,,,-00.000035320000,   0.10400,
,,,-00.000035300000,   0.11200,
,,,-00.000035280000,   0.11200,
,,,-00.000035260000,   0.09600,
,,,-00.000035240000,   0.11200,
,,,-00.000035220000,   0.10400,
,,,-00.000035200000,   0.12000,
,,,-00.000035180000,   0.09600,
,,,-00.000035160000,   0.11200,
,,,-00.000035140000,   0.10400,
,,,-00.000035120000,   0.09600,
,,,-00.000035100000,   0.11200,
,,,-00.000035080000,   0.09600,
,,,-00.000035060000,   0.10400,
,,,-00.000035040000,   0.08800,
,,,-00.000035020000,   0.09600,
,,,-00.000035000000,   0.09600,
,,,-00.000034980000,   0.09600,
,,,-00.000034960000,   0.09600,
,,,-00.000034940000,   0.09600,
,,,-00.000034920000,   0.09600,
,,,-00.000034900000,   0.08800,
,,,-00.000034880000,  -0.29600,
,,,-00.000034860000,  -0.46400,
,,,-00.000034840000,  -0.48000,
,,,-00.000034820000,  -0.49600,
,,,-00.000034800000,  -0.47200,
,,,-00.000034780000,  -0.49600,
,,,-00.000034760000,  -0.48800,
,,,-00.000034740000,  -0.47200,
,,,-00.000034720000,  -0.47200,
,,,-00.000034700000,  -0.48000,
,,,-00.000034680000,  -0.47200,
,,,-00.000034660000,  -0.47200,
,,,-00.000034640000,  -0.45600,
,,,-00.000034620000,  -0.44800,
,,,-00.000034600000,  -0.45600,
,,,-00.000034580000,  -0.45600,
,,,-00.000034560000,  -0.44800,
,,,-00.000034540000,  -0.45600,
,,,-00.000034520000,  -0.43200,
,,,-00.000034500000,  -0.44000,
,,,-00.000034480000,  -0.43200,
,,,-00.000034460000,  -0.44000,
,,,-00.000034440000,  -0.42400,
,,,-00.000034420000,  -0.44000,
,,,-00.000034400000,  -0.42400,
,,,-00.000034380000,  -0.43200,
,,,-00.000034360000,  -0.43200,
,,,-00.000034340000,  -0.43200,
,,,-00.000034320000,  -0.42400,
,,,-00.000034300000,  -0.41600,
,,,-00.000034280000,  -0.40800,
,,,-00.000034260000,  -0.42400,
,,,-00.000034240000,  -0.42400,
,,,-00.000034220000,  -0.40000,
,,,-00.000034200000,  -0.40000,
,,,-00.000034180000,  -0.40000,
,,,-00.000034160000,  -0.40800,
,,,-00.000034140000,  -0.40000,
,,,-00.000034120000,  -0.40800,
,,,-00.000034100000,  -0.39200,
,,,-00.000034080000,  -0.39200,
,,,-00.000034060000,  -0.40000,
,,,-00.000034040000,  -0.39200,
,,,-00.000034020000,  -0.38400,
,,,-00.000034000000,  -0.38400,
,,,-00.000033980000,  -0.36800,
,,,-00.000033960000,  -0.37600,
,,,-00.000033940000,  -0.37600,
,,,-00.000033920000,  -0.37600,
,,,-00.000033900000,  -0.37600,
,,,-00.000033880000,  -0.37600,
,,,-00.000033860000,  -0.36800,
,,,-00.000033840000,  -0.36000,
,,,-00.000033820000,  -0.36000,
,,,-00.000033800000,  -0.36800,
,,,-00.000033780000,  -0.35200,
,,,-00.000033760000,  -0.35200,
,,,-00.000033740000,  -0.36800,
,,,-00.000033720000,  -0.36000,
,,,-00.000033700000,  -0.35200,
,,,-00.000033680000,  -0.34400,
,,,-00.000033660000,  -0.34400,
,,,-00.000033640000,  -0.34400,
,,,-00.000033620000,  -0.34400,
,,,-00.000033600000,  -0.34400,
,,,-00.000033580000,  -0.33600,
,,,-00.000033560000,  -0.34400,
,,,-00.000033540000,  -0.33600,
,,,-00.000033520000,  -0.34400,
,,,-00.000033500000,  -0.33600,
,,,-00.000033480000,  -0.33600,
,,,-00.000033460000,  -0.34400,
,,,-00.000033440000,  -0.33600,
,,,-00.000033420000,  -0.32800,
,,,-00.000033400000,  -0.33600,
,,,-00.000033380000,  -0.32800,
,,,-00.000033360000,  -0.33600,
,,,-00.000033340000,  -0.33600,
,,,-00.000033320000,  -0.32800,
,,,-00.000033300000,  -0.32800,
,,,-00.000033280000,  -0.32000,
,,,-00.000033260000,  -0.32000,
,,,-00.000033240000,  -0.32000,
,,,-00.000033220000,  -0.31200,
,,,-00.000033200000,  -0.32000,
,,,-00.000033180000,  -0.30400,
,,,-00.000033160000,  -0.30400,
,,,-00.000033140000,  -0.30400,
,,,-00.000033120000,  -0.30400,
,,,-00.000033100000,  -0.28800,
,,,-00.000033080000,  -0.28000,
,,,-00.000033060000,  -0.28000,
,,,-00.000033040000,  -0.29600,
,,,-00.000033020000,  -0.27200,
,,,-00.000033000000,  -0.28000,
,,,-00.000032980000,  -0.28000,
,,,-00.000032960000,  -0.27200,
,,,-00.000032940000,  -0.28000,
,,,-00.000032920000,  -0.27200,
,,,-00.000032900000,  -0.28000,
,,,-00.000032880000,  -0.27200,
,,,-00.000032860000,  -0.27200,
,,,-00.000032840000,  -0.26400,
,,,-00.000032820000,  -0.26400,
,,,-00.000032800000,  -0.26400,
,,,-00.000032780000,  -0.26400,
,,,-00.000032760000,  -0.27200,
,,,-00.000032740000,  -0.26400,
