05_04/Datos0/ALL0081/F0081CH1.CSV

Record Length,2.500000e+03,,  -0.000900000000,   0.00000,
Sample Interval,4.000000e-07,,  -0.000899600000,   0.00000,
Trigger Point,2.250000000000e+03,,  -0.000899200000,  -0.00800,
,,,  -0.000898800000,   0.00000,
,,,  -0.000898400000,   0.00000,
,,,  -0.000898000000,   0.00000,
Source,CH1,,  -0.000897600000,  -0.00800,
Vertical Units,V,,  -0.000897200000,  -0.00800,
Vertical Scale,2.000000e-01,,  -0.000896800000,  -0.01600,
Vertical Offset,1.040000e-01,,  -0.000896400000,  -0.01600,
Horizontal Units,s,,  -0.000896000000,  -0.01600,
Horizontal Scale,1.000000e-04,,  -0.000895600000,  -0.00800,
Pt Fmt,Y,,  -0.000895200000,  -0.00800,
Yzero,0.000000e+00,,  -0.000894800000,   0.00000,
Probe Atten,1.000000e+01,,  -0.000894400000,  -0.01600,
Model Number,TBS1052B-EDU,,  -0.000894000000,   0.00000,
Serial Number,C017051,,  -0.000893600000,   0.00000,
Firmware Version,FV:v3.25,,  -0.000893200000,  -0.00800,
,,,-00.000892800000,   0.00000,
,,,-00.000892400000,  -0.00800,
,,,-00.000892000000,   0.00800,
,,,-00.000891600000,  -0.00800,
,,,-00.000891200000,  -0.00800,
,,,-00.000890800000,  -0.02400,
,,,-00.000890400000,   0.00000,
,,,-00.000890000000,   0.00000,
,,,-00.000889600000,  -0.00800,
,,,-00.000889200000,  -0.00800,
,,,-00.000888800000,  -0.01600,
,,,-00.000888400000,  -0.01600,
,,,-00.000888000000,  -0.01600,
,,,-00.000887600000,  -0.00800,
,,,-00.000887200000,  -0.00800,
,,,-00.000886800000,  -0.01600,
,,,-00.000886400000,  -0.00800,
,,,-00.000886000000,   0.00000,
,,,-00.000885600000,  -0.00800,
,,,-00.000885200000,  -0.00800,
,,,-00.000884800000,   0.00000,
,,,-00.000884400000,   0.00000,
,,,-00.000884000000,   0.00000,
,,,-00.000883600000,  -0.01600,
,,,-00.000883200000,   0.00000,
,,,-00.000882800000,   0.00000,
,,,-00.000882400000,  -0.00800,
,,,-00.000882000000,  -0.02400,
,,,-00.000881600000,  -0.00800,
,,,-00.000881200000,  -0.01600,
,,,-00.000880800000,  -0.01600,
,,,-00.000880400000,  -0.00800,
,,,-00.000880000000,   0.00000,
,,,-00.000879600000,   0.00000,
,,,-00.000879200000,   0.00800,
,,,-00.000878800000,   0.00000,
,,,-00.000878400000,   0.00800,
,,,-00.000878000000,  -0.00800,
,,,-00.000877600000,  -0.00800,
,,,-00.000877200000,   0.00800,
,,,-00.000876800000,   0.00000,
,,,-00.000876400000,  -0.00800,
,,,-00.000876000000,   0.00000,
,,,-00.000875600000,  -0.00800,
,,,-00.000875200000,  -0.02400,
,,,-00.000874800000,  -0.01600,
,,,-00.000874400000,  -0.02400,
,,,-00.000874000000,  -0.01600,
,,,-00.000873600000,  -0.00800,
,,,-00.000873200000,  -0.00800,
,,,-00.000872800000,  -0.00800,
,,,-00.000872400000,  -0.01600,
,,,-00.000872000000,  -0.00800,
,,,-00.000871600000,  -0.01600,
,,,-00.000871200000,   0.00000,
,,,-00.000870800000,   0.00000,
,,,-00.000870400000,   0.00000,
,,,-00.000870000000,   0.00000,
,,,-00.000869600000,  -0.00800,
,,,-00.000869200000,   0.00000,
,,,-00.000868800000,   0.00800,
,,,-00.000868400000,  -0.00800,
,,,-00.000868000000,  -0.01600,
,,,-00.000867600000,  -0.00800,
,,,-00.000867200000,  -0.00800,
,,,-00.000866800000,  -0.00800,
,,,-00.000866400000,  -0.00800,
,,,-00.000866000000,   0.00000,
,,,-00.000865600000,  -0.00800,
,,,-00.000865200000,   0.00000,
,,,-00.000864800000,   0.00000,
,,,-00.000864400000,  -0.00800,
,,,-00.000864000000,   0.00800,
,,,-00.000863600000,   0.00800,
,,,-00.000863200000,   0.00800,
,,,-00.000862800000,  -0.01600,
,,,-00.000862400000,  -0.00800,
,,,-00.000862000000,  -0.00800,
,,,-00.000861600000,  -0.00800,
,,,-00.000861200000,   0.00000,
,,,-00.000860800000,  -0.00800,
,,,-00.000860400000,  -0.00800,
,,,-00.000860000000,  -0.01600,
,,,-00.000859600000,  -0.01600,
,,,-00.000859200000,  -0.01600,
,,,-00.000858800000,  -0.02400,
,,,-00.000858400000,  -0.01600,
,,,-00.000858000000,  -0.02400,
,,,-00.000857600000,  -0.01600,
,,,-00.000857200000,  -0.01600,
,,,-00.000856800000,  -0.00800,
,,,-00.000856400000,   0.00800,
,,,-00.000856000000,   0.00000,
,,,-00.000855600000,   0.00000,
,,,-00.000855200000,   0.00800,
,,,-00.000854800000,   0.00000,
,,,-00.000854400000,  -0.00800,
,,,-00.000854000000,  -0.00800,
,,,-00.000853600000,  -0.00800,
,,,-00.000853200000,  -0.00800,
,,,-00.000852800000,  -0.01600,
,,,-00.000852400000,   0.00000,
,,,-00.000852000000,  -0.01600,
,,,-00.000851600000,  -0.02400,
,,,-00.000851200000,   0.00000,
,,,-00.000850800000,   0.00000,
,,,-00.000850400000,   0.00000,
,,,-00.000850000000,  -0.00800,
,,,-00.000849600000,  -0.00800,
,,,-00.000849200000,   0.00800,
,,,-00.000848800000,   0.00000,
,,,-00.000848400000,  -0.00800,
,,,-00.000848000000,  -0.00800,
,,,-00.000847600000,  -0.00800,
,,,-00.000847200000,  -0.00800,
,,,-00.000846800000,  -0.00800,
,,,-00.000846400000,  -0.00800,
,,,-00.000846000000,  -0.00800,
,,,-00.000845600000,  -0.01600,
,,,-00.000845200000,  -0.01600,
,,,-00.000844800000,  -0.00800,
,,,-00.000844400000,  -0.02400,
,,,-00.000844000000,  -0.00800,
,,,-00.000843600000,   0.00000,
,,,-00.000843200000,  -0.00800,
,,,-00.000842800000,  -0.00800,
,,,-00.000842400000,   0.00000,
,,,-00.000842000000,  -0.00800,
,,,-00.000841600000,  -0.01600,
,,,-00.000841200000,   0.00000,
,,,-00.000840800000,  -0.00800,
,,,-00.000840400000,  -0.00800,
,,,-00.000840000000,   0.00000,
,,,-00.000839600000,  -0.00800,
,,,-00.000839200000,  -0.00800,
,,,-00.000838800000,  -0.00800,
,,,-00.000838400000,  -0.00800,
,,,-00.000838000000,  -0.00800,
,,,-00.000837600000,  -0.01600,
,,,-00.000837200000,   0.00000,
,,,-00.000836800000,   0.00000,
,,,-00.000836400000,  -0.00800,
,,,-00.000836000000,   0.00000,
,,,-00.000835600000,  -0.00800,
,,,-00.000835200000,   0.00000,
,,,-00.000834800000,  -0.00800,
,,,-00.000834400000,  -0.00800,
,,,-00.000834000000,   0.00800,
,,,-00.000833600000,  -0.00800,
,,,-00.000833200000,  -0.00800,
,,,-00.000832800000,  -0.01600,
,,,-00.000832400000,  -0.00800,
,,,-00.000832000000,  -0.00800,
,,,-00.000831600000,  -0.01600,
,,,-00.000831200000,  -0.00800,
,,,-00.000830800000,  -0.01600,
,,,-00.000830400000,  -0.57600,
,,,-00.000830000000,  -0.50400,
,,,-00.000829600000,  -0.46400,
,,,-00.000829200000,  -0.40000,
,,,-00.000828800000,  -0.35200,
,,,-00.000828400000,  -0.34400,
,,,-00.000828000000,  -0.28800,
,,,-00.000827600000,  -0.25600,
,,,-00.000827200000,  -0.23200,
,,,-00.000826800000,  -0.20800,
,,,-00.000826400000,  -0.20000,
,,,-00.000826000000,  -0.17600,
,,,-00.000825600000,  -0.16000,
,,,-00.000825200000,  -0.14400,
,,,-00.000824800000,  -0.13600,
,,,-00.000824400000,  -0.12000,
,,,-00.000824000000,  -0.12800,
,,,-00.000823600000,  -0.11200,
,,,-00.000823200000,  -0.10400,
,,,-00.000822800000,  -0.09600,
,,,-00.000822400000,  -0.10400,
,,,-00.000822000000,  -0.07200,
,,,-00.000821600000,  -0.07200,
,,,-00.000821200000,  -0.06400,
,,,-00.000820800000,  -0.07200,
,,,-00.000820400000,  -0.06400,
,,,-00.000820000000,  -0.04800,
,,,-00.000819600000,  -0.04800,
,,,-00.000819200000,  -0.04800,
,,,-00.000818800000,  -0.04800,
,,,-00.000818400000,  -0.04800,
,,,-00.000818000000,  -0.04800,
,,,-00.000817600000,  -0.04800,
,,,-00.000817200000,  -0.05600,
,,,-00.000816800000,  -0.04000,
,,,-00.000816400000,  -0.04000,
,,,-00.000816000000,  -0.05600,
,,,-00.000815600000,  -0.04800,
,,,-00.000815200000,  -0.04000,
,,,-00.000814800000,  -0.04800,
,,,-00.000814400000,  -0.04000,
,,,-00.000814000000,  -0.03200,
,,,-00.000813600000,  -0.03200,
,,,-00.000813200000,  -0.03200,
,,,-00.000812800000,  -0.02400,
,,,-00.000812400000,  -0.03200,
,,,-00.000812000000,  -0.02400,
,,,-00.000811600000,  -0.02400,
,,,-00.000811200000,  -0.03200,
,,,-00.000810800000,  -0.03200,
,,,-00.000810400000,  -0.04000,
,,,-00.000810000000,  -0.03200,
,,,-00.000809600000,  -0.02400,
,,,-00.000809200000,  -0.03200,
,,,-00.000808800000,  -0.04000,
,,,-00.000808400000,  -0.04800,
,,,-00.000808000000,  -0.02400,
,,,-00.000807600000,  -0.03200,
,,,-00.000807200000,  -0.03200,
,,,-00.000806800000,  -0.03200,
,,,-00.000806400000,  -0.02400,
,,,-00.000806000000,  -0.03200,
,,,-00.000805600000,  -0.03200,
,,,-00.000805200000,  -0.03200,
,,,-00.000804800000,  -0.02400,
,,,-00.000804400000,  -0.03200,
,,,-00.000804000000,  -0.03200,
,,,-00.000803600000,  -0.03200,
,,,-00.000803200000,  -0.04000,
,,,-00.000802800000,  -0.03200,
,,,-00.000802400000,  -0.04000,
,,,-00.000802000000,  -0.04000,
,,,-00.000801600000,  -0.03200,
,,,-00.000801200000,  -0.04800,
,,,-00.000800800000,  -0.04800,
,,,-00.000800400000,  -0.03200,
,,,-00.000800000000,  -0.03200,
,,,-00.000799600000,  -0.03200,
,,,-00.000799200000,  -0.01600,
,,,-00.000798800000,  -0.02400,
,,,-00.000798400000,  -0.03200,
,,,-00.000798000000,  -0.02400,
,,,-00.000797600000,  -0.02400,
,,,-00.000797200000,  -0.01600,
,,,-00.000796800000,  -0.04000,
,,,-00.000796400000,  -0.02400,
,,,-00.000796000000,  -0.04000,
,,,-00.000795600000,  -0.03200,
,,,-00.000795200000,  -0.03200,
,,,-00.000794800000,  -0.03200,
,,,-00.000794400000,  -0.03200,
,,,-00.000794000000,  -0.03200,
,,,-00.000793600000,  -0.04000,
,,,-00.000793200000,  -0.03200,
,,,-00.000792800000,  -0.03200,
,,,-00.000792400000,  -0.02400,
,,,-00.000792000000,  -0.04000,
,,,-00.000791600000,  -0.02400,
,,,-00.000791200000,  -0.02400,
,,,-00.000790800000,  -0.03200,
,,,-00.000790400000,  -0.02400,
,,,-00.000790000000,  -0.03200,
,,,-00.000789600000,  -0.04000,
,,,-00.000789200000,  -0.02400,
,,,-00.000788800000,  -0.03200,
,,,-00.000788400000,  -0.02400,
,,,-00.000788000000,  -0.04000,
,,,-00.000787600000,  -0.04000,
,,,-00.000787200000,  -0.04000,
,,,-00.000786800000,  -0.03200,
,,,-00.000786400000,  -0.03200,
,,,-00.000786000000,  -0.03200,
,,,-00.000785600000,  -0.04000,
,,,-00.000785200000,  -0.04800,
,,,-00.000784800000,  -0.03200,
,,,-00.000784400000,  -0.04000,
,,,-00.000784000000,  -0.02400,
,,,-00.000783600000,  -0.03200,
,,,-00.000783200000,  -0.03200,
,,,-00.000782800000,  -0.02400,
,,,-00.000782400000,  -0.03200,
,,,-00.000782000000,  -0.02400,
,,,-00.000781600000,  -0.02400,
,,,-00.000781200000,  -0.03200,
,,,-00.000780800000,  -0.03200,
,,,-00.000780400000,  -0.03200,
,,,-00.000780000000,  -0.03200,
,,,-00.000779600000,  -0.02400,
,,,-00.000779200000,  -0.02400,
,,,-00.000778800000,  -0.03200,
,,,-00.000778400000,  -0.01600,
,,,-00.000778000000,  -0.03200,
,,,-00.000777600000,  -0.01600,
,,,-00.000777200000,  -0.02400,
,,,-00.000776800000,  -0.02400,
,,,-00.000776400000,  -0.03200,
,,,-00.000776000000,  -0.03200,
,,,-00.000775600000,  -0.04000,
,,,-00.000775200000,  -0.03200,
,,,-00.000774800000,  -0.03200,
,,,-00.000774400000,  -0.03200,
,,,-00.000774000000,  -0.03200,
,,,-00.000773600000,  -0.03200,
,,,-00.000773200000,  -0.04000,
,,,-00.000772800000,  -0.04000,
,,,-00.000772400000,  -0.04000,
,,,-00.000772000000,  -0.03200,
,,,-00.000771600000,  -0.03200,
,,,-00.000771200000,  -0.03200,
,,,-00.000770800000,  -0.04800,
,,,-00.000770400000,  -0.03200,
,,,-00.000770000000,  -0.02400,
,,,-00.000769600000,  -0.02400,
,,,-00.000769200000,  -0.02400,
,,,-00.000768800000,  -0.02400,
,,,-00.000768400000,  -0.02400,
,,,-00.000768000000,  -0.03200,
,,,-00.000767600000,  -0.02400,
,,,-00.000767200000,  -0.03200,
,,,-00.000766800000,  -0.04000,
,,,-00.000766400000,  -0.04800,
,,,-00.000766000000,  -0.04000,
,,,-00.000765600000,  -0.03200,
,,,-00.000765200000,  -0.04000,
,,,-00.000764800000,  -0.03200,
,,,-00.000764400000,  -0.02400,
,,,-00.000764000000,  -0.03200,
,,,-00.000763600000,  -0.03200,
,,,-00.000763200000,  -0.02400,
,,,-00.000762800000,  -0.02400,
,,,-00.000762400000,  -0.02400,
,,,-00.000762000000,   0.00000,
,,,-00.000761600000,  -0.02400,
,,,-00.000761200000,  -0.02400,
,,,-00.000760800000,  -0.02400,
,,,-00.000760400000,  -0.02400,
,,,-00.000760000000,  -0.03200,
,,,-00.000759600000,  -0.02400,
,,,-00.000759200000,  -0.03200,
,,,-00.000758800000,  -0.03200,
,,,-00.000758400000,  -0.04000,
,,,-00.000758000000,  -0.04000,
,,,-00.000757600000,  -0.03200,
,,,-00.000757200000,  -0.03200,
,,,-00.000756800000,  -0.04000,
,,,-00.000756400000,  -0.03200,
,,,-00.000756000000,  -0.03200,
,,,-00.000755600000,  -0.01600,
,,,-00.000755200000,  -0.01600,
,,,-00.000754800000,  -0.00800,
,,,-00.000754400000,  -0.02400,
,,,-00.000754000000,  -0.02400,
,,,-00.000753600000,  -0.01600,
,,,-00.000753200000,  -0.02400,
,,,-00.000752800000,  -0.04000,
,,,-00.000752400000,  -0.03200,
,,,-00.000752000000,  -0.03200,
,,,-00.000751600000,  -0.04000,
,,,-00.000751200000,  -0.04000,
,,,-00.000750800000,  -0.03200,
,,,-00.000750400000,  -0.03200,
,,,-00.000750000000,  -0.01600,
,,,-00.000749600000,  -0.03200,
,,,-00.000749200000,  -0.03200,
,,,-00.000748800000,  -0.02400,
,,,-00.000748400000,  -0.03200,
,,,-00.000748000000,  -0.02400,
,,,-00.000747600000,  -0.03200,
,,,-00.000747200000,  -0.01600,
,,,-00.000746800000,  -0.02400,
,,,-00.000746400000,  -0.03200,
,,,-00.000746000000,  -0.03200,
,,,-00.000745600000,  -0.02400,
,,,-00.000745200000,  -0.03200,
,,,-00.000744800000,  -0.04800,
,,,-00.000744400000,  -0.04000,
,,,-00.000744000000,  -0.04000,
,,,-00.000743600000,  -0.04000,
,,,-00.000743200000,  -0.04000,
,,,-00.000742800000,  -0.04000,
,,,-00.000742400000,  -0.04000,
,,,-00.000742000000,  -0.02400,
,,,-00.000741600000,  -0.03200,
,,,-00.000741200000,  -0.02400,
,,,-00.000740800000,  -0.03200,
,,,-00.000740400000,  -0.02400,
,,,-00.000740000000,  -0.02400,
,,,-00.000739600000,  -0.02400,
,,,-00.000739200000,  -0.01600,
,,,-00.000738800000,  -0.01600,
,,,-00.000738400000,  -0.03200,
,,,-00.000738000000,  -0.02400,
,,,-00.000737600000,  -0.02400,
,,,-00.000737200000,  -0.02400,
,,,-00.000736800000,  -0.03200,
,,,-00.000736400000,  -0.03200,
,,,-00.000736000000,  -0.04000,
,,,-00.000735600000,  -0.03200,
,,,-00.000735200000,  -0.04000,
,,,-00.000734800000,  -0.03200,
,,,-00.000734400000,  -0.02400,
,,,-00.000734000000,  -0.03200,
,,,-00.000733600000,  -0.02400,
,,,-00.000733200000,  -0.03200,
,,,-00.000732800000,  -0.03200,
,,,-00.000732400000,  -0.03200,
,,,-00.000732000000,  -0.02400,
,,,-00.000731600000,  -0.03200,
,,,-00.000731200000,  -0.02400,
,,,-00.000730800000,  -0.04000,
,,,-00.000730400000,  -0.04000,
,,,-00.000730000000,  -0.03200,
,,,-00.000729600000,  -0.03200,
,,,-00.000729200000,  -0.05600,
,,,-00.000728800000,  -0.04000,
,,,-00.000728400000,  -0.04800,
,,,-00.000728000000,  -0.04000,
,,,-00.000727600000,  -0.04000,
,,,-00.000727200000,  -0.03200,
,,,-00.000726800000,  -0.03200,
,,,-00.000726400000,  -0.03200,
,,,-00.000726000000,  -0.01600,
,,,-00.000725600000,  -0.02400,
,,,-00.000725200000,  -0.02400,
,,,-00.000724800000,  -0.02400,
,,,-00.000724400000,  -0.02400,
,,,-00.000724000000,  -0.03200,
,,,-00.000723600000,  -0.03200,
,,,-00.000723200000,  -0.03200,
,,,-00.000722800000,  -0.04000,
,,,-00.000722400000,  -0.04000,
,,,-00.000722000000,  -0.04800,
,,,-00.000721600000,  -0.04000,
,,,-00.000721200000,  -0.02400,
,,,-00.000720800000,  -0.03200,
,,,-00.000720400000,  -0.03200,
,,,-00.000720000000,  -0.02400,
,,,-00.000719600000,  -0.02400,
,,,-00.000719200000,  -0.02400,
,,,-00.000718800000,  -0.03200,
,,,-00.000718400000,  -0.02400,
,,,-00.000718000000,  -0.02400,
,,,-00.000717600000,  -0.03200,
,,,-00.000717200000,  -0.03200,
,,,-00.000716800000,  -0.03200,
,,,-00.000716400000,  -0.03200,
,,,-00.000716000000,  -0.03200,
,,,-00.000715600000,  -0.04000,
,,,-00.000715200000,  -0.04800,
,,,-00.000714800000,  -0.03200,
,,,-00.000714400000,  -0.04000,
,,,-00.000714000000,  -0.04000,
,,,-00.000713600000,  -0.03200,
,,,-00.000713200000,  -0.04000,
,,,-00.000712800000,  -0.03200,
,,,-00.000712400000,  -0.03200,
,,,-00.000712000000,  -0.03200,
,,,-00.000711600000,  -0.01600,
,,,-00.000711200000,  -0.02400,
,,,-00.000710800000,  -0.03200,
,,,-00.000710400000,  -0.02400,
,,,-00.000710000000,  -0.01600,
,,,-00.000709600000,  -0.02400,
,,,-00.000709200000,  -0.02400,
,,,-00.000708800000,  -0.04000,
,,,-00.000708400000,  -0.03200,
,,,-00.000708000000,  -0.02400,
,,,-00.000707600000,  -0.04800,
,,,-00.000707200000,  -0.03200,
,,,-00.000706800000,  -0.04000,
,,,-00.000706400000,  -0.04000,
,,,-00.000706000000,  -0.03200,
,,,-00.000705600000,  -0.01600,
,,,-00.000705200000,  -0.02400,
,,,-00.000704800000,  -0.02400,
,,,-00.000704400000,  -0.02400,
,,,-00.000704000000,  -0.01600,
,,,-00.000703600000,  -0.03200,
,,,-00.000703200000,  -0.02400,
,,,-00.000702800000,  -0.02400,
,,,-00.000702400000,  -0.03200,
,,,-00.000702000000,  -0.04000,
,,,-00.000701600000,  -0.04000,
,,,-00.000701200000,  -0.02400,
,,,-00.000700800000,  -0.03200,
,,,-00.000700400000,  -0.03200,
,,,-00.000700000000,  -0.04000,
,,,-00.000699600000,  -0.03200,
,,,-00.000699200000,  -0.04000,
,,,-00.000698800000,  -0.03200,
,,,-00.000698400000,  -0.04000,
,,,-00.000698000000,  -0.03200,
,,,-00.000697600000,  -0.03200,
,,,-00.000697200000,  -0.02400,
,,,-00.000696800000,  -0.02400,
,,,-00.000696400000,  -0.03200,
,,,-00.000696000000,  -0.01600,
,,,-00.000695600000,  -0.02400,
,,,-00.000695200000,  -0.03200,
,,,-00.000694800000,  -0.02400,
,,,-00.000694400000,  -0.02400,
,,,-00.000694000000,  -0.03200,
,,,-00.000693600000,  -0.03200,
,,,-00.000693200000,  -0.04800,
,,,-00.000692800000,  -0.04000,
,,,-00.000692400000,  -0.03200,
,,,-00.000692000000,  -0.04000,
,,,-00.000691600000,  -0.02400,
,,,-00.000691200000,  -0.04000,
,,,-00.000690800000,  -0.03200,
,,,-00.000690400000,  -0.02400,
,,,-00.000690000000,  -0.02400,
,,,-00.000689600000,  -0.02400,
,,,-00.000689200000,  -0.02400,
,,,-00.000688800000,  -0.03200,
,,,-00.000688400000,  -0.03200,
,,,-00.000688000000,  -0.03200,
,,,-00.000687600000,  -0.03200,
,,,-00.000687200000,  -0.04000,
,,,-00.000686800000,  -0.04000,
,,,-00.000686400000,  -0.03200,
,,,-00.000686000000,  -0.03200,
,,,-00.000685600000,  -0.04000,
,,,-00.000685200000,  -0.03200,
,,,-00.000684800000,  -0.04000,
,,,-00.000684400000,  -0.04000,
,,,-00.000684000000,  -0.03200,
,,,-00.000683600000,  -0.04000,
,,,-00.000683200000,  -0.02400,
,,,-00.000682800000,  -0.02400,
,,,-00.000682400000,  -0.02400,
,,,-00.000682000000,  -0.03200,
,,,-00.000681600000,  -0.01600,
,,,-00.000681200000,  -0.01600,
,,,-00.000680800000,  -0.01600,
,,,-00.000680400000,  -0.02400,
,,,-00.000680000000,  -0.02400,
,,,-00.000679600000,  -0.03200,
,,,-00.000679200000,  -0.04000,
,,,-00.000678800000,  -0.04800,
,,,-00.000678400000,  -0.04000,
,,,-00.000678000000,  -0.04800,
,,,-00.000677600000,  -0.03200,
,,,-00.000677200000,  -0.04000,
,,,-00.000676800000,  -0.03200,
,,,-00.000676400000,  -0.02400,
,,,-00.000676000000,  -0.04000,
,,,-00.000675600000,  -0.02400,
,,,-00.000675200000,  -0.01600,
,,,-00.000674800000,  -0.02400,
,,,-00.000674400000,  -0.02400,
,,,-00.000674000000,  -0.04000,
,,,-00.000673600000,  -0.03200,
,,,-00.000673200000,  -0.04000,
,,,-00.000672800000,  -0.04000,
,,,-00.000672400000,  -0.03200,
,,,-00.000672000000,  -0.03200,
,,,-00.000671600000,  -0.02400,
,,,-00.000671200000,  -0.03200,
,,,-00.000670800000,  -0.03200,
,,,-00.000670400000,  -0.02400,
,,,-00.000670000000,  -0.04000,
,,,-00.000669600000,  -0.03200,
,,,-00.000669200000,  -0.04000,
,,,-00.000668800000,  -0.03200,
,,,-00.000668400000,  -0.03200,
,,,-00.000668000000,  -0.02400,
,,,-00.000667600000,  -0.02400,
,,,-00.000667200000,  -0.01600,
,,,-00.000666800000,  -0.02400,
,,,-00.000666400000,  -0.02400,
,,,-00.000666000000,  -0.01600,
,,,-00.000665600000,  -0.02400,
,,,-00.000665200000,  -0.03200,
,,,-00.000664800000,  -0.04000,
,,,-00.000664400000,  -0.03200,
,,,-00.000664000000,  -0.04000,
,,,-00.000663600000,   0.50400,
,,,-00.000663200000,   0.44800,
,,,-00.000662800000,   0.38400,
,,,-00.000662400000,   0.33600,
,,,-00.000662000000,   0.31200,
,,,-00.000661600000,   0.27200,
,,,-00.000661200000,   0.26400,
,,,-00.000660800000,   0.22400,
,,,-00.000660400000,   0.20000,
,,,-00.000660000000,   0.17600,
,,,-00.000659600000,   0.16000,
,,,-00.000659200000,   0.12800,
,,,-00.000658800000,   0.12000,
,,,-00.000658400000,   0.10400,
,,,-00.000658000000,   0.08800,
,,,-00.000657600000,   0.07200,
,,,-00.000657200000,   0.08000,
,,,-00.000656800000,   0.06400,
,,,-00.000656400000,   0.04800,
,,,-00.000656000000,   0.04000,
,,,-00.000655600000,   0.04000,
,,,-00.000655200000,   0.04000,
,,,-00.000654800000,   0.02400,
