viejas/16_04/histeresis_bien/ALL0005/F0005CH1.CSV

Record Length,2.500000e+03,,   0.000000000000,  -2.56000,
Sample Interval,1.000000e-01,,   0.100000000000,  -2.56000,
Trigger Point,0.000000000000e+00,,   0.200000000000,  -2.56000,
,,,   0.300000000000,  -2.56000,
,,,   0.400000000000,  -2.56000,
,,,   0.500000000000,  -2.56000,
Source,CH1,,   0.600000000000,  -2.56000,
Vertical Units,V,,   0.700000000000,  -2.56000,
Vertical Scale,5.000000e-01,,   0.800000000000,  -2.56000,
Vertical Offset,0.000000e+00,,   0.900000000000,  -2.56000,
Horizontal Units,s,,   1.000000000000,  -2.56000,
Horizontal Scale,2.500000e+01,,   1.100000000000,  -2.56000,
Pt Fmt,Y,,   1.200000000000,  -2.56000,
Yzero,0.000000e+00,,   1.300000000000,  -2.56000,
Probe Atten,1.000000e+00,,   1.400000000000,  -2.56000,
Model Number,TDS1002B,,   1.500000000000,  -2.56000,
Serial Number,C108011,,   1.600000000000,  -2.56000,
Firmware Version,FV:v22.13,,   1.700000000000,  -2.56000,
,,,1.800000000000,  -2.56000,
,,,1.900000000000,  -2.56000,
,,,2.000000000000,  -2.56000,
,,,2.100000000000,  -2.56000,
,,,2.200000000000,  -2.56000,
,,,2.300000000000,  -2.56000,
,,,2.400000000000,  -2.56000,
,,,2.500000000000,  -2.56000,
,,,2.600000000000,  -2.56000,
,,,2.700000000000,  -2.56000,
,,,2.800000000000,  -2.56000,
,,,2.900000000000,  -2.56000,
,,,3.000000000000,  -2.56000,
,,,3.100000000000,  -2.56000,
,,,3.200000000000,  -2.56000,
,,,3.300000000000,  -2.56000,
,,,3.400000000000,  -2.56000,
,,,3.500000000000,  -2.56000,
,,,3.600000000000,  -2.56000,
,,,3.700000000000,  -2.56000,
,,,3.800000000000,  -2.56000,
,,,3.900000000000,  -2.56000,
,,,4.000000000000,  -2.56000,
,,,4.100000000000,  -2.56000,
,,,4.200000000000,  -2.56000,
,,,4.300000000000,  -2.56000,
,,,4.400000000000,  -2.56000,
,,,4.500000000000,  -2.56000,
,,,4.600000000000,  -2.56000,
,,,4.700000000000,  -2.56000,
,,,4.800000000000,  -2.56000,
,,,4.900000000000,  -2.56000,
,,,5.000000000000,  -2.56000,
,,,5.100000000000,  -2.56000,
,,,5.200000000000,  -2.56000,
,,,5.300000000000,  -2.56000,
,,,5.400000000000,  -2.56000,
,,,5.500000000000,  -2.56000,
,,,5.600000000000,  -2.56000,
,,,5.700000000000,  -2.56000,
,,,5.800000000000,  -2.56000,
,,,5.900000000000,  -2.56000,
,,,6.000000000000,  -2.56000,
,,,6.100000000000,  -2.56000,
,,,6.200000000000,  -2.56000,
,,,6.300000000000,  -2.56000,
,,,6.400000000000,  -2.56000,
,,,6.500000000000,  -2.56000,
,,,6.600000000000,  -2.56000,
,,,6.700000000000,  -2.56000,
,,,6.800000000000,  -2.56000,
,,,6.900000000000,  -0.02000,
,,,7.000000000000,  -0.02000,
,,,7.100000000000,  -0.06000,
,,,7.200000000000,  -0.04000,
,,,7.300000000000,  -0.04000,
,,,7.400000000000,  -0.02000,
,,,7.500000000000,  -0.04000,
,,,7.600000000000,  -0.04000,
,,,7.700000000000,  -0.02000,
,,,7.800000000000,  -0.04000,
,,,7.900000000000,  -0.04000,
,,,8.000000000000,  -0.04000,
,,,8.100000000000,  -0.04000,
,,,8.200000000000,  -0.06000,
,,,8.300000000000,  -0.04000,
,,,8.400000000000,  -0.04000,
,,,8.500000000000,  -0.02000,
,,,8.600000000000,  -0.04000,
,,,8.700000000000,  -0.04000,
,,,8.800000000000,  -0.02000,
,,,8.900000000000,  -0.06000,
,,,9.000000000000,  -0.04000,
,,,9.100000000000,  -0.02000,
,,,9.200000000000,  -0.02000,
,,,9.300000000000,  -0.02000,
,,,9.400000000000,  -0.02000,
,,,9.500000000000,  -0.04000,
,,,9.600000000000,  -0.04000,
,,,9.700000000000,  -0.04000,
,,,9.800000000000,  -0.04000,
,,,9.900000000000,  -0.04000,
,,,10.000000000000,  -0.02000,
,,,10.100000000000,  -0.02000,
,,,10.200000000000,  -0.04000,
,,,10.300000000000,  -0.04000,
,,,10.400000000000,  -0.02000,
,,,10.500000000000,  -0.02000,
,,,10.600000000000,  -0.02000,
,,,10.700000000000,  -0.02000,
,,,10.800000000000,  -0.04000,
,,,10.900000000000,  -0.02000,
,,,11.000000000000,  -0.04000,
,,,11.100000000000,  -0.04000,
,,,11.200000000000,  -0.04000,
,,,11.300000000000,  -0.04000,
,,,11.400000000000,  -0.04000,
,,,11.500000000000,  -0.04000,
,,,11.600000000000,  -0.04000,
,,,11.700000000000,  -0.02000,
,,,11.800000000000,  -0.02000,
,,,11.900000000000,  -0.02000,
,,,12.000000000000,  -0.04000,
,,,12.100000000000,  -0.02000,
,,,12.200000000000,  -0.04000,
,,,12.300000000000,  -0.04000,
,,,12.400000000000,   0.00000,
,,,12.500000000000,  -0.02000,
,,,12.600000000000,  -0.04000,
,,,12.700000000000,  -0.02000,
,,,12.800000000000,  -0.02000,
,,,12.900000000000,  -0.02000,
,,,13.000000000000,  -0.04000,
,,,13.100000000000,  -0.02000,
,,,13.200000000000,  -0.02000,
,,,13.300000000000,  -0.04000,
,,,13.400000000000,  -0.02000,
,,,13.500000000000,  -0.02000,
,,,13.600000000000,  -0.02000,
,,,13.700000000000,  -0.02000,
,,,13.800000000000,  -0.02000,
,,,13.900000000000,  -0.04000,
,,,14.000000000000,  -0.02000,
,,,14.100000000000,  -0.02000,
,,,14.200000000000,  -0.02000,
,,,14.300000000000,  -0.04000,
,,,14.400000000000,  -0.02000,
,,,14.500000000000,  -0.02000,
,,,14.600000000000,  -0.02000,
,,,14.700000000000,  -0.02000,
,,,14.800000000000,  -0.02000,
,,,14.900000000000,  -0.02000,
,,,15.000000000000,  -0.02000,
,,,15.100000000000,  -0.02000,
,,,15.200000000000,  -0.02000,
,,,15.300000000000,   0.00000,
,,,15.400000000000,  -0.02000,
,,,15.500000000000,  -0.02000,
,,,15.600000000000,  -0.02000,
,,,15.700000000000,  -0.02000,
,,,15.800000000000,   0.00000,
,,,15.900000000000,  -0.02000,
,,,16.000000000000,  -0.02000,
,,,16.100000000000,  -0.02000,
,,,16.200000000000,  -0.02000,
,,,16.300000000000,  -0.02000,
,,,16.400000000000,  -0.02000,
,,,16.500000000000,  -0.02000,
,,,16.600000000000,  -0.02000,
,,,16.700000000000,  -0.04000,
,,,16.800000000000,   0.00000,
,,,16.900000000000,  -0.02000,
,,,17.000000000000,  -0.04000,
,,,17.100000000000,  -0.02000,
,,,17.200000000000,   0.00000,
,,,17.300000000000,  -0.02000,
,,,17.400000000000,  -0.02000,
,,,17.500000000000,  -0.02000,
,,,17.600000000000,  -0.02000,
,,,17.700000000000,   0.00000,
,,,17.800000000000,  -0.04000,
,,,17.900000000000,  -0.02000,
,,,18.000000000000,  -0.02000,
,,,18.100000000000,  -0.04000,
,,,18.200000000000,  -0.02000,
,,,18.300000000000,  -0.02000,
,,,18.400000000000,  -0.02000,
,,,18.500000000000,  -0.02000,
,,,18.600000000000,  -0.02000,
,,,18.700000000000,   0.00000,
,,,18.800000000000,  -0.02000,
,,,18.900000000000,   0.00000,
,,,19.000000000000,   0.00000,
,,,19.100000000000,  -0.02000,
,,,19.200000000000,  -0.02000,
,,,19.300000000000,   0.00000,
,,,19.400000000000,   0.00000,
,,,19.500000000000,  -0.02000,
,,,19.600000000000,   0.00000,
,,,19.700000000000,   0.00000,
,,,19.800000000000,   0.00000,
,,,19.900000000000,   0.00000,
,,,20.000000000000,   0.00000,
,,,20.100000000000,  -0.02000,
,,,20.200000000000,  -0.02000,
,,,20.300000000000,   0.00000,
,,,20.400000000000,   0.00000,
,,,20.500000000000,  -0.02000,
,,,20.600000000000,  -0.02000,
,,,20.700000000000,   0.00000,
,,,20.800000000000,  -0.02000,
,,,20.900000000000,   0.00000,
,,,21.000000000000,   0.00000,
,,,21.100000000000,   0.00000,
,,,21.200000000000,   0.00000,
,,,21.300000000000,   0.00000,
,,,21.400000000000,  -0.02000,
,,,21.500000000000,   0.00000,
,,,21.600000000000,  -0.02000,
,,,21.700000000000,   0.00000,
,,,21.800000000000,   0.00000,
,,,21.900000000000,   0.00000,
,,,22.000000000000,  -0.02000,
,,,22.100000000000,  -0.02000,
,,,22.200000000000,   0.00000,
,,,22.300000000000,   0.00000,
,,,22.400000000000,   0.00000,
,,,22.500000000000,   0.00000,
,,,22.600000000000,   0.00000,
,,,22.700000000000,   0.00000,
,,,22.800000000000,   0.00000,
,,,22.900000000000,   0.00000,
,,,23.000000000000,  -0.02000,
,,,23.100000000000,  -0.02000,
,,,23.200000000000,   0.00000,
,,,23.300000000000,  -0.02000,
,,,23.400000000000,   0.00000,
,,,23.500000000000,   0.00000,
,,,23.600000000000,   0.00000,
,,,23.700000000000,   0.00000,
,,,23.800000000000,  -0.02000,
,,,23.900000000000,   0.00000,
,,,24.000000000000,   0.00000,
,,,24.100000000000,   0.00000,
,,,24.200000000000,   0.00000,
,,,24.300000000000,   0.00000,
,,,24.400000000000,   0.00000,
,,,24.500000000000,   0.00000,
,,,24.600000000000,   0.00000,
,,,24.700000000000,  -0.02000,
,,,24.800000000000,   0.00000,
,,,24.900000000000,   0.00000,
,,,25.000000000000,  -0.02000,
,,,25.100000000000,   0.00000,
,,,25.200000000000,   0.00000,
,,,25.300000000000,   0.00000,
,,,25.400000000000,   0.00000,
,,,25.500000000000,   0.02000,
,,,25.600000000000,   0.00000,
,,,25.700000000000,   0.00000,
,,,25.800000000000,   0.00000,
,,,25.900000000000,   0.02000,
,,,26.000000000000,   0.00000,
,,,26.100000000000,   0.00000,
,,,26.200000000000,   0.00000,
,,,26.300000000000,   0.00000,
,,,26.400000000000,   0.00000,
,,,26.500000000000,  -0.02000,
,,,26.600000000000,   0.00000,
,,,26.700000000000,   0.00000,
,,,26.800000000000,   0.00000,
,,,26.900000000000,   0.00000,
,,,27.000000000000,   0.02000,
,,,27.100000000000,   0.00000,
,,,27.200000000000,   0.00000,
,,,27.300000000000,   0.00000,
,,,27.400000000000,   0.00000,
,,,27.500000000000,   0.00000,
,,,27.600000000000,   0.00000,
,,,27.700000000000,   0.00000,
,,,27.800000000000,   0.00000,
,,,27.900000000000,   0.00000,
,,,28.000000000000,   0.00000,
,,,28.100000000000,   0.00000,
,,,28.200000000000,   0.02000,
,,,28.300000000000,   0.00000,
,,,28.400000000000,   0.02000,
,,,28.500000000000,   0.02000,
,,,28.600000000000,   0.00000,
,,,28.700000000000,   0.00000,
,,,28.800000000000,   0.00000,
,,,28.900000000000,   0.00000,
,,,29.000000000000,   0.02000,
,,,29.100000000000,   0.00000,
,,,29.200000000000,   0.00000,
,,,29.300000000000,   0.00000,
,,,29.400000000000,   0.00000,
,,,29.500000000000,   0.02000,
,,,29.600000000000,   0.00000,
,,,29.700000000000,   0.02000,
,,,29.800000000000,   0.00000,
,,,29.900000000000,   0.00000,
,,,30.000000000000,   0.02000,
,,,30.100000000000,   0.02000,
,,,30.200000000000,   0.00000,
,,,30.300000000000,   0.00000,
,,,30.400000000000,   0.02000,
,,,30.500000000000,   0.00000,
,,,30.600000000000,   0.00000,
,,,30.700000000000,   0.02000,
,,,30.800000000000,   0.00000,
,,,30.900000000000,   0.02000,
,,,31.000000000000,   0.00000,
,,,31.100000000000,   0.00000,
,,,31.200000000000,   0.02000,
,,,31.300000000000,   0.00000,
,,,31.400000000000,   0.00000,
,,,31.500000000000,   0.02000,
,,,31.600000000000,   0.00000,
,,,31.700000000000,   0.02000,
,,,31.800000000000,   0.02000,
,,,31.900000000000,   0.02000,
,,,32.000000000000,   0.00000,
,,,32.100000000000,   0.02000,
,,,32.200000000000,   0.02000,
,,,32.300000000000,   0.02000,
,,,32.400000000000,   0.02000,
,,,32.500000000000,   0.00000,
,,,32.600000000000,   0.00000,
,,,32.700000000000,   0.00000,
,,,32.800000000000,   0.02000,
,,,32.900000000000,   0.02000,
,,,33.000000000000,   0.02000,
,,,33.100000000000,   0.04000,
,,,33.200000000000,   0.00000,
,,,33.300000000000,   0.04000,
,,,33.400000000000,   0.02000,
,,,33.500000000000,   0.02000,
,,,33.600000000000,   0.02000,
,,,33.700000000000,   0.02000,
,,,33.800000000000,   0.02000,
,,,33.900000000000,   0.02000,
,,,34.000000000000,   0.00000,
,,,34.100000000000,   0.00000,
,,,34.200000000000,   0.02000,
,,,34.300000000000,   0.00000,
,,,34.400000000000,   0.04000,
,,,34.500000000000,   0.02000,
,,,34.600000000000,   0.02000,
,,,34.700000000000,   0.02000,
,,,34.800000000000,   0.00000,
,,,34.900000000000,   0.04000,
,,,35.000000000000,   0.02000,
,,,35.100000000000,   0.02000,
,,,35.200000000000,   0.02000,
,,,35.300000000000,   0.02000,
,,,35.400000000000,   0.02000,
,,,35.500000000000,   0.02000,
,,,35.600000000000,   0.02000,
,,,35.700000000000,   0.02000,
,,,35.800000000000,   0.02000,
,,,35.900000000000,   0.02000,
,,,36.000000000000,   0.02000,
,,,36.100000000000,   0.02000,
,,,36.200000000000,   0.02000,
,,,36.300000000000,   0.04000,
,,,36.400000000000,   0.02000,
,,,36.500000000000,   0.02000,
,,,36.600000000000,   0.02000,
,,,36.700000000000,   0.04000,
,,,36.800000000000,   0.04000,
,,,36.900000000000,   0.02000,
,,,37.000000000000,   0.02000,
,,,37.100000000000,   0.04000,
,,,37.200000000000,   0.02000,
,,,37.300000000000,   0.02000,
,,,37.400000000000,   0.04000,
,,,37.500000000000,   0.02000,
,,,37.600000000000,   0.02000,
,,,37.700000000000,   0.04000,
,,,37.800000000000,   0.04000,
,,,37.900000000000,   0.02000,
,,,38.000000000000,   0.04000,
,,,38.100000000000,   0.02000,
,,,38.200000000000,   0.02000,
,,,38.300000000000,   0.02000,
,,,38.400000000000,   0.04000,
,,,38.500000000000,   0.04000,
,,,38.600000000000,   0.02000,
,,,38.700000000000,   0.02000,
,,,38.800000000000,   0.02000,
,,,38.900000000000,   0.02000,
,,,39.000000000000,   0.04000,
,,,39.100000000000,   0.02000,
,,,39.200000000000,   0.02000,
,,,39.300000000000,   0.02000,
,,,39.400000000000,   0.04000,
,,,39.500000000000,   0.02000,
,,,39.600000000000,   0.02000,
,,,39.700000000000,   0.04000,
,,,39.800000000000,   0.04000,
,,,39.900000000000,   0.04000,
,,,40.000000000000,   0.02000,
,,,40.100000000000,   0.04000,
,,,40.200000000000,   0.04000,
,,,40.300000000000,   0.04000,
,,,40.400000000000,   0.04000,
,,,40.500000000000,   0.04000,
,,,40.600000000000,   0.02000,
,,,40.700000000000,   0.02000,
,,,40.800000000000,   0.02000,
,,,40.900000000000,   0.04000,
,,,41.000000000000,   0.02000,
,,,41.100000000000,   0.04000,
,,,41.200000000000,   0.04000,
,,,41.300000000000,   0.04000,
,,,41.400000000000,   0.02000,
,,,41.500000000000,   0.04000,
,,,41.600000000000,   0.02000,
,,,41.700000000000,   0.02000,
,,,41.800000000000,   0.02000,
,,,41.900000000000,   0.04000,
,,,42.000000000000,   0.02000,
,,,42.100000000000,   0.02000,
,,,42.200000000000,   0.02000,
,,,42.300000000000,   0.04000,
,,,42.400000000000,   0.04000,
,,,42.500000000000,   0.04000,
,,,42.600000000000,   0.06000,
,,,42.700000000000,   0.04000,
,,,42.800000000000,   0.04000,
,,,42.900000000000,   0.04000,
,,,43.000000000000,   0.02000,
,,,43.100000000000,   0.04000,
,,,43.200000000000,   0.06000,
,,,43.300000000000,   0.04000,
,,,43.400000000000,   0.04000,
,,,43.500000000000,   0.04000,
,,,43.600000000000,   0.04000,
,,,43.700000000000,   0.04000,
,,,43.800000000000,   0.06000,
,,,43.900000000000,   0.04000,
,,,44.000000000000,   0.06000,
,,,44.100000000000,   0.04000,
,,,44.200000000000,   0.02000,
,,,44.300000000000,   0.04000,
,,,44.400000000000,   0.04000,
,,,44.500000000000,   0.04000,
,,,44.600000000000,   0.06000,
,,,44.700000000000,   0.04000,
,,,44.800000000000,   0.04000,
,,,44.900000000000,   0.06000,
,,,45.000000000000,   0.06000,
,,,45.100000000000,   0.04000,
,,,45.200000000000,   0.04000,
,,,45.300000000000,   0.04000,
,,,45.400000000000,   0.04000,
,,,45.500000000000,   0.04000,
,,,45.600000000000,   0.04000,
,,,45.700000000000,   0.06000,
,,,45.800000000000,   0.04000,
,,,45.900000000000,   0.06000,
,,,46.000000000000,   0.04000,
,,,46.100000000000,   0.06000,
,,,46.200000000000,   0.06000,
,,,46.300000000000,   0.04000,
,,,46.400000000000,   0.04000,
,,,46.500000000000,   0.04000,
,,,46.600000000000,   0.04000,
,,,46.700000000000,   0.04000,
,,,46.800000000000,   0.04000,
,,,46.900000000000,   0.04000,
,,,47.000000000000,   0.06000,
,,,47.100000000000,   0.04000,
,,,47.200000000000,   0.06000,
,,,47.300000000000,   0.04000,
,,,47.400000000000,   0.06000,
,,,47.500000000000,   0.04000,
,,,47.600000000000,   0.06000,
,,,47.700000000000,   0.06000,
,,,47.800000000000,   0.06000,
,,,47.900000000000,   0.06000,
,,,48.000000000000,   0.06000,
,,,48.100000000000,   0.06000,
,,,48.200000000000,   0.04000,
,,,48.300000000000,   0.04000,
,,,48.400000000000,   0.04000,
,,,48.500000000000,   0.04000,
,,,48.600000000000,   0.06000,
,,,48.700000000000,   0.06000,
,,,48.800000000000,   0.06000,
,,,48.900000000000,   0.04000,
,,,49.000000000000,   0.04000,
,,,49.100000000000,   0.06000,
,,,49.200000000000,   0.04000,
,,,49.300000000000,   0.06000,
,,,49.400000000000,   0.06000,
,,,49.500000000000,   0.06000,
,,,49.600000000000,   0.06000,
,,,49.700000000000,   0.06000,
,,,49.800000000000,   0.04000,
,,,49.900000000000,   0.06000,
,,,50.000000000000,   0.06000,
,,,50.100000000000,   0.06000,
,,,50.200000000000,   0.06000,
,,,50.300000000000,   0.06000,
,,,50.400000000000,   0.06000,
,,,50.500000000000,   0.04000,
,,,50.600000000000,   0.02000,
,,,50.700000000000,   0.06000,
,,,50.800000000000,   0.06000,
,,,50.900000000000,   0.06000,
,,,51.000000000000,   0.06000,
,,,51.100000000000,   0.06000,
,,,51.200000000000,   0.06000,
,,,51.300000000000,   0.04000,
,,,51.400000000000,   0.06000,
,,,51.500000000000,   0.06000,
,,,51.600000000000,   0.06000,
,,,51.700000000000,   0.06000,
,,,51.800000000000,   0.06000,
,,,51.900000000000,   0.06000,
,,,52.000000000000,   0.06000,
,,,52.100000000000,   0.06000,
,,,52.200000000000,   0.06000,
,,,52.300000000000,   0.06000,
,,,52.400000000000,   0.06000,
,,,52.500000000000,   0.06000,
,,,52.600000000000,   0.04000,
,,,52.700000000000,   0.06000,
,,,52.800000000000,   0.06000,
,,,52.900000000000,   0.06000,
,,,53.000000000000,   0.06000,
,,,53.100000000000,   0.06000,
,,,53.200000000000,   0.06000,
,,,53.300000000000,   0.06000,
,,,53.400000000000,   0.06000,
,,,53.500000000000,   0.06000,
,,,53.600000000000,   0.04000,
,,,53.700000000000,   0.06000,
,,,53.800000000000,   0.06000,
,,,53.900000000000,   0.06000,
,,,54.000000000000,   0.06000,
,,,54.100000000000,   0.06000,
,,,54.200000000000,   0.06000,
,,,54.300000000000,   0.06000,
,,,54.400000000000,   0.06000,
,,,54.500000000000,   0.06000,
,,,54.600000000000,   0.06000,
,,,54.700000000000,   0.06000,
,,,54.800000000000,   0.06000,
,,,54.900000000000,   0.06000,
,,,55.000000000000,   0.06000,
,,,55.100000000000,   0.06000,
,,,55.200000000000,   0.06000,
,,,55.300000000000,   0.06000,
,,,55.400000000000,   0.06000,
,,,55.500000000000,   0.06000,
,,,55.600000000000,   0.08000,
,,,55.700000000000,   0.08000,
,,,55.800000000000,   0.08000,
,,,55.900000000000,   0.06000,
,,,56.000000000000,   0.06000,
,,,56.100000000000,   0.06000,
,,,56.200000000000,   0.06000,
,,,56.300000000000,   0.06000,
,,,56.400000000000,   0.06000,
,,,56.500000000000,   0.06000,
,,,56.600000000000,   0.06000,
,,,56.700000000000,   0.06000,
,,,56.800000000000,   0.06000,
,,,56.900000000000,   0.06000,
,,,57.000000000000,   0.04000,
,,,57.100000000000,   0.06000,
,,,57.200000000000,   0.06000,
,,,57.300000000000,   0.06000,
,,,57.400000000000,   0.06000,
,,,57.500000000000,   0.06000,
,,,57.600000000000,   0.06000,
,,,57.700000000000,   0.08000,
,,,57.800000000000,   0.08000,
,,,57.900000000000,   0.08000,
,,,58.000000000000,   0.06000,
,,,58.100000000000,   0.08000,
,,,58.200000000000,   0.06000,
,,,58.300000000000,   0.06000,
,,,58.400000000000,   0.06000,
,,,58.500000000000,   0.06000,
,,,58.600000000000,   0.06000,
,,,58.700000000000,   0.06000,
,,,58.800000000000,   0.06000,
,,,58.900000000000,   0.06000,
,,,59.000000000000,   0.06000,
,,,59.100000000000,   0.06000,
,,,59.200000000000,   0.06000,
,,,59.300000000000,   0.06000,
,,,59.400000000000,   0.06000,
,,,59.500000000000,   0.06000,
,,,59.600000000000,   0.06000,
,,,59.700000000000,   0.08000,
,,,59.800000000000,   0.06000,
,,,59.900000000000,   0.06000,
,,,60.000000000000,   0.08000,
,,,60.100000000000,   0.08000,
,,,60.200000000000,   0.06000,
,,,60.300000000000,   0.08000,
,,,60.400000000000,   0.08000,
,,,60.500000000000,   0.08000,
,,,60.600000000000,   0.06000,
,,,60.700000000000,   0.06000,
,,,60.800000000000,   0.06000,
,,,60.900000000000,   0.06000,
,,,61.000000000000,   0.06000,
,,,61.100000000000,   0.06000,
,,,61.200000000000,   0.08000,
,,,61.300000000000,   0.06000,
,,,61.400000000000,   0.06000,
,,,61.500000000000,   0.06000,
,,,61.600000000000,   0.08000,
,,,61.700000000000,   0.08000,
,,,61.800000000000,   0.06000,
,,,61.900000000000,   0.06000,
,,,62.000000000000,   0.06000,
,,,62.100000000000,   0.08000,
,,,62.200000000000,   0.08000,
,,,62.300000000000,   0.08000,
,,,62.400000000000,   0.06000,
,,,62.500000000000,   0.06000,
,,,62.600000000000,   0.06000,
,,,62.700000000000,   0.06000,
,,,62.800000000000,   0.08000,
,,,62.900000000000,   0.06000,
,,,63.000000000000,   0.08000,
,,,63.100000000000,   0.08000,
,,,63.200000000000,   0.06000,
,,,63.300000000000,   0.08000,
,,,63.400000000000,   0.08000,
,,,63.500000000000,   0.06000,
