viejas/05_04/Datos0/ALL0096/F0096CH1.CSV

Record Length,2.500000e+03,,  -0.000022500000,   0.28000,
Sample Interval,1.000000e-08,,  -0.000022490000,   0.28000,
Trigger Point,2.250000000000e+03,,  -0.000022480000,   0.27200,
,,,  -0.000022470000,   0.25600,
,,,  -0.000022460000,   0.28000,
,,,  -0.000022450000,   0.26400,
Source,CH1,,  -0.000022440000,   0.27200,
Vertical Units,V,,  -0.000022430000,   0.26400,
Vertical Scale,2.000000e-01,,  -0.000022420000,   0.26400,
Vertical Offset,1.040000e-01,,  -0.000022410000,   0.27200,
Horizontal Units,s,,  -0.000022400000,   0.26400,
Horizontal Scale,2.500000e-06,,  -0.000022390000,   0.26400,
Pt Fmt,Y,,  -0.000022380000,   0.26400,
Yzero,0.000000e+00,,  -0.000022370000,   0.26400,
Probe Atten,1.000000e+01,,  -0.000022360000,   0.26400,
Model Number,TBS1052B-EDU,,  -0.000022350000,   0.25600,
Serial Number,C017051,,  -0.000022340000,   0.25600,
Firmware Version,FV:v3.25,,  -0.000022330000,   0.25600,
,,,-00.000022320000,   0.25600,
,,,-00.000022310000,   0.25600,
,,,-00.000022300000,   0.25600,
,,,-00.000022290000,   0.24800,
,,,-00.000022280000,   0.25600,
,,,-00.000022270000,   0.26400,
,,,-00.000022260000,   0.25600,
,,,-00.000022250000,   0.25600,
,,,-00.000022240000,   0.24800,
,,,-00.000022230000,   0.24800,
,,,-00.000022220000,   0.25600,
,,,-00.000022210000,   0.24800,
,,,-00.000022200000,   0.24800,
,,,-00.000022190000,   0.24800,
,,,-00.000022180000,   0.24800,
,,,-00.000022170000,   0.24800,
,,,-00.000022160000,   0.24800,
,,,-00.000022150000,   0.24000,
,,,-00.000022140000,   0.24800,
,,,-00.000022130000,   0.24000,
,,,-00.000022120000,   0.23200,
,,,-00.000022110000,   0.24800,
,,,-00.000022100000,   0.22400,
,,,-00.000022090000,   0.24000,
,,,-00.000022080000,   0.24800,
,,,-00.000022070000,   0.24800,
,,,-00.000022060000,   0.24000,
,,,-00.000022050000,   0.23200,
,,,-00.000022040000,   0.23200,
,,,-00.000022030000,   0.24800,
,,,-00.000022020000,   0.24800,
,,,-00.000022010000,   0.23200,
,,,-00.000022000000,   0.22400,
,,,-00.000021990000,   0.23200,
,,,-00.000021980000,   0.23200,
,,,-00.000021970000,   0.22400,
,,,-00.000021960000,   0.23200,
,,,-00.000021950000,   0.22400,
,,,-00.000021940000,   0.23200,
,,,-00.000021930000,   0.22400,
,,,-00.000021920000,   0.22400,
,,,-00.000021910000,   0.21600,
,,,-00.000021900000,   0.21600,
,,,-00.000021890000,   0.21600,
,,,-00.000021880000,   0.22400,
,,,-00.000021870000,   0.23200,
,,,-00.000021860000,   0.23200,
,,,-00.000021850000,   0.21600,
,,,-00.000021840000,   0.22400,
,,,-00.000021830000,   0.23200,
,,,-00.000021820000,   0.21600,
,,,-00.000021810000,   0.22400,
,,,-00.000021800000,   0.22400,
,,,-00.000021790000,   0.21600,
,,,-00.000021780000,   0.21600,
,,,-00.000021770000,   0.21600,
,,,-00.000021760000,   0.22400,
,,,-00.000021750000,   0.21600,
,,,-00.000021740000,   0.21600,
,,,-00.000021730000,   0.21600,
,,,-00.000021720000,   0.22400,
,,,-00.000021710000,   0.21600,
,,,-00.000021700000,   0.20800,
,,,-00.000021690000,   0.22400,
,,,-00.000021680000,   0.21600,
,,,-00.000021670000,   0.20000,
,,,-00.000021660000,   0.21600,
,,,-00.000021650000,   0.21600,
,,,-00.000021640000,   0.20800,
,,,-00.000021630000,   0.07200,
,,,-00.000021620000,  -0.20000,
,,,-00.000021610000,  -0.32000,
,,,-00.000021600000,  -0.36000,
,,,-00.000021590000,  -0.36800,
,,,-00.000021580000,  -0.36800,
,,,-00.000021570000,  -0.36800,
,,,-00.000021560000,  -0.37600,
,,,-00.000021550000,  -0.37600,
,,,-00.000021540000,  -0.36800,
,,,-00.000021530000,  -0.37600,
,,,-00.000021520000,  -0.38400,
,,,-00.000021510000,  -0.37600,
,,,-00.000021500000,  -0.37600,
,,,-00.000021490000,  -0.36800,
,,,-00.000021480000,  -0.36800,
,,,-00.000021470000,  -0.36800,
,,,-00.000021460000,  -0.36000,
,,,-00.000021450000,  -0.36800,
,,,-00.000021440000,  -0.36800,
,,,-00.000021430000,  -0.35200,
,,,-00.000021420000,  -0.35200,
,,,-00.000021410000,  -0.36000,
,,,-00.000021400000,  -0.36000,
,,,-00.000021390000,  -0.35200,
,,,-00.000021380000,  -0.36000,
,,,-00.000021370000,  -0.36000,
,,,-00.000021360000,  -0.35200,
,,,-00.000021350000,  -0.36000,
,,,-00.000021340000,  -0.34400,
,,,-00.000021330000,  -0.35200,
,,,-00.000021320000,  -0.35200,
,,,-00.000021310000,  -0.35200,
,,,-00.000021300000,  -0.34400,
,,,-00.000021290000,  -0.34400,
,,,-00.000021280000,  -0.34400,
,,,-00.000021270000,  -0.34400,
,,,-00.000021260000,  -0.34400,
,,,-00.000021250000,  -0.35200,
,,,-00.000021240000,  -0.35200,
,,,-00.000021230000,  -0.33600,
,,,-00.000021220000,  -0.34400,
,,,-00.000021210000,  -0.34400,
,,,-00.000021200000,  -0.33600,
,,,-00.000021190000,  -0.33600,
,,,-00.000021180000,  -0.34400,
,,,-00.000021170000,  -0.34400,
,,,-00.000021160000,  -0.33600,
,,,-00.000021150000,  -0.33600,
,,,-00.000021140000,  -0.32800,
,,,-00.000021130000,  -0.32800,
,,,-00.000021120000,  -0.32800,
,,,-00.000021110000,  -0.33600,
,,,-00.000021100000,  -0.32800,
,,,-00.000021090000,  -0.33600,
,,,-00.000021080000,  -0.32800,
,,,-00.000021070000,  -0.32800,
,,,-00.000021060000,  -0.32000,
,,,-00.000021050000,  -0.32000,
,,,-00.000021040000,  -0.32800,
,,,-00.000021030000,  -0.31200,
,,,-00.000021020000,  -0.32800,
,,,-00.000021010000,  -0.32000,
,,,-00.000021000000,  -0.32000,
,,,-00.000020990000,  -0.32800,
,,,-00.000020980000,  -0.32000,
,,,-00.000020970000,  -0.32000,
,,,-00.000020960000,  -0.32000,
,,,-00.000020950000,  -0.32000,
,,,-00.000020940000,  -0.32000,
,,,-00.000020930000,  -0.31200,
,,,-00.000020920000,  -0.32000,
,,,-00.000020910000,  -0.32000,
,,,-00.000020900000,  -0.31200,
,,,-00.000020890000,  -0.31200,
,,,-00.000020880000,  -0.31200,
,,,-00.000020870000,  -0.31200,
,,,-00.000020860000,  -0.31200,
,,,-00.000020850000,  -0.31200,
,,,-00.000020840000,  -0.31200,
,,,-00.000020830000,  -0.31200,
,,,-00.000020820000,  -0.31200,
,,,-00.000020810000,  -0.30400,
,,,-00.000020800000,  -0.29600,
,,,-00.000020790000,  -0.29600,
,,,-00.000020780000,  -0.31200,
,,,-00.000020770000,  -0.31200,
,,,-00.000020760000,  -0.30400,
,,,-00.000020750000,  -0.29600,
,,,-00.000020740000,  -0.29600,
,,,-00.000020730000,  -0.29600,
,,,-00.000020720000,  -0.29600,
,,,-00.000020710000,  -0.30400,
,,,-00.000020700000,  -0.28800,
,,,-00.000020690000,  -0.29600,
,,,-00.000020680000,  -0.29600,
,,,-00.000020670000,  -0.28800,
,,,-00.000020660000,  -0.28800,
,,,-00.000020650000,  -0.28000,
,,,-00.000020640000,  -0.28800,
,,,-00.000020630000,  -0.28000,
,,,-00.000020620000,  -0.29600,
,,,-00.000020610000,  -0.30400,
,,,-00.000020600000,  -0.28800,
,,,-00.000020590000,  -0.28800,
,,,-00.000020580000,  -0.28800,
,,,-00.000020570000,  -0.28000,
,,,-00.000020560000,  -0.28000,
,,,-00.000020550000,  -0.28800,
,,,-00.000020540000,  -0.28000,
,,,-00.000020530000,  -0.28800,
,,,-00.000020520000,  -0.28800,
,,,-00.000020510000,  -0.28800,
,,,-00.000020500000,  -0.28800,
,,,-00.000020490000,  -0.28000,
,,,-00.000020480000,  -0.27200,
,,,-00.000020470000,  -0.27200,
,,,-00.000020460000,  -0.28000,
,,,-00.000020450000,  -0.27200,
,,,-00.000020440000,  -0.27200,
,,,-00.000020430000,  -0.27200,
,,,-00.000020420000,  -0.27200,
,,,-00.000020410000,  -0.27200,
,,,-00.000020400000,  -0.28000,
,,,-00.000020390000,  -0.27200,
,,,-00.000020380000,  -0.25600,
,,,-00.000020370000,  -0.27200,
,,,-00.000020360000,  -0.26400,
,,,-00.000020350000,  -0.27200,
,,,-00.000020340000,  -0.26400,
,,,-00.000020330000,  -0.26400,
,,,-00.000020320000,  -0.26400,
,,,-00.000020310000,  -0.26400,
,,,-00.000020300000,  -0.26400,
,,,-00.000020290000,  -0.27200,
,,,-00.000020280000,  -0.25600,
,,,-00.000020270000,  -0.27200,
,,,-00.000020260000,  -0.26400,
,,,-00.000020250000,  -0.26400,
,,,-00.000020240000,  -0.27200,
,,,-00.000020230000,  -0.24800,
,,,-00.000020220000,  -0.26400,
,,,-00.000020210000,  -0.26400,
,,,-00.000020200000,  -0.25600,
,,,-00.000020190000,  -0.25600,
,,,-00.000020180000,  -0.26400,
,,,-00.000020170000,  -0.24800,
,,,-00.000020160000,  -0.26400,
,,,-00.000020150000,  -0.25600,
,,,-00.000020140000,  -0.25600,
,,,-00.000020130000,  -0.26400,
,,,-00.000020120000,  -0.25600,
,,,-00.000020110000,  -0.24800,
,,,-00.000020100000,  -0.24800,
,,,-00.000020090000,  -0.24000,
,,,-00.000020080000,  -0.24800,
,,,-00.000020070000,  -0.24800,
,,,-00.000020060000,  -0.24800,
,,,-00.000020050000,  -0.25600,
,,,-00.000020040000,  -0.24800,
,,,-00.000020030000,  -0.24000,
,,,-00.000020020000,  -0.24800,
,,,-00.000020010000,  -0.24800,
,,,-00.000020000000,  -0.24800,
,,,-00.000019990000,  -0.24800,
,,,-00.000019980000,  -0.24000,
,,,-00.000019970000,  -0.23200,
,,,-00.000019960000,   0.01600,
,,,-00.000019950000,   0.21600,
,,,-00.000019940000,   0.31200,
,,,-00.000019930000,   0.32800,
,,,-00.000019920000,   0.33600,
,,,-00.000019910000,   0.34400,
,,,-00.000019900000,   0.35200,
,,,-00.000019890000,   0.34400,
,,,-00.000019880000,   0.34400,
,,,-00.000019870000,   0.34400,
,,,-00.000019860000,   0.34400,
,,,-00.000019850000,   0.32800,
,,,-00.000019840000,   0.33600,
,,,-00.000019830000,   0.34400,
,,,-00.000019820000,   0.32800,
,,,-00.000019810000,   0.33600,
,,,-00.000019800000,   0.32800,
,,,-00.000019790000,   0.32000,
,,,-00.000019780000,   0.32800,
,,,-00.000019770000,   0.32800,
,,,-00.000019760000,   0.32000,
,,,-00.000019750000,   0.32800,
,,,-00.000019740000,   0.32800,
,,,-00.000019730000,   0.32000,
,,,-00.000019720000,   0.32000,
,,,-00.000019710000,   0.33600,
,,,-00.000019700000,   0.31200,
,,,-00.000019690000,   0.31200,
,,,-00.000019680000,   0.30400,
,,,-00.000019670000,   0.31200,
,,,-00.000019660000,   0.32800,
,,,-00.000019650000,   0.31200,
,,,-00.000019640000,   0.32000,
,,,-00.000019630000,   0.30400,
,,,-00.000019620000,   0.31200,
,,,-00.000019610000,   0.30400,
,,,-00.000019600000,   0.30400,
,,,-00.000019590000,   0.31200,
,,,-00.000019580000,   0.30400,
,,,-00.000019570000,   0.32000,
,,,-00.000019560000,   0.29600,
,,,-00.000019550000,   0.30400,
,,,-00.000019540000,   0.30400,
,,,-00.000019530000,   0.30400,
,,,-00.000019520000,   0.29600,
,,,-00.000019510000,   0.30400,
,,,-00.000019500000,   0.30400,
,,,-00.000019490000,   0.30400,
,,,-00.000019480000,   0.30400,
,,,-00.000019470000,   0.29600,
,,,-00.000019460000,   0.30400,
,,,-00.000019450000,   0.29600,
,,,-00.000019440000,   0.31200,
,,,-00.000019430000,   0.30400,
,,,-00.000019420000,   0.28800,
,,,-00.000019410000,   0.29600,
,,,-00.000019400000,   0.28800,
,,,-00.000019390000,   0.29600,
,,,-00.000019380000,   0.29600,
,,,-00.000019370000,   0.28800,
,,,-00.000019360000,   0.29600,
,,,-00.000019350000,   0.28800,
,,,-00.000019340000,   0.28800,
,,,-00.000019330000,   0.28800,
,,,-00.000019320000,   0.29600,
,,,-00.000019310000,   0.29600,
,,,-00.000019300000,   0.28800,
,,,-00.000019290000,   0.29600,
,,,-00.000019280000,   0.28000,
,,,-00.000019270000,   0.28800,
,,,-00.000019260000,   0.28000,
,,,-00.000019250000,   0.28800,
,,,-00.000019240000,   0.28000,
,,,-00.000019230000,   0.28000,
,,,-00.000019220000,   0.28000,
,,,-00.000019210000,   0.28000,
,,,-00.000019200000,   0.28800,
,,,-00.000019190000,   0.28000,
,,,-00.000019180000,   0.28800,
,,,-00.000019170000,   0.27200,
,,,-00.000019160000,   0.28000,
,,,-00.000019150000,   0.27200,
,,,-00.000019140000,   0.28000,
,,,-00.000019130000,   0.26400,
,,,-00.000019120000,   0.28000,
,,,-00.000019110000,   0.28000,
,,,-00.000019100000,   0.28000,
,,,-00.000019090000,   0.27200,
,,,-00.000019080000,   0.26400,
,,,-00.000019070000,   0.28000,
,,,-00.000019060000,   0.26400,
,,,-00.000019050000,   0.27200,
,,,-00.000019040000,   0.27200,
,,,-00.000019030000,   0.26400,
,,,-00.000019020000,   0.26400,
,,,-00.000019010000,   0.26400,
,,,-00.000019000000,   0.27200,
,,,-00.000018990000,   0.26400,
,,,-00.000018980000,   0.26400,
,,,-00.000018970000,   0.26400,
,,,-00.000018960000,   0.27200,
,,,-00.000018950000,   0.26400,
,,,-00.000018940000,   0.26400,
,,,-00.000018930000,   0.26400,
,,,-00.000018920000,   0.26400,
,,,-00.000018910000,   0.26400,
,,,-00.000018900000,   0.27200,
,,,-00.000018890000,   0.26400,
,,,-00.000018880000,   0.27200,
,,,-00.000018870000,   0.27200,
,,,-00.000018860000,   0.25600,
,,,-00.000018850000,   0.25600,
,,,-00.000018840000,   0.26400,
,,,-00.000018830000,   0.25600,
,,,-00.000018820000,   0.27200,
,,,-00.000018810000,   0.26400,
,,,-00.000018800000,   0.25600,
,,,-00.000018790000,   0.25600,
,,,-00.000018780000,   0.25600,
,,,-00.000018770000,   0.25600,
,,,-00.000018760000,   0.25600,
,,,-00.000018750000,   0.26400,
,,,-00.000018740000,   0.25600,
,,,-00.000018730000,   0.26400,
,,,-00.000018720000,   0.25600,
,,,-00.000018710000,   0.24800,
,,,-00.000018700000,   0.24800,
,,,-00.000018690000,   0.24000,
,,,-00.000018680000,   0.24800,
,,,-00.000018670000,   0.24800,
,,,-00.000018660000,   0.24000,
,,,-00.000018650000,   0.24000,
,,,-00.000018640000,   0.24000,
,,,-00.000018630000,   0.24800,
,,,-00.000018620000,   0.24800,
,,,-00.000018610000,   0.24800,
,,,-00.000018600000,   0.24000,
,,,-00.000018590000,   0.24000,
,,,-00.000018580000,   0.24000,
,,,-00.000018570000,   0.22400,
,,,-00.000018560000,   0.23200,
,,,-00.000018550000,   0.24000,
,,,-00.000018540000,   0.23200,
,,,-00.000018530000,   0.22400,
,,,-00.000018520000,   0.22400,
,,,-00.000018510000,   0.23200,
,,,-00.000018500000,   0.22400,
,,,-00.000018490000,   0.20800,
,,,-00.000018480000,   0.22400,
,,,-00.000018470000,   0.20800,
,,,-00.000018460000,   0.21600,
,,,-00.000018450000,   0.21600,
,,,-00.000018440000,   0.20800,
,,,-00.000018430000,   0.21600,
,,,-00.000018420000,   0.20800,
,,,-00.000018410000,   0.21600,
,,,-00.000018400000,   0.20000,
,,,-00.000018390000,   0.20000,
,,,-00.000018380000,   0.19200,
,,,-00.000018370000,   0.20000,
,,,-00.000018360000,   0.19200,
,,,-00.000018350000,   0.19200,
,,,-00.000018340000,   0.19200,
,,,-00.000018330000,   0.19200,
,,,-00.000018320000,   0.19200,
,,,-00.000018310000,   0.18400,
,,,-00.000018300000,   0.12800,
,,,-00.000018290000,  -0.16000,
,,,-00.000018280000,  -0.32000,
,,,-00.000018270000,  -0.37600,
,,,-00.000018260000,  -0.39200,
,,,-00.000018250000,  -0.40000,
,,,-00.000018240000,  -0.40800,
,,,-00.000018230000,  -0.40800,
,,,-00.000018220000,  -0.40800,
,,,-00.000018210000,  -0.40800,
,,,-00.000018200000,  -0.40000,
,,,-00.000018190000,  -0.40800,
,,,-00.000018180000,  -0.39200,
,,,-00.000018170000,  -0.39200,
,,,-00.000018160000,  -0.40800,
,,,-00.000018150000,  -0.40000,
,,,-00.000018140000,  -0.39200,
,,,-00.000018130000,  -0.40000,
,,,-00.000018120000,  -0.39200,
,,,-00.000018110000,  -0.37600,
,,,-00.000018100000,  -0.38400,
,,,-00.000018090000,  -0.38400,
,,,-00.000018080000,  -0.38400,
,,,-00.000018070000,  -0.38400,
,,,-00.000018060000,  -0.37600,
,,,-00.000018050000,  -0.37600,
,,,-00.000018040000,  -0.36800,
,,,-00.000018030000,  -0.36800,
,,,-00.000018020000,  -0.37600,
,,,-00.000018010000,  -0.36800,
,,,-00.000018000000,  -0.36000,
,,,-00.000017990000,  -0.36800,
,,,-00.000017980000,  -0.35200,
,,,-00.000017970000,  -0.35200,
,,,-00.000017960000,  -0.35200,
,,,-00.000017950000,  -0.35200,
,,,-00.000017940000,  -0.35200,
,,,-00.000017930000,  -0.34400,
,,,-00.000017920000,  -0.34400,
,,,-00.000017910000,  -0.35200,
,,,-00.000017900000,  -0.35200,
,,,-00.000017890000,  -0.34400,
,,,-00.000017880000,  -0.33600,
,,,-00.000017870000,  -0.32800,
,,,-00.000017860000,  -0.33600,
,,,-00.000017850000,  -0.33600,
,,,-00.000017840000,  -0.33600,
,,,-00.000017830000,  -0.32000,
,,,-00.000017820000,  -0.32000,
,,,-00.000017810000,  -0.32000,
,,,-00.000017800000,  -0.32000,
,,,-00.000017790000,  -0.33600,
,,,-00.000017780000,  -0.32800,
,,,-00.000017770000,  -0.31200,
,,,-00.000017760000,  -0.30400,
,,,-00.000017750000,  -0.28800,
,,,-00.000017740000,  -0.30400,
,,,-00.000017730000,  -0.30400,
,,,-00.000017720000,  -0.31200,
,,,-00.000017710000,  -0.31200,
,,,-00.000017700000,  -0.31200,
,,,-00.000017690000,  -0.30400,
,,,-00.000017680000,  -0.30400,
,,,-00.000017670000,  -0.29600,
,,,-00.000017660000,  -0.29600,
,,,-00.000017650000,  -0.29600,
,,,-00.000017640000,  -0.29600,
,,,-00.000017630000,  -0.28800,
,,,-00.000017620000,  -0.28800,
,,,-00.000017610000,  -0.28800,
,,,-00.000017600000,  -0.29600,
,,,-00.000017590000,  -0.28000,
,,,-00.000017580000,  -0.28800,
,,,-00.000017570000,  -0.28800,
,,,-00.000017560000,  -0.28000,
,,,-00.000017550000,  -0.28800,
,,,-00.000017540000,  -0.28000,
,,,-00.000017530000,  -0.27200,
,,,-00.000017520000,  -0.28000,
,,,-00.000017510000,  -0.28000,
,,,-00.000017500000,  -0.28000,
,,,-00.000017490000,  -0.27200,
,,,-00.000017480000,  -0.27200,
,,,-00.000017470000,  -0.26400,
,,,-00.000017460000,  -0.27200,
,,,-00.000017450000,  -0.26400,
,,,-00.000017440000,  -0.27200,
,,,-00.000017430000,  -0.28000,
,,,-00.000017420000,  -0.27200,
,,,-00.000017410000,  -0.26400,
,,,-00.000017400000,  -0.27200,
,,,-00.000017390000,  -0.26400,
,,,-00.000017380000,  -0.26400,
,,,-00.000017370000,  -0.25600,
,,,-00.000017360000,  -0.27200,
,,,-00.000017350000,  -0.27200,
,,,-00.000017340000,  -0.27200,
,,,-00.000017330000,  -0.27200,
,,,-00.000017320000,  -0.25600,
,,,-00.000017310000,  -0.27200,
,,,-00.000017300000,  -0.27200,
,,,-00.000017290000,  -0.27200,
,,,-00.000017280000,  -0.27200,
,,,-00.000017270000,  -0.26400,
,,,-00.000017260000,  -0.27200,
,,,-00.000017250000,  -0.26400,
,,,-00.000017240000,  -0.27200,
,,,-00.000017230000,  -0.27200,
,,,-00.000017220000,  -0.26400,
,,,-00.000017210000,  -0.27200,
,,,-00.000017200000,  -0.27200,
,,,-00.000017190000,  -0.26400,
,,,-00.000017180000,  -0.26400,
,,,-00.000017170000,  -0.27200,
,,,-00.000017160000,  -0.26400,
,,,-00.000017150000,  -0.27200,
,,,-00.000017140000,  -0.27200,
,,,-00.000017130000,  -0.25600,
,,,-00.000017120000,  -0.26400,
,,,-00.000017110000,  -0.27200,
,,,-00.000017100000,  -0.27200,
,,,-00.000017090000,  -0.26400,
,,,-00.000017080000,  -0.27200,
,,,-00.000017070000,  -0.26400,
,,,-00.000017060000,  -0.27200,
,,,-00.000017050000,  -0.27200,
,,,-00.000017040000,  -0.27200,
,,,-00.000017030000,  -0.27200,
,,,-00.000017020000,  -0.26400,
,,,-00.000017010000,  -0.25600,
,,,-00.000017000000,  -0.26400,
,,,-00.000016990000,  -0.27200,
,,,-00.000016980000,  -0.26400,
,,,-00.000016970000,  -0.26400,
,,,-00.000016960000,  -0.28000,
,,,-00.000016950000,  -0.27200,
,,,-00.000016940000,  -0.27200,
,,,-00.000016930000,  -0.27200,
,,,-00.000016920000,  -0.26400,
,,,-00.000016910000,  -0.26400,
,,,-00.000016900000,  -0.27200,
,,,-00.000016890000,  -0.26400,
,,,-00.000016880000,  -0.26400,
,,,-00.000016870000,  -0.26400,
,,,-00.000016860000,  -0.25600,
,,,-00.000016850000,  -0.26400,
,,,-00.000016840000,  -0.25600,
,,,-00.000016830000,  -0.25600,
,,,-00.000016820000,  -0.25600,
,,,-00.000016810000,  -0.25600,
,,,-00.000016800000,  -0.26400,
,,,-00.000016790000,  -0.25600,
,,,-00.000016780000,  -0.25600,
,,,-00.000016770000,  -0.26400,
,,,-00.000016760000,  -0.26400,
,,,-00.000016750000,  -0.25600,
,,,-00.000016740000,  -0.25600,
,,,-00.000016730000,  -0.26400,
,,,-00.000016720000,  -0.24800,
,,,-00.000016710000,  -0.26400,
,,,-00.000016700000,  -0.25600,
,,,-00.000016690000,  -0.25600,
,,,-00.000016680000,  -0.25600,
,,,-00.000016670000,  -0.24800,
,,,-00.000016660000,  -0.24800,
,,,-00.000016650000,  -0.24800,
,,,-00.000016640000,  -0.24800,
,,,-00.000016630000,  -0.10400,
,,,-00.000016620000,   0.16800,
,,,-00.000016610000,   0.28800,
,,,-00.000016600000,   0.32000,
,,,-00.000016590000,   0.32000,
,,,-00.000016580000,   0.33600,
,,,-00.000016570000,   0.33600,
,,,-00.000016560000,   0.32800,
,,,-00.000016550000,   0.33600,
,,,-00.000016540000,   0.33600,
,,,-00.000016530000,   0.34400,
,,,-00.000016520000,   0.33600,
,,,-00.000016510000,   0.33600,
,,,-00.000016500000,   0.32800,
,,,-00.000016490000,   0.33600,
,,,-00.000016480000,   0.33600,
,,,-00.000016470000,   0.34400,
,,,-00.000016460000,   0.33600,
,,,-00.000016450000,   0.32000,
,,,-00.000016440000,   0.32000,
,,,-00.000016430000,   0.32000,
,,,-00.000016420000,   0.32800,
,,,-00.000016410000,   0.32800,
,,,-00.000016400000,   0.32800,
,,,-00.000016390000,   0.32800,
,,,-00.000016380000,   0.32800,
,,,-00.000016370000,   0.32000,
