05_04/Datos0/ALL0073/F0073CH1.CSV

Record Length,2.500000e+03,,  -0.019500000000,  -0.00240,
Sample Interval,1.000000e-05,,  -0.019490000000,  -0.00240,
Trigger Point,1.950000000000e+03,,  -0.019480000000,   0.00880,
,,,  -0.019470000000,  -0.00720,
,,,  -0.019460000000,   0.00640,
,,,  -0.019450000000,   0.00320,
Source,CH1,,  -0.019440000000,  -0.01040,
Vertical Units,V,,  -0.019430000000,   0.00560,
Vertical Scale,2.000000e-02,,  -0.019420000000,  -0.00720,
Vertical Offset,1.040000e-02,,  -0.019410000000,  -0.00400,
Horizontal Units,s,,  -0.019400000000,   0.00080,
Horizontal Scale,2.500000e-03,,  -0.019390000000,  -0.00880,
Pt Fmt,Y,,  -0.019380000000,   0.00640,
Yzero,0.000000e+00,,  -0.019370000000,  -0.00560,
Probe Atten,1.000000e+01,,  -0.019360000000,   0.00000,
Model Number,TBS1052B-EDU,,  -0.019350000000,   0.00640,
Serial Number,C017051,,  -0.019340000000,  -0.00480,
Firmware Version,FV:v3.25,,  -0.019330000000,  -0.00400,
,,,-00.019320000000,   0.00880,
,,,-00.019310000000,  -0.00960,
,,,-00.019300000000,  -0.00160,
,,,-00.019290000000,   0.00320,
,,,-00.019280000000,  -0.00160,
,,,-00.019270000000,   0.00640,
,,,-00.019260000000,  -0.00480,
,,,-00.019250000000,  -0.00560,
,,,-00.019240000000,   0.00080,
,,,-00.019230000000,  -0.00320,
,,,-00.019220000000,   0.00720,
,,,-00.019210000000,  -0.00160,
,,,-00.019200000000,  -0.00400,
,,,-00.019190000000,   0.00320,
,,,-00.019180000000,   0.00080,
,,,-00.019170000000,   0.00400,
,,,-00.019160000000,   0.00080,
,,,-00.019150000000,  -0.00160,
,,,-00.019140000000,   0.00880,
,,,-00.019130000000,   0.00160,
,,,-00.019120000000,  -0.00080,
,,,-00.019110000000,  -0.00160,
,,,-00.019100000000,  -0.00400,
,,,-00.019090000000,   0.00400,
,,,-00.019080000000,  -0.00400,
,,,-00.019070000000,  -0.00080,
,,,-00.019060000000,  -0.00240,
,,,-00.019050000000,   0.00240,
,,,-00.019040000000,   0.00240,
,,,-00.019030000000,   0.00400,
,,,-00.019020000000,  -0.00880,
,,,-00.019010000000,   0.00400,
,,,-00.019000000000,   0.00080,
,,,-00.018990000000,  -0.00720,
,,,-00.018980000000,   0.00160,
,,,-00.018970000000,  -0.00560,
,,,-00.018960000000,  -0.00240,
,,,-00.018950000000,   0.00480,
,,,-00.018940000000,  -0.00560,
,,,-00.018930000000,   0.00080,
,,,-00.018920000000,   0.00080,
,,,-00.018910000000,  -0.00160,
,,,-00.018900000000,   0.00400,
,,,-00.018890000000,  -0.00400,
,,,-00.018880000000,   0.00320,
,,,-00.018870000000,   0.00640,
,,,-00.018860000000,  -0.00400,
,,,-00.018850000000,   0.00640,
,,,-00.018840000000,  -0.00080,
,,,-00.018830000000,  -0.00960,
,,,-00.018820000000,   0.00640,
,,,-00.018810000000,   0.00240,
,,,-00.018800000000,  -0.00400,
,,,-00.018790000000,  -0.00720,
,,,-00.018780000000,  -0.00160,
,,,-00.018770000000,   0.00800,
,,,-00.018760000000,  -0.00880,
,,,-00.018750000000,   0.00800,
,,,-00.018740000000,   0.00800,
,,,-00.018730000000,  -0.00160,
,,,-00.018720000000,   0.00560,
,,,-00.018710000000,   0.00160,
,,,-00.018700000000,  -0.01120,
,,,-00.018690000000,   0.00640,
,,,-00.018680000000,   0.00560,
,,,-00.018670000000,  -0.01040,
,,,-00.018660000000,   0.01280,
,,,-00.018650000000,  -0.00560,
,,,-00.018640000000,   0.00400,
,,,-00.018630000000,   0.00320,
,,,-00.018620000000,   0.00160,
,,,-00.018610000000,   0.00320,
,,,-00.018600000000,  -0.00160,
,,,-00.018590000000,   0.00320,
,,,-00.018580000000,   0.00880,
,,,-00.018570000000,  -0.00800,
,,,-00.018560000000,   0.00000,
,,,-00.018550000000,   0.00640,
,,,-00.018540000000,  -0.00080,
,,,-00.018530000000,   0.00640,
,,,-00.018520000000,  -0.00560,
,,,-00.018510000000,  -0.00400,
,,,-00.018500000000,   0.00240,
,,,-00.018490000000,   0.00320,
,,,-00.018480000000,   0.00400,
,,,-00.018470000000,   0.00400,
,,,-00.018460000000,   0.00080,
,,,-00.018450000000,   0.00880,
,,,-00.018440000000,   0.00480,
,,,-00.018430000000,   0.00320,
,,,-00.018420000000,   0.00480,
,,,-00.018410000000,  -0.00080,
,,,-00.018400000000,   0.01280,
,,,-00.018390000000,   0.00400,
,,,-00.018380000000,  -0.00240,
,,,-00.018370000000,   0.00880,
,,,-00.018360000000,  -0.00800,
,,,-00.018350000000,  -0.00080,
,,,-00.018340000000,   0.00080,
,,,-00.018330000000,  -0.00320,
,,,-00.018320000000,   0.01120,
,,,-00.018310000000,   0.00080,
,,,-00.018300000000,   0.00160,
,,,-00.018290000000,   0.00640,
,,,-00.018280000000,   0.00320,
,,,-00.018270000000,   0.00080,
,,,-00.018260000000,   0.01120,
,,,-00.018250000000,   0.00080,
,,,-00.018240000000,   0.00640,
,,,-00.018230000000,  -0.00240,
,,,-00.018220000000,  -0.00400,
,,,-00.018210000000,   0.00320,
,,,-00.018200000000,  -0.00160,
,,,-00.018190000000,   0.00880,
,,,-00.018180000000,   0.00400,
,,,-00.018170000000,   0.00160,
,,,-00.018160000000,   0.00880,
,,,-00.018150000000,  -0.00160,
,,,-00.018140000000,   0.00240,
,,,-00.018130000000,   0.01040,
,,,-00.018120000000,  -0.00880,
,,,-00.018110000000,   0.01200,
,,,-00.018100000000,  -0.00160,
,,,-00.018090000000,  -0.00400,
,,,-00.018080000000,   0.01120,
,,,-00.018070000000,  -0.00320,
,,,-00.018060000000,   0.00080,
,,,-00.018050000000,   0.00800,
,,,-00.018040000000,   0.00880,
,,,-00.018030000000,   0.00320,
,,,-00.018020000000,  -0.00240,
,,,-00.018010000000,   0.00880,
,,,-00.018000000000,   0.00400,
,,,-00.017990000000,   0.00240,
,,,-00.017980000000,   0.00560,
,,,-00.017970000000,   0.01120,
,,,-00.017960000000,   0.00320,
,,,-00.017950000000,   0.01440,
,,,-00.017940000000,   0.00720,
,,,-00.017930000000,  -0.00160,
,,,-00.017920000000,   0.00800,
,,,-00.017910000000,   0.00000,
,,,-00.017900000000,   0.00400,
,,,-00.017890000000,   0.00160,
,,,-00.017880000000,  -0.00160,
,,,-00.017870000000,   0.00400,
,,,-00.017860000000,   0.00080,
,,,-00.017850000000,   0.00640,
,,,-00.017840000000,   0.00080,
,,,-00.017830000000,  -0.00080,
,,,-00.017820000000,   0.01120,
,,,-00.017810000000,   0.01520,
,,,-00.017800000000,   0.00400,
,,,-00.017790000000,   0.00640,
,,,-00.017780000000,  -0.00320,
,,,-00.017770000000,   0.00080,
,,,-00.017760000000,   0.00960,
,,,-00.017750000000,   0.00160,
,,,-00.017740000000,   0.01120,
,,,-00.017730000000,  -0.00160,
,,,-00.017720000000,  -0.00240,
,,,-00.017710000000,   0.00880,
,,,-00.017700000000,   0.00240,
,,,-00.017690000000,   0.00560,
,,,-00.017680000000,   0.01200,
,,,-00.017670000000,   0.00320,
,,,-00.017660000000,   0.01680,
,,,-00.017650000000,   0.00080,
,,,-00.017640000000,   0.00080,
,,,-00.017630000000,   0.00400,
,,,-00.017620000000,  -0.00400,
,,,-00.017610000000,  -0.00160,
,,,-00.017600000000,   0.00320,
,,,-00.017590000000,   0.00320,
,,,-00.017580000000,   0.00720,
,,,-00.017570000000,   0.00720,
,,,-00.017560000000,   0.00320,
,,,-00.017550000000,   0.00720,
,,,-00.017540000000,   0.00320,
,,,-00.017530000000,   0.01680,
,,,-00.017520000000,   0.00880,
,,,-00.017510000000,  -0.00160,
,,,-00.017500000000,  -0.11200,
,,,-00.017490000000,  -0.04240,
,,,-00.017480000000,  -0.01680,
,,,-00.017470000000,  -0.01760,
,,,-00.017460000000,  -0.02320,
,,,-00.017450000000,  -0.01600,
,,,-00.017440000000,  -0.01840,
,,,-00.017430000000,  -0.02800,
,,,-00.017420000000,  -0.01200,
,,,-00.017410000000,  -0.02640,
,,,-00.017400000000,  -0.02400,
,,,-00.017390000000,   0.00480,
,,,-00.017380000000,  -0.02640,
,,,-00.017370000000,  -0.01120,
,,,-00.017360000000,  -0.01680,
,,,-00.017350000000,  -0.01760,
,,,-00.017340000000,  -0.01760,
,,,-00.017330000000,  -0.01520,
,,,-00.017320000000,  -0.02320,
,,,-00.017310000000,  -0.01600,
,,,-00.017300000000,  -0.01600,
,,,-00.017290000000,  -0.02160,
,,,-00.017280000000,  -0.02400,
,,,-00.017270000000,  -0.01920,
,,,-00.017260000000,  -0.00400,
,,,-00.017250000000,  -0.02320,
,,,-00.017240000000,  -0.01600,
,,,-00.017230000000,  -0.01440,
,,,-00.017220000000,  -0.03280,
,,,-00.017210000000,  -0.00960,
,,,-00.017200000000,  -0.01680,
,,,-00.017190000000,  -0.02880,
,,,-00.017180000000,  -0.01360,
,,,-00.017170000000,  -0.01760,
,,,-00.017160000000,  -0.01760,
,,,-00.017150000000,  -0.02400,
,,,-00.017140000000,  -0.02320,
,,,-00.017130000000,  -0.02160,
,,,-00.017120000000,  -0.01760,
,,,-00.017110000000,  -0.02000,
,,,-00.017100000000,  -0.01520,
,,,-00.017090000000,  -0.03120,
,,,-00.017080000000,  -0.01680,
,,,-00.017070000000,  -0.00560,
,,,-00.017060000000,  -0.02560,
,,,-00.017050000000,  -0.00880,
,,,-00.017040000000,  -0.02320,
,,,-00.017030000000,  -0.01760,
,,,-00.017020000000,   0.00640,
,,,-00.017010000000,  -0.02320,
,,,-00.017000000000,  -0.02800,
,,,-00.016990000000,  -0.01920,
,,,-00.016980000000,  -0.01920,
,,,-00.016970000000,  -0.00640,
,,,-00.016960000000,  -0.02480,
,,,-00.016950000000,  -0.01760,
,,,-00.016940000000,  -0.01200,
,,,-00.016930000000,  -0.03120,
,,,-00.016920000000,  -0.02160,
,,,-00.016910000000,  -0.01680,
,,,-00.016900000000,  -0.02240,
,,,-00.016890000000,  -0.02000,
,,,-00.016880000000,  -0.01360,
,,,-00.016870000000,  -0.02000,
,,,-00.016860000000,  -0.01520,
,,,-00.016850000000,  -0.02480,
,,,-00.016840000000,  -0.01520,
,,,-00.016830000000,  -0.01360,
,,,-00.016820000000,  -0.02640,
,,,-00.016810000000,  -0.01600,
,,,-00.016800000000,  -0.02720,
,,,-00.016790000000,  -0.01600,
,,,-00.016780000000,  -0.02320,
,,,-00.016770000000,  -0.02480,
,,,-00.016760000000,  -0.02080,
,,,-00.016750000000,  -0.02000,
,,,-00.016740000000,  -0.02160,
,,,-00.016730000000,  -0.01600,
,,,-00.016720000000,  -0.02800,
,,,-00.016710000000,  -0.02560,
,,,-00.016700000000,  -0.01280,
,,,-00.016690000000,  -0.02800,
,,,-00.016680000000,  -0.00720,
,,,-00.016670000000,  -0.02000,
,,,-00.016660000000,  -0.01360,
,,,-00.016650000000,  -0.00800,
,,,-00.016640000000,  -0.03120,
,,,-00.016630000000,  -0.01440,
,,,-00.016620000000,  -0.01280,
,,,-00.016610000000,  -0.01600,
,,,-00.016600000000,  -0.02960,
,,,-00.016590000000,  -0.02560,
,,,-00.016580000000,  -0.02480,
,,,-00.016570000000,  -0.02000,
,,,-00.016560000000,  -0.01280,
,,,-00.016550000000,  -0.02080,
,,,-00.016540000000,  -0.01520,
,,,-00.016530000000,  -0.02320,
,,,-00.016520000000,  -0.01040,
,,,-00.016510000000,  -0.01360,
,,,-00.016500000000,  -0.01760,
,,,-00.016490000000,  -0.01520,
,,,-00.016480000000,  -0.03840,
,,,-00.016470000000,  -0.01840,
,,,-00.016460000000,  -0.02000,
,,,-00.016450000000,  -0.03120,
,,,-00.016440000000,  -0.02000,
,,,-00.016430000000,  -0.01520,
,,,-00.016420000000,  -0.02320,
,,,-00.016410000000,  -0.01600,
,,,-00.016400000000,  -0.02480,
,,,-00.016390000000,  -0.01840,
,,,-00.016380000000,  -0.02320,
,,,-00.016370000000,  -0.02000,
,,,-00.016360000000,  -0.01120,
,,,-00.016350000000,  -0.02880,
,,,-00.016340000000,  -0.01440,
,,,-00.016330000000,  -0.01520,
,,,-00.016320000000,  -0.02480,
,,,-00.016310000000,  -0.01680,
,,,-00.016300000000,  -0.02320,
,,,-00.016290000000,  -0.03120,
,,,-00.016280000000,  -0.02240,
,,,-00.016270000000,  -0.02800,
,,,-00.016260000000,  -0.03120,
,,,-00.016250000000,  -0.00720,
,,,-00.016240000000,  -0.01920,
,,,-00.016230000000,  -0.01600,
,,,-00.016220000000,  -0.02720,
,,,-00.016210000000,  -0.02800,
,,,-00.016200000000,  -0.01760,
,,,-00.016190000000,  -0.02160,
,,,-00.016180000000,  -0.00960,
,,,-00.016170000000,  -0.01920,
,,,-00.016160000000,  -0.03120,
,,,-00.016150000000,  -0.02000,
,,,-00.016140000000,  -0.02480,
,,,-00.016130000000,  -0.02080,
,,,-00.016120000000,  -0.00720,
,,,-00.016110000000,  -0.02320,
,,,-00.016100000000,  -0.02320,
,,,-00.016090000000,  -0.03120,
,,,-00.016080000000,  -0.02080,
,,,-00.016070000000,  -0.02320,
,,,-00.016060000000,  -0.02320,
,,,-00.016050000000,  -0.02560,
,,,-00.016040000000,  -0.02160,
,,,-00.016030000000,  -0.02480,
,,,-00.016020000000,  -0.02400,
,,,-00.016010000000,  -0.02400,
,,,-00.016000000000,  -0.01760,
,,,-00.015990000000,  -0.01520,
,,,-00.015980000000,  -0.02480,
,,,-00.015970000000,  -0.02800,
,,,-00.015960000000,  -0.02400,
,,,-00.015950000000,  -0.03360,
,,,-00.015940000000,  -0.01360,
,,,-00.015930000000,  -0.03360,
,,,-00.015920000000,  -0.02160,
,,,-00.015910000000,  -0.01840,
,,,-00.015900000000,  -0.02320,
,,,-00.015890000000,  -0.01680,
,,,-00.015880000000,  -0.01280,
,,,-00.015870000000,  -0.02640,
,,,-00.015860000000,  -0.02800,
,,,-00.015850000000,  -0.02800,
,,,-00.015840000000,  -0.03040,
,,,-00.015830000000,  -0.02000,
,,,-00.015820000000,  -0.03680,
,,,-00.015810000000,  -0.02000,
,,,-00.015800000000,  -0.02800,
,,,-00.015790000000,  -0.02880,
,,,-00.015780000000,  -0.00720,
,,,-00.015770000000,  -0.02880,
,,,-00.015760000000,  -0.02160,
,,,-00.015750000000,  -0.01600,
,,,-00.015740000000,  -0.02480,
,,,-00.015730000000,  -0.02320,
,,,-00.015720000000,  -0.02160,
,,,-00.015710000000,  -0.03360,
,,,-00.015700000000,  -0.01200,
,,,-00.015690000000,  -0.02560,
,,,-00.015680000000,  -0.03040,
,,,-00.015670000000,  -0.02320,
,,,-00.015660000000,  -0.03440,
,,,-00.015650000000,  -0.02640,
,,,-00.015640000000,  -0.03120,
,,,-00.015630000000,  -0.02320,
,,,-00.015620000000,  -0.01520,
,,,-00.015610000000,  -0.03280,
,,,-00.015600000000,  -0.02000,
,,,-00.015590000000,  -0.01680,
,,,-00.015580000000,  -0.02960,
,,,-00.015570000000,  -0.01760,
,,,-00.015560000000,  -0.01200,
,,,-00.015550000000,  -0.02880,
,,,-00.015540000000,  -0.01920,
,,,-00.015530000000,  -0.02800,
,,,-00.015520000000,  -0.03440,
,,,-00.015510000000,  -0.02720,
,,,-00.015500000000,  -0.03360,
,,,-00.015490000000,  -0.01040,
,,,-00.015480000000,  -0.02800,
,,,-00.015470000000,  -0.02400,
,,,-00.015460000000,  -0.02000,
,,,-00.015450000000,  -0.02880,
,,,-00.015440000000,  -0.02560,
,,,-00.015430000000,  -0.01760,
,,,-00.015420000000,  -0.04000,
,,,-00.015410000000,  -0.01520,
,,,-00.015400000000,  -0.02800,
,,,-00.015390000000,  -0.02800,
,,,-00.015380000000,  -0.02080,
,,,-00.015370000000,  -0.02800,
,,,-00.015360000000,  -0.02400,
,,,-00.015350000000,  -0.02560,
,,,-00.015340000000,  -0.02320,
,,,-00.015330000000,  -0.02320,
,,,-00.015320000000,  -0.01760,
,,,-00.015310000000,  -0.02880,
,,,-00.015300000000,  -0.01760,
,,,-00.015290000000,  -0.02400,
,,,-00.015280000000,  -0.02000,
,,,-00.015270000000,  -0.01520,
,,,-00.015260000000,  -0.02400,
,,,-00.015250000000,  -0.00720,
,,,-00.015240000000,  -0.03440,
,,,-00.015230000000,  -0.03200,
,,,-00.015220000000,  -0.02320,
,,,-00.015210000000,  -0.04400,
,,,-00.015200000000,  -0.02560,
,,,-00.015190000000,  -0.02800,
,,,-00.015180000000,  -0.02640,
,,,-00.015170000000,  -0.02160,
,,,-00.015160000000,  -0.02720,
,,,-00.015150000000,  -0.03360,
,,,-00.015140000000,  -0.01680,
,,,-00.015130000000,  -0.04160,
,,,-00.015120000000,  -0.01840,
,,,-00.015110000000,  -0.03200,
,,,-00.015100000000,  -0.03920,
,,,-00.015090000000,  -0.01600,
,,,-00.015080000000,  -0.03120,
,,,-00.015070000000,  -0.03200,
,,,-00.015060000000,  -0.02480,
,,,-00.015050000000,  -0.03040,
,,,-00.015040000000,  -0.01680,
,,,-00.015030000000,  -0.03120,
,,,-00.015020000000,  -0.03360,
,,,-00.015010000000,  -0.02400,
,,,-00.015000000000,   0.09120,
,,,-00.014990000000,   0.02240,
,,,-00.014980000000,   0.01120,
,,,-00.014970000000,  -0.01520,
,,,-00.014960000000,   0.00240,
,,,-00.014950000000,   0.00080,
,,,-00.014940000000,  -0.00880,
,,,-00.014930000000,  -0.00480,
,,,-00.014920000000,  -0.00560,
,,,-00.014910000000,  -0.00960,
,,,-00.014900000000,   0.00000,
,,,-00.014890000000,  -0.00720,
,,,-00.014880000000,   0.00160,
,,,-00.014870000000,  -0.00560,
,,,-00.014860000000,  -0.00160,
,,,-00.014850000000,   0.00320,
,,,-00.014840000000,  -0.01760,
,,,-00.014830000000,   0.00240,
,,,-00.014820000000,   0.00080,
,,,-00.014810000000,  -0.00160,
,,,-00.014800000000,  -0.00160,
,,,-00.014790000000,   0.00000,
,,,-00.014780000000,  -0.00160,
,,,-00.014770000000,  -0.01360,
,,,-00.014760000000,  -0.00720,
,,,-00.014750000000,  -0.01200,
,,,-00.014740000000,   0.00000,
,,,-00.014730000000,  -0.00240,
,,,-00.014720000000,  -0.00080,
,,,-00.014710000000,   0.00160,
,,,-00.014700000000,  -0.00960,
,,,-00.014690000000,   0.00880,
,,,-00.014680000000,  -0.00720,
,,,-00.014670000000,   0.00960,
,,,-00.014660000000,  -0.00560,
,,,-00.014650000000,  -0.00800,
,,,-00.014640000000,   0.00080,
,,,-00.014630000000,   0.00000,
,,,-00.014620000000,  -0.00480,
,,,-00.014610000000,  -0.00960,
,,,-00.014600000000,  -0.00720,
,,,-00.014590000000,  -0.00080,
,,,-00.014580000000,  -0.00400,
,,,-00.014570000000,  -0.01200,
,,,-00.014560000000,   0.00320,
,,,-00.014550000000,  -0.02000,
,,,-00.014540000000,   0.00480,
,,,-00.014530000000,  -0.00720,
,,,-00.014520000000,  -0.01440,
,,,-00.014510000000,   0.01520,
,,,-00.014500000000,   0.01200,
,,,-00.014490000000,   0.00000,
,,,-00.014480000000,  -0.00400,
,,,-00.014470000000,  -0.01520,
,,,-00.014460000000,  -0.02000,
,,,-00.014450000000,  -0.00160,
,,,-00.014440000000,  -0.00560,
,,,-00.014430000000,   0.01360,
,,,-00.014420000000,  -0.02560,
,,,-00.014410000000,  -0.00480,
,,,-00.014400000000,  -0.00400,
,,,-00.014390000000,  -0.00400,
,,,-00.014380000000,   0.01120,
,,,-00.014370000000,  -0.01120,
,,,-00.014360000000,  -0.00320,
,,,-00.014350000000,  -0.00240,
,,,-00.014340000000,   0.00560,
,,,-00.014330000000,  -0.00720,
,,,-00.014320000000,   0.01440,
,,,-00.014310000000,  -0.00560,
,,,-00.014300000000,   0.00880,
,,,-00.014290000000,   0.01360,
,,,-00.014280000000,  -0.01360,
,,,-00.014270000000,   0.00640,
,,,-00.014260000000,  -0.01520,
,,,-00.014250000000,   0.00640,
,,,-00.014240000000,  -0.00560,
,,,-00.014230000000,  -0.00480,
,,,-00.014220000000,  -0.00320,
,,,-00.014210000000,  -0.00480,
,,,-00.014200000000,   0.01120,
,,,-00.014190000000,   0.00320,
,,,-00.014180000000,  -0.00240,
,,,-00.014170000000,  -0.01280,
,,,-00.014160000000,   0.00960,
,,,-00.014150000000,  -0.01200,
,,,-00.014140000000,   0.01040,
,,,-00.014130000000,  -0.00400,
,,,-00.014120000000,   0.00320,
,,,-00.014110000000,   0.00080,
,,,-00.014100000000,  -0.00800,
,,,-00.014090000000,   0.00240,
,,,-00.014080000000,  -0.00160,
,,,-00.014070000000,   0.00560,
,,,-00.014060000000,   0.00160,
,,,-00.014050000000,   0.00080,
,,,-00.014040000000,  -0.00640,
,,,-00.014030000000,  -0.00240,
,,,-00.014020000000,   0.00160,
,,,-00.014010000000,   0.00320,
,,,-00.014000000000,  -0.00240,
,,,-00.013990000000,   0.00320,
,,,-00.013980000000,   0.01200,
,,,-00.013970000000,  -0.00880,
,,,-00.013960000000,   0.01600,
,,,-00.013950000000,   0.01360,
,,,-00.013940000000,  -0.03760,
,,,-00.013930000000,  -0.00560,
,,,-00.013920000000,   0.00880,
,,,-00.013910000000,  -0.00640,
,,,-00.013900000000,   0.01040,
,,,-00.013890000000,   0.00400,
,,,-00.013880000000,   0.00080,
,,,-00.013870000000,   0.00720,
,,,-00.013860000000,   0.00400,
,,,-00.013850000000,   0.01120,
,,,-00.013840000000,  -0.00720,
,,,-00.013830000000,   0.00400,
,,,-00.013820000000,   0.00240,
,,,-00.013810000000,   0.00160,
,,,-00.013800000000,   0.00000,
,,,-00.013790000000,  -0.00800,
,,,-00.013780000000,  -0.00560,
,,,-00.013770000000,   0.00640,
,,,-00.013760000000,   0.01440,
,,,-00.013750000000,  -0.00960,
,,,-00.013740000000,  -0.00160,
,,,-00.013730000000,  -0.00240,
,,,-00.013720000000,   0.01520,
,,,-00.013710000000,   0.01120,
,,,-00.013700000000,  -0.00160,
,,,-00.013690000000,   0.00400,
,,,-00.013680000000,  -0.00560,
,,,-00.013670000000,   0.00080,
,,,-00.013660000000,   0.00320,
,,,-00.013650000000,  -0.00640,
,,,-00.013640000000,  -0.00400,
,,,-00.013630000000,   0.00800,
,,,-00.013620000000,   0.00000,
,,,-00.013610000000,   0.00160,
,,,-00.013600000000,   0.00400,
,,,-00.013590000000,  -0.03120,
,,,-00.013580000000,   0.01600,
,,,-00.013570000000,   0.00240,
,,,-00.013560000000,   0.00400,
,,,-00.013550000000,   0.00080,
,,,-00.013540000000,   0.00640,
,,,-00.013530000000,   0.00880,
,,,-00.013520000000,   0.00080,
,,,-00.013510000000,   0.00640,
,,,-00.013500000000,  -0.01200,
,,,-00.013490000000,  -0.00800,
,,,-00.013480000000,   0.01440,
,,,-00.013470000000,   0.00640,
,,,-00.013460000000,  -0.00960,
,,,-00.013450000000,  -0.00400,
,,,-00.013440000000,  -0.00880,
,,,-00.013430000000,   0.00000,
,,,-00.013420000000,   0.01040,
,,,-00.013410000000,   0.01120,
,,,-00.013400000000,  -0.00320,
,,,-00.013390000000,   0.00080,
,,,-00.013380000000,   0.00080,
,,,-00.013370000000,  -0.00160,
