viejas/05_04/Datos0/ALL0074/F0074CH1.CSV

Record Length,2.500000e+03,,  -0.015000000000,   0.00320,
Sample Interval,1.000000e-05,,  -0.014990000000,  -0.06000,
Trigger Point,1.500000000000e+03,,  -0.014980000000,  -0.01360,
,,,  -0.014970000000,  -0.03120,
,,,  -0.014960000000,  -0.02240,
,,,  -0.014950000000,  -0.00480,
Source,CH1,,  -0.014940000000,  -0.03360,
Vertical Units,V,,  -0.014930000000,  -0.01440,
Vertical Scale,2.000000e-02,,  -0.014920000000,  -0.02240,
Vertical Offset,1.040000e-02,,  -0.014910000000,  -0.02320,
Horizontal Units,s,,  -0.014900000000,  -0.01360,
Horizontal Scale,2.500000e-03,,  -0.014890000000,  -0.02000,
Pt Fmt,Y,,  -0.014880000000,  -0.02320,
Yzero,0.000000e+00,,  -0.014870000000,  -0.01920,
Probe Atten,1.000000e+01,,  -0.014860000000,  -0.02640,
Model Number,TBS1052B-EDU,,  -0.014850000000,  -0.01840,
Serial Number,C017051,,  -0.014840000000,  -0.03280,
Firmware Version,FV:v3.25,,  -0.014830000000,  -0.02640,
,,,-00.014820000000,  -0.01280,
,,,-00.014810000000,  -0.02320,
,,,-00.014800000000,  -0.01040,
,,,-00.014790000000,  -0.02080,
,,,-00.014780000000,  -0.02720,
,,,-00.014770000000,  -0.02000,
,,,-00.014760000000,  -0.02000,
,,,-00.014750000000,  -0.02640,
,,,-00.014740000000,  -0.01600,
,,,-00.014730000000,  -0.01520,
,,,-00.014720000000,  -0.03600,
,,,-00.014710000000,  -0.01840,
,,,-00.014700000000,  -0.02640,
,,,-00.014690000000,  -0.01840,
,,,-00.014680000000,  -0.02320,
,,,-00.014670000000,  -0.02160,
,,,-00.014660000000,  -0.01360,
,,,-00.014650000000,  -0.03600,
,,,-00.014640000000,  -0.00400,
,,,-00.014630000000,  -0.02000,
,,,-00.014620000000,  -0.02720,
,,,-00.014610000000,  -0.01840,
,,,-00.014600000000,  -0.02000,
,,,-00.014590000000,  -0.02320,
,,,-00.014580000000,  -0.01440,
,,,-00.014570000000,  -0.01120,
,,,-00.014560000000,  -0.02560,
,,,-00.014550000000,  -0.02000,
,,,-00.014540000000,  -0.02560,
,,,-00.014530000000,  -0.01040,
,,,-00.014520000000,  -0.02320,
,,,-00.014510000000,  -0.02320,
,,,-00.014500000000,  -0.01920,
,,,-00.014490000000,  -0.03040,
,,,-00.014480000000,  -0.02320,
,,,-00.014470000000,  -0.02800,
,,,-00.014460000000,  -0.01920,
,,,-00.014450000000,  -0.01440,
,,,-00.014440000000,  -0.02560,
,,,-00.014430000000,  -0.02560,
,,,-00.014420000000,  -0.02320,
,,,-00.014410000000,  -0.02160,
,,,-00.014400000000,  -0.01520,
,,,-00.014390000000,  -0.02080,
,,,-00.014380000000,  -0.03200,
,,,-00.014370000000,  -0.01520,
,,,-00.014360000000,  -0.02800,
,,,-00.014350000000,  -0.01680,
,,,-00.014340000000,  -0.02160,
,,,-00.014330000000,  -0.02800,
,,,-00.014320000000,  -0.02400,
,,,-00.014310000000,  -0.02480,
,,,-00.014300000000,  -0.02320,
,,,-00.014290000000,  -0.01520,
,,,-00.014280000000,  -0.03040,
,,,-00.014270000000,  -0.02320,
,,,-00.014260000000,  -0.02320,
,,,-00.014250000000,  -0.02800,
,,,-00.014240000000,  -0.01680,
,,,-00.014230000000,  -0.02320,
,,,-00.014220000000,  -0.01520,
,,,-00.014210000000,  -0.02000,
,,,-00.014200000000,  -0.03120,
,,,-00.014190000000,  -0.01680,
,,,-00.014180000000,  -0.02320,
,,,-00.014170000000,  -0.02960,
,,,-00.014160000000,  -0.02960,
,,,-00.014150000000,  -0.02000,
,,,-00.014140000000,  -0.02960,
,,,-00.014130000000,  -0.02560,
,,,-00.014120000000,  -0.02640,
,,,-00.014110000000,  -0.01120,
,,,-00.014100000000,  -0.03040,
,,,-00.014090000000,  -0.02400,
,,,-00.014080000000,  -0.01200,
,,,-00.014070000000,  -0.02960,
,,,-00.014060000000,  -0.02560,
,,,-00.014050000000,  -0.02560,
,,,-00.014040000000,  -0.03360,
,,,-00.014030000000,  -0.01680,
,,,-00.014020000000,  -0.02160,
,,,-00.014010000000,  -0.02800,
,,,-00.014000000000,  -0.02080,
,,,-00.013990000000,  -0.03040,
,,,-00.013980000000,  -0.02640,
,,,-00.013970000000,  -0.02960,
,,,-00.013960000000,  -0.02720,
,,,-00.013950000000,  -0.02160,
,,,-00.013940000000,  -0.03360,
,,,-00.013930000000,  -0.01920,
,,,-00.013920000000,  -0.01760,
,,,-00.013910000000,  -0.02800,
,,,-00.013900000000,  -0.02160,
,,,-00.013890000000,  -0.02320,
,,,-00.013880000000,  -0.03040,
,,,-00.013870000000,  -0.01760,
,,,-00.013860000000,  -0.02800,
,,,-00.013850000000,  -0.02560,
,,,-00.013840000000,  -0.02160,
,,,-00.013830000000,  -0.03280,
,,,-00.013820000000,  -0.02160,
,,,-00.013810000000,  -0.02880,
,,,-00.013800000000,  -0.01920,
,,,-00.013790000000,  -0.01760,
,,,-00.013780000000,  -0.02800,
,,,-00.013770000000,  -0.02160,
,,,-00.013760000000,  -0.03600,
,,,-00.013750000000,  -0.03360,
,,,-00.013740000000,  -0.02000,
,,,-00.013730000000,  -0.01760,
,,,-00.013720000000,  -0.03840,
,,,-00.013710000000,  -0.01520,
,,,-00.013700000000,  -0.03840,
,,,-00.013690000000,  -0.03440,
,,,-00.013680000000,  -0.02320,
,,,-00.013670000000,  -0.03360,
,,,-00.013660000000,  -0.01280,
,,,-00.013650000000,  -0.02960,
,,,-00.013640000000,  -0.02320,
,,,-00.013630000000,  -0.01360,
,,,-00.013620000000,  -0.02480,
,,,-00.013610000000,  -0.02800,
,,,-00.013600000000,  -0.01360,
,,,-00.013590000000,  -0.02800,
,,,-00.013580000000,  -0.02160,
,,,-00.013570000000,  -0.02320,
,,,-00.013560000000,  -0.03200,
,,,-00.013550000000,  -0.03520,
,,,-00.013540000000,  -0.03600,
,,,-00.013530000000,  -0.02320,
,,,-00.013520000000,  -0.02560,
,,,-00.013510000000,  -0.02640,
,,,-00.013500000000,  -0.01520,
,,,-00.013490000000,  -0.03440,
,,,-00.013480000000,  -0.02560,
,,,-00.013470000000,  -0.01120,
,,,-00.013460000000,  -0.02880,
,,,-00.013450000000,  -0.03120,
,,,-00.013440000000,  -0.02160,
,,,-00.013430000000,  -0.03120,
,,,-00.013420000000,  -0.02240,
,,,-00.013410000000,  -0.03200,
,,,-00.013400000000,  -0.04080,
,,,-00.013390000000,  -0.02240,
,,,-00.013380000000,  -0.03040,
,,,-00.013370000000,  -0.00880,
,,,-00.013360000000,  -0.03440,
,,,-00.013350000000,  -0.03040,
,,,-00.013340000000,  -0.02080,
,,,-00.013330000000,   0.09120,
,,,-00.013320000000,   0.01440,
,,,-00.013310000000,   0.00960,
,,,-00.013300000000,  -0.00720,
,,,-00.013290000000,   0.00480,
,,,-00.013280000000,  -0.00400,
,,,-00.013270000000,  -0.01520,
,,,-00.013260000000,   0.00640,
,,,-00.013250000000,  -0.00720,
,,,-00.013240000000,  -0.01280,
,,,-00.013230000000,  -0.00800,
,,,-00.013220000000,  -0.00720,
,,,-00.013210000000,   0.01120,
,,,-00.013200000000,  -0.00720,
,,,-00.013190000000,  -0.00160,
,,,-00.013180000000,   0.00320,
,,,-00.013170000000,  -0.00560,
,,,-00.013160000000,  -0.00160,
,,,-00.013150000000,   0.00560,
,,,-00.013140000000,  -0.00560,
,,,-00.013130000000,   0.00000,
,,,-00.013120000000,   0.00080,
,,,-00.013110000000,  -0.02160,
,,,-00.013100000000,  -0.00160,
,,,-00.013090000000,   0.00480,
,,,-00.013080000000,  -0.00400,
,,,-00.013070000000,  -0.00640,
,,,-00.013060000000,  -0.00240,
,,,-00.013050000000,  -0.00720,
,,,-00.013040000000,  -0.00720,
,,,-00.013030000000,  -0.01120,
,,,-00.013020000000,  -0.00800,
,,,-00.013010000000,  -0.00080,
,,,-00.013000000000,   0.00160,
,,,-00.012990000000,  -0.00560,
,,,-00.012980000000,  -0.00640,
,,,-00.012970000000,   0.01280,
,,,-00.012960000000,  -0.01120,
,,,-00.012950000000,   0.00800,
,,,-00.012940000000,  -0.00960,
,,,-00.012930000000,  -0.00720,
,,,-00.012920000000,  -0.00080,
,,,-00.012910000000,  -0.01040,
,,,-00.012900000000,  -0.01440,
,,,-00.012890000000,   0.00080,
,,,-00.012880000000,   0.01520,
,,,-00.012870000000,   0.00080,
,,,-00.012860000000,   0.00080,
,,,-00.012850000000,  -0.00880,
,,,-00.012840000000,   0.01280,
,,,-00.012830000000,   0.00400,
,,,-00.012820000000,  -0.01280,
,,,-00.012810000000,   0.00720,
,,,-00.012800000000,  -0.00720,
,,,-00.012790000000,  -0.00160,
,,,-00.012780000000,  -0.00240,
,,,-00.012770000000,  -0.00640,
,,,-00.012760000000,   0.00480,
,,,-00.012750000000,  -0.00080,
,,,-00.012740000000,  -0.00640,
,,,-00.012730000000,   0.00720,
,,,-00.012720000000,  -0.00160,
,,,-00.012710000000,  -0.00240,
,,,-00.012700000000,  -0.00400,
,,,-00.012690000000,  -0.00560,
,,,-00.012680000000,   0.00320,
,,,-00.012670000000,   0.00080,
,,,-00.012660000000,   0.00400,
,,,-00.012650000000,   0.00880,
,,,-00.012640000000,  -0.00720,
,,,-00.012630000000,  -0.00480,
,,,-00.012620000000,  -0.01680,
,,,-00.012610000000,   0.00160,
,,,-00.012600000000,   0.00880,
,,,-00.012590000000,  -0.00400,
,,,-00.012580000000,  -0.00160,
,,,-00.012570000000,   0.00320,
,,,-00.012560000000,  -0.01200,
,,,-00.012550000000,   0.00880,
,,,-00.012540000000,   0.00160,
,,,-00.012530000000,  -0.00640,
,,,-00.012520000000,   0.01360,
,,,-00.012510000000,  -0.00720,
,,,-00.012500000000,  -0.00480,
,,,-00.012490000000,  -0.00880,
,,,-00.012480000000,  -0.00320,
,,,-00.012470000000,  -0.00160,
,,,-00.012460000000,   0.00080,
,,,-00.012450000000,  -0.01120,
,,,-00.012440000000,   0.00720,
,,,-00.012430000000,  -0.00240,
,,,-00.012420000000,  -0.00080,
,,,-00.012410000000,   0.00560,
,,,-00.012400000000,  -0.00960,
,,,-00.012390000000,   0.01200,
,,,-00.012380000000,  -0.00640,
,,,-00.012370000000,  -0.00480,
,,,-00.012360000000,   0.00080,
,,,-00.012350000000,   0.00240,
,,,-00.012340000000,   0.00320,
,,,-00.012330000000,  -0.00960,
,,,-00.012320000000,   0.00560,
,,,-00.012310000000,   0.00400,
,,,-00.012300000000,  -0.00160,
,,,-00.012290000000,  -0.00560,
,,,-00.012280000000,   0.01040,
,,,-00.012270000000,  -0.00320,
,,,-00.012260000000,   0.00160,
,,,-00.012250000000,   0.00080,
,,,-00.012240000000,  -0.00960,
,,,-00.012230000000,   0.01120,
,,,-00.012220000000,   0.01360,
,,,-00.012210000000,  -0.00400,
,,,-00.012200000000,  -0.00240,
,,,-00.012190000000,  -0.00080,
,,,-00.012180000000,  -0.00400,
,,,-00.012170000000,   0.01360,
,,,-00.012160000000,   0.00160,
,,,-00.012150000000,   0.01440,
,,,-00.012140000000,  -0.00080,
,,,-00.012130000000,  -0.00400,
,,,-00.012120000000,   0.00160,
,,,-00.012110000000,  -0.00480,
,,,-00.012100000000,   0.02240,
,,,-00.012090000000,   0.00080,
,,,-00.012080000000,  -0.00400,
,,,-00.012070000000,   0.00720,
,,,-00.012060000000,   0.00160,
,,,-00.012050000000,  -0.00560,
,,,-00.012040000000,   0.00320,
,,,-00.012030000000,  -0.00160,
,,,-00.012020000000,   0.01280,
,,,-00.012010000000,   0.02000,
,,,-00.012000000000,  -0.00880,
,,,-00.011990000000,   0.00400,
,,,-00.011980000000,  -0.00480,
,,,-00.011970000000,  -0.00400,
,,,-00.011960000000,  -0.00080,
,,,-00.011950000000,  -0.00400,
,,,-00.011940000000,   0.00880,
,,,-00.011930000000,  -0.00720,
,,,-00.011920000000,   0.00240,
,,,-00.011910000000,  -0.00720,
,,,-00.011900000000,  -0.00320,
,,,-00.011890000000,   0.01120,
,,,-00.011880000000,   0.00400,
,,,-00.011870000000,  -0.00160,
,,,-00.011860000000,   0.00640,
,,,-00.011850000000,   0.00000,
,,,-00.011840000000,  -0.00720,
,,,-00.011830000000,   0.01440,
,,,-00.011820000000,   0.00720,
,,,-00.011810000000,   0.01120,
,,,-00.011800000000,   0.00640,
,,,-00.011790000000,   0.00000,
,,,-00.011780000000,   0.00560,
,,,-00.011770000000,   0.01600,
,,,-00.011760000000,   0.00000,
,,,-00.011750000000,  -0.00160,
,,,-00.011740000000,   0.01440,
,,,-00.011730000000,   0.00960,
,,,-00.011720000000,   0.00080,
,,,-00.011710000000,  -0.00160,
,,,-00.011700000000,   0.00640,
,,,-00.011690000000,   0.00000,
,,,-00.011680000000,   0.01120,
,,,-00.011670000000,   0.00880,
,,,-00.011660000000,  -0.11200,
,,,-00.011650000000,  -0.02560,
,,,-00.011640000000,  -0.02400,
,,,-00.011630000000,  -0.02560,
,,,-00.011620000000,  -0.01200,
,,,-00.011610000000,  -0.02080,
,,,-00.011600000000,  -0.02000,
,,,-00.011590000000,  -0.02000,
,,,-00.011580000000,  -0.02480,
,,,-00.011570000000,  -0.01520,
,,,-00.011560000000,  -0.02320,
,,,-00.011550000000,  -0.01840,
,,,-00.011540000000,  -0.01680,
,,,-00.011530000000,  -0.02080,
,,,-00.011520000000,  -0.01200,
,,,-00.011510000000,  -0.02000,
,,,-00.011500000000,  -0.02080,
,,,-00.011490000000,  -0.01760,
,,,-00.011480000000,  -0.02960,
,,,-00.011470000000,  -0.02320,
,,,-00.011460000000,  -0.01520,
,,,-00.011450000000,  -0.02320,
,,,-00.011440000000,  -0.02320,
,,,-00.011430000000,  -0.01760,
,,,-00.011420000000,  -0.03120,
,,,-00.011410000000,  -0.01680,
,,,-00.011400000000,  -0.02320,
,,,-00.011390000000,  -0.01520,
,,,-00.011380000000,  -0.01760,
,,,-00.011370000000,  -0.02960,
,,,-00.011360000000,  -0.01520,
,,,-00.011350000000,  -0.03120,
,,,-00.011340000000,  -0.02400,
,,,-00.011330000000,  -0.01600,
,,,-00.011320000000,  -0.02160,
,,,-00.011310000000,  -0.03040,
,,,-00.011300000000,  -0.01760,
,,,-00.011290000000,  -0.03120,
,,,-00.011280000000,  -0.02080,
,,,-00.011270000000,  -0.02320,
,,,-00.011260000000,  -0.02880,
,,,-00.011250000000,  -0.01200,
,,,-00.011240000000,  -0.01360,
,,,-00.011230000000,  -0.01920,
,,,-00.011220000000,  -0.02640,
,,,-00.011210000000,  -0.02960,
,,,-00.011200000000,  -0.01280,
,,,-00.011190000000,  -0.02480,
,,,-00.011180000000,  -0.03760,
,,,-00.011170000000,  -0.01520,
,,,-00.011160000000,  -0.02160,
,,,-00.011150000000,  -0.02320,
,,,-00.011140000000,  -0.01120,
,,,-00.011130000000,  -0.03040,
,,,-00.011120000000,  -0.02320,
,,,-00.011110000000,  -0.02240,
,,,-00.011100000000,  -0.01680,
,,,-00.011090000000,  -0.01520,
,,,-00.011080000000,  -0.02160,
,,,-00.011070000000,  -0.01520,
,,,-00.011060000000,  -0.01760,
,,,-00.011050000000,  -0.01520,
,,,-00.011040000000,  -0.02720,
,,,-00.011030000000,  -0.01760,
,,,-00.011020000000,  -0.03040,
,,,-00.011010000000,  -0.01040,
,,,-00.011000000000,  -0.03520,
,,,-00.010990000000,  -0.02640,
,,,-00.010980000000,  -0.01760,
,,,-00.010970000000,  -0.03120,
,,,-00.010960000000,  -0.00400,
,,,-00.010950000000,  -0.03600,
,,,-00.010940000000,  -0.01760,
,,,-00.010930000000,  -0.02160,
,,,-00.010920000000,  -0.02960,
,,,-00.010910000000,  -0.02160,
,,,-00.010900000000,  -0.02000,
,,,-00.010890000000,  -0.02560,
,,,-00.010880000000,  -0.01440,
,,,-00.010870000000,  -0.00320,
,,,-00.010860000000,  -0.03600,
,,,-00.010850000000,  -0.02640,
,,,-00.010840000000,  -0.03040,
,,,-00.010830000000,  -0.01120,
,,,-00.010820000000,  -0.02800,
,,,-00.010810000000,  -0.03120,
,,,-00.010800000000,  -0.02160,
,,,-00.010790000000,  -0.02560,
,,,-00.010780000000,  -0.00560,
,,,-00.010770000000,  -0.02000,
,,,-00.010760000000,  -0.03120,
,,,-00.010750000000,  -0.02320,
,,,-00.010740000000,  -0.01280,
,,,-00.010730000000,  -0.01840,
,,,-00.010720000000,  -0.01520,
,,,-00.010710000000,  -0.02960,
,,,-00.010700000000,  -0.04400,
,,,-00.010690000000,  -0.02000,
,,,-00.010680000000,  -0.02560,
,,,-00.010670000000,  -0.02320,
,,,-00.010660000000,  -0.02720,
,,,-00.010650000000,  -0.02880,
,,,-00.010640000000,  -0.02560,
,,,-00.010630000000,  -0.02240,
,,,-00.010620000000,  -0.02160,
,,,-00.010610000000,  -0.02960,
,,,-00.010600000000,  -0.02800,
,,,-00.010590000000,  -0.01280,
,,,-00.010580000000,  -0.02000,
,,,-00.010570000000,  -0.02560,
,,,-00.010560000000,  -0.00800,
,,,-00.010550000000,  -0.03440,
,,,-00.010540000000,  -0.02160,
,,,-00.010530000000,  -0.02000,
,,,-00.010520000000,  -0.03040,
,,,-00.010510000000,  -0.03680,
,,,-00.010500000000,  -0.02880,
,,,-00.010490000000,  -0.03440,
,,,-00.010480000000,  -0.03440,
,,,-00.010470000000,  -0.01040,
,,,-00.010460000000,  -0.02720,
,,,-00.010450000000,  -0.02160,
,,,-00.010440000000,  -0.03360,
,,,-00.010430000000,  -0.00800,
,,,-00.010420000000,  -0.04000,
,,,-00.010410000000,  -0.02000,
,,,-00.010400000000,  -0.02720,
,,,-00.010390000000,  -0.05840,
,,,-00.010380000000,  -0.01200,
,,,-00.010370000000,  -0.02800,
,,,-00.010360000000,  -0.02480,
,,,-00.010350000000,  -0.03360,
,,,-00.010340000000,  -0.02320,
,,,-00.010330000000,  -0.02400,
,,,-00.010320000000,  -0.01600,
,,,-00.010310000000,  -0.03520,
,,,-00.010300000000,  -0.02400,
,,,-00.010290000000,  -0.02080,
,,,-00.010280000000,  -0.03520,
,,,-00.010270000000,  -0.01040,
,,,-00.010260000000,  -0.03840,
,,,-00.010250000000,  -0.03200,
,,,-00.010240000000,  -0.02240,
,,,-00.010230000000,  -0.02800,
,,,-00.010220000000,  -0.01200,
,,,-00.010210000000,  -0.04240,
,,,-00.010200000000,  -0.03280,
,,,-00.010190000000,  -0.02320,
,,,-00.010180000000,  -0.02320,
,,,-00.010170000000,  -0.02080,
,,,-00.010160000000,  -0.02720,
,,,-00.010150000000,  -0.03600,
,,,-00.010140000000,  -0.02000,
,,,-00.010130000000,   0.00080,
,,,-00.010120000000,  -0.02720,
,,,-00.010110000000,  -0.02160,
,,,-00.010100000000,  -0.03760,
,,,-00.010090000000,  -0.01440,
,,,-00.010080000000,  -0.03840,
,,,-00.010070000000,  -0.03360,
,,,-00.010060000000,  -0.02080,
,,,-00.010050000000,  -0.02800,
,,,-00.010040000000,  -0.04000,
,,,-00.010030000000,  -0.01760,
,,,-00.010020000000,  -0.03280,
,,,-00.010010000000,  -0.02800,
,,,-00.010000000000,  -0.02560,
,,,-00.009990000000,   0.02720,
,,,-00.009980000000,   0.00880,
,,,-00.009970000000,  -0.00400,
,,,-00.009960000000,  -0.01360,
,,,-00.009950000000,   0.00640,
,,,-00.009940000000,   0.00880,
,,,-00.009930000000,   0.00720,
,,,-00.009920000000,  -0.00160,
,,,-00.009910000000,  -0.01360,
,,,-00.009900000000,  -0.00480,
,,,-00.009890000000,  -0.01040,
,,,-00.009880000000,   0.00560,
,,,-00.009870000000,   0.00720,
,,,-00.009860000000,  -0.02000,
,,,-00.009850000000,   0.00000,
,,,-00.009840000000,  -0.00720,
,,,-00.009830000000,  -0.00960,
,,,-00.009820000000,   0.00400,
,,,-00.009810000000,  -0.00160,
,,,-00.009800000000,  -0.01520,
,,,-00.009790000000,  -0.00080,
,,,-00.009780000000,   0.00960,
,,,-00.009770000000,  -0.00640,
,,,-00.009760000000,  -0.00400,
,,,-00.009750000000,  -0.01440,
,,,-00.009740000000,   0.01200,
,,,-00.009730000000,  -0.01280,
,,,-00.009720000000,   0.00640,
,,,-00.009710000000,  -0.01120,
,,,-00.009700000000,  -0.01280,
,,,-00.009690000000,   0.01360,
,,,-00.009680000000,   0.00480,
,,,-00.009670000000,   0.00320,
,,,-00.009660000000,   0.00160,
,,,-00.009650000000,  -0.00720,
,,,-00.009640000000,  -0.00400,
,,,-00.009630000000,   0.00400,
,,,-00.009620000000,   0.00560,
,,,-00.009610000000,  -0.00800,
,,,-00.009600000000,  -0.01600,
,,,-00.009590000000,  -0.01040,
,,,-00.009580000000,   0.00880,
,,,-00.009570000000,  -0.00320,
,,,-00.009560000000,  -0.00160,
,,,-00.009550000000,  -0.01440,
,,,-00.009540000000,  -0.01600,
,,,-00.009530000000,   0.01120,
,,,-00.009520000000,  -0.00480,
,,,-00.009510000000,   0.00560,
,,,-00.009500000000,  -0.01360,
,,,-00.009490000000,  -0.00640,
,,,-00.009480000000,  -0.00400,
,,,-00.009470000000,   0.00720,
,,,-00.009460000000,   0.00400,
,,,-00.009450000000,   0.00880,
,,,-00.009440000000,  -0.00080,
,,,-00.009430000000,  -0.02800,
,,,-00.009420000000,   0.00240,
,,,-00.009410000000,  -0.00720,
,,,-00.009400000000,  -0.00400,
,,,-00.009390000000,  -0.00320,
,,,-00.009380000000,  -0.00880,
,,,-00.009370000000,   0.01360,
,,,-00.009360000000,  -0.01120,
,,,-00.009350000000,  -0.00400,
,,,-00.009340000000,   0.00720,
,,,-00.009330000000,   0.00560,
,,,-00.009320000000,   0.02400,
,,,-00.009310000000,   0.00080,
,,,-00.009300000000,  -0.00240,
,,,-00.009290000000,   0.00640,
,,,-00.009280000000,  -0.00640,
,,,-00.009270000000,   0.00080,
,,,-00.009260000000,   0.00240,
,,,-00.009250000000,  -0.00960,
,,,-00.009240000000,  -0.00160,
,,,-00.009230000000,  -0.00400,
,,,-00.009220000000,  -0.01280,
,,,-00.009210000000,   0.01920,
,,,-00.009200000000,   0.00000,
,,,-00.009190000000,   0.00640,
,,,-00.009180000000,  -0.00560,
,,,-00.009170000000,  -0.01360,
,,,-00.009160000000,   0.01440,
,,,-00.009150000000,  -0.00480,
,,,-00.009140000000,  -0.00240,
,,,-00.009130000000,   0.00320,
,,,-00.009120000000,  -0.01840,
,,,-00.009110000000,   0.01440,
,,,-00.009100000000,   0.00240,
,,,-00.009090000000,  -0.00960,
,,,-00.009080000000,   0.00240,
,,,-00.009070000000,  -0.00480,
,,,-00.009060000000,  -0.00800,
,,,-00.009050000000,   0.00000,
,,,-00.009040000000,   0.00800,
,,,-00.009030000000,   0.00160,
,,,-00.009020000000,   0.00320,
,,,-00.009010000000,  -0.00960,
,,,-00.009000000000,  -0.00080,
,,,-00.008990000000,   0.00080,
,,,-00.008980000000,   0.00320,
,,,-00.008970000000,   0.00400,
,,,-00.008960000000,  -0.00400,
,,,-00.008950000000,   0.00960,
,,,-00.008940000000,   0.00240,
,,,-00.008930000000,   0.00160,
,,,-00.008920000000,   0.01200,
,,,-00.008910000000,  -0.00160,
,,,-00.008900000000,   0.00000,
,,,-00.008890000000,   0.00160,
,,,-00.008880000000,  -0.00160,
,,,-00.008870000000,   0.00080,
