05_04/Datos2/ALL0000/F0000CH1.CSV

Record Length,2.500000e+03,,  -0.000004500000,   0.12000,
Sample Interval,2.000000e-09,,  -0.000004498000,   0.06400,
Trigger Point,2.250000000000e+03,,  -0.000004496000,   0.00000,
,,,  -0.000004494000,  -0.04800,
,,,  -0.000004492000,  -0.10400,
,,,  -0.000004490000,  -0.14400,
Source,CH1,,  -0.000004488000,  -0.17600,
Vertical Units,V,,  -0.000004486000,  -0.20000,
Vertical Scale,2.000000e-01,,  -0.000004484000,  -0.22400,
Vertical Offset,1.040000e-01,,  -0.000004482000,  -0.24000,
Horizontal Units,s,,  -0.000004480000,  -0.25600,
Horizontal Scale,5.000000e-07,,  -0.000004478000,  -0.27200,
Pt Fmt,Y,,  -0.000004476000,  -0.28000,
Yzero,0.000000e+00,,  -0.000004474000,  -0.29600,
Probe Atten,1.000000e+01,,  -0.000004472000,  -0.31200,
Model Number,TBS1052B-EDU,,  -0.000004470000,  -0.31200,
Serial Number,C017051,,  -0.000004468000,  -0.31200,
Firmware Version,FV:v3.25,,  -0.000004466000,  -0.31200,
,,,-00.000004464000,  -0.30400,
,,,-00.000004462000,  -0.31200,
,,,-00.000004460000,  -0.31200,
,,,-00.000004458000,  -0.32800,
,,,-00.000004456000,  -0.32000,
,,,-00.000004454000,  -0.32800,
,,,-00.000004452000,  -0.32000,
,,,-00.000004450000,  -0.32800,
,,,-00.000004448000,  -0.32000,
,,,-00.000004446000,  -0.31200,
,,,-00.000004444000,  -0.32800,
,,,-00.000004442000,  -0.32800,
,,,-00.000004440000,  -0.33600,
,,,-00.000004438000,  -0.33600,
,,,-00.000004436000,  -0.33600,
,,,-00.000004434000,  -0.32800,
,,,-00.000004432000,  -0.32800,
,,,-00.000004430000,  -0.32800,
,,,-00.000004428000,  -0.31200,
,,,-00.000004426000,  -0.32000,
,,,-00.000004424000,  -0.32000,
,,,-00.000004422000,  -0.32000,
,,,-00.000004420000,  -0.32000,
,,,-00.000004418000,  -0.32000,
,,,-00.000004416000,  -0.32000,
,,,-00.000004414000,  -0.32800,
,,,-00.000004412000,  -0.32000,
,,,-00.000004410000,  -0.32000,
,,,-00.000004408000,  -0.31200,
,,,-00.000004406000,  -0.32000,
,,,-00.000004404000,  -0.32000,
,,,-00.000004402000,  -0.32000,
,,,-00.000004400000,  -0.32000,
,,,-00.000004398000,  -0.32000,
,,,-00.000004396000,  -0.32000,
,,,-00.000004394000,  -0.32000,
,,,-00.000004392000,  -0.32800,
,,,-00.000004390000,  -0.32800,
,,,-00.000004388000,  -0.32000,
,,,-00.000004386000,  -0.32800,
,,,-00.000004384000,  -0.32800,
,,,-00.000004382000,  -0.32000,
,,,-00.000004380000,  -0.31200,
,,,-00.000004378000,  -0.31200,
,,,-00.000004376000,  -0.31200,
,,,-00.000004374000,  -0.31200,
,,,-00.000004372000,  -0.32000,
,,,-00.000004370000,  -0.31200,
,,,-00.000004368000,  -0.31200,
,,,-00.000004366000,  -0.32800,
,,,-00.000004364000,  -0.32000,
,,,-00.000004362000,  -0.32000,
,,,-00.000004360000,  -0.32000,
,,,-00.000004358000,  -0.32000,
,,,-00.000004356000,  -0.32800,
,,,-00.000004354000,  -0.32000,
,,,-00.000004352000,  -0.32000,
,,,-00.000004350000,  -0.32000,
,,,-00.000004348000,  -0.32000,
,,,-00.000004346000,  -0.31200,
,,,-00.000004344000,  -0.31200,
,,,-00.000004342000,  -0.32000,
,,,-00.000004340000,  -0.32000,
,,,-00.000004338000,  -0.31200,
,,,-00.000004336000,  -0.31200,
,,,-00.000004334000,  -0.31200,
,,,-00.000004332000,  -0.30400,
,,,-00.000004330000,  -0.31200,
,,,-00.000004328000,  -0.31200,
,,,-00.000004326000,  -0.31200,
,,,-00.000004324000,  -0.31200,
,,,-00.000004322000,  -0.32000,
,,,-00.000004320000,  -0.31200,
,,,-00.000004318000,  -0.32000,
,,,-00.000004316000,  -0.30400,
,,,-00.000004314000,  -0.31200,
,,,-00.000004312000,  -0.32000,
,,,-00.000004310000,  -0.31200,
,,,-00.000004308000,  -0.31200,
,,,-00.000004306000,  -0.30400,
,,,-00.000004304000,  -0.31200,
,,,-00.000004302000,  -0.30400,
,,,-00.000004300000,  -0.31200,
,,,-00.000004298000,  -0.31200,
,,,-00.000004296000,  -0.31200,
,,,-00.000004294000,  -0.31200,
,,,-00.000004292000,  -0.31200,
,,,-00.000004290000,  -0.31200,
,,,-00.000004288000,  -0.31200,
,,,-00.000004286000,  -0.31200,
,,,-00.000004284000,  -0.30400,
,,,-00.000004282000,  -0.30400,
,,,-00.000004280000,  -0.30400,
,,,-00.000004278000,  -0.31200,
,,,-00.000004276000,  -0.32000,
,,,-00.000004274000,  -0.31200,
,,,-00.000004272000,  -0.31200,
,,,-00.000004270000,  -0.30400,
,,,-00.000004268000,  -0.29600,
,,,-00.000004266000,  -0.30400,
,,,-00.000004264000,  -0.31200,
,,,-00.000004262000,  -0.30400,
,,,-00.000004260000,  -0.32000,
,,,-00.000004258000,  -0.31200,
,,,-00.000004256000,  -0.30400,
,,,-00.000004254000,  -0.31200,
,,,-00.000004252000,  -0.31200,
,,,-00.000004250000,  -0.30400,
,,,-00.000004248000,  -0.30400,
,,,-00.000004246000,  -0.31200,
,,,-00.000004244000,  -0.30400,
,,,-00.000004242000,  -0.31200,
,,,-00.000004240000,  -0.30400,
,,,-00.000004238000,  -0.30400,
,,,-00.000004236000,  -0.29600,
,,,-00.000004234000,  -0.31200,
,,,-00.000004232000,  -0.31200,
,,,-00.000004230000,  -0.29600,
,,,-00.000004228000,  -0.30400,
,,,-00.000004226000,  -0.31200,
,,,-00.000004224000,  -0.31200,
,,,-00.000004222000,  -0.29600,
,,,-00.000004220000,  -0.29600,
,,,-00.000004218000,  -0.29600,
,,,-00.000004216000,  -0.29600,
,,,-00.000004214000,  -0.29600,
,,,-00.000004212000,  -0.29600,
,,,-00.000004210000,  -0.30400,
,,,-00.000004208000,  -0.28800,
,,,-00.000004206000,  -0.29600,
,,,-00.000004204000,  -0.29600,
,,,-00.000004202000,  -0.29600,
,,,-00.000004200000,  -0.29600,
,,,-00.000004198000,  -0.29600,
,,,-00.000004196000,  -0.30400,
,,,-00.000004194000,  -0.30400,
,,,-00.000004192000,  -0.30400,
,,,-00.000004190000,  -0.30400,
,,,-00.000004188000,  -0.31200,
,,,-00.000004186000,  -0.29600,
,,,-00.000004184000,  -0.30400,
,,,-00.000004182000,  -0.30400,
,,,-00.000004180000,  -0.31200,
,,,-00.000004178000,  -0.30400,
,,,-00.000004176000,  -0.30400,
,,,-00.000004174000,  -0.29600,
,,,-00.000004172000,  -0.28800,
,,,-00.000004170000,  -0.29600,
,,,-00.000004168000,  -0.29600,
,,,-00.000004166000,  -0.29600,
,,,-00.000004164000,  -0.30400,
,,,-00.000004162000,  -0.30400,
,,,-00.000004160000,  -0.29600,
,,,-00.000004158000,  -0.30400,
,,,-00.000004156000,  -0.29600,
,,,-00.000004154000,  -0.30400,
,,,-00.000004152000,  -0.30400,
,,,-00.000004150000,  -0.29600,
,,,-00.000004148000,  -0.30400,
,,,-00.000004146000,  -0.30400,
,,,-00.000004144000,  -0.30400,
,,,-00.000004142000,  -0.30400,
,,,-00.000004140000,  -0.29600,
,,,-00.000004138000,  -0.30400,
,,,-00.000004136000,  -0.29600,
,,,-00.000004134000,  -0.30400,
,,,-00.000004132000,  -0.30400,
,,,-00.000004130000,  -0.29600,
,,,-00.000004128000,  -0.31200,
,,,-00.000004126000,  -0.30400,
,,,-00.000004124000,  -0.29600,
,,,-00.000004122000,  -0.30400,
,,,-00.000004120000,  -0.28800,
,,,-00.000004118000,  -0.28800,
,,,-00.000004116000,  -0.29600,
,,,-00.000004114000,  -0.29600,
,,,-00.000004112000,  -0.28800,
,,,-00.000004110000,  -0.28800,
,,,-00.000004108000,  -0.29600,
,,,-00.000004106000,  -0.28800,
,,,-00.000004104000,  -0.28800,
,,,-00.000004102000,  -0.29600,
,,,-00.000004100000,  -0.28800,
,,,-00.000004098000,  -0.29600,
,,,-00.000004096000,  -0.29600,
,,,-00.000004094000,  -0.28800,
,,,-00.000004092000,  -0.29600,
,,,-00.000004090000,  -0.28800,
,,,-00.000004088000,  -0.28800,
,,,-00.000004086000,  -0.28800,
,,,-00.000004084000,  -0.28800,
,,,-00.000004082000,  -0.28800,
,,,-00.000004080000,  -0.28800,
,,,-00.000004078000,  -0.28000,
,,,-00.000004076000,  -0.29600,
,,,-00.000004074000,  -0.29600,
,,,-00.000004072000,  -0.29600,
,,,-00.000004070000,  -0.28800,
,,,-00.000004068000,  -0.28000,
,,,-00.000004066000,  -0.28800,
,,,-00.000004064000,  -0.28800,
,,,-00.000004062000,  -0.28800,
,,,-00.000004060000,  -0.29600,
,,,-00.000004058000,  -0.29600,
,,,-00.000004056000,  -0.29600,
,,,-00.000004054000,  -0.30400,
,,,-00.000004052000,  -0.29600,
,,,-00.000004050000,  -0.29600,
,,,-00.000004048000,  -0.29600,
,,,-00.000004046000,  -0.29600,
,,,-00.000004044000,  -0.28800,
,,,-00.000004042000,  -0.29600,
,,,-00.000004040000,  -0.28800,
,,,-00.000004038000,  -0.28800,
,,,-00.000004036000,  -0.29600,
,,,-00.000004034000,  -0.28000,
,,,-00.000004032000,  -0.28800,
,,,-00.000004030000,  -0.28800,
,,,-00.000004028000,  -0.28800,
,,,-00.000004026000,  -0.28800,
,,,-00.000004024000,  -0.28800,
,,,-00.000004022000,  -0.28000,
,,,-00.000004020000,  -0.28800,
,,,-00.000004018000,  -0.28800,
,,,-00.000004016000,  -0.28000,
,,,-00.000004014000,  -0.28000,
,,,-00.000004012000,  -0.28000,
,,,-00.000004010000,  -0.28000,
,,,-00.000004008000,  -0.28000,
,,,-00.000004006000,  -0.26400,
,,,-00.000004004000,  -0.24800,
,,,-00.000004002000,  -0.20000,
,,,-00.000004000000,  -0.14400,
,,,-00.000003998000,  -0.08000,
,,,-00.000003996000,  -0.01600,
,,,-00.000003994000,   0.04000,
,,,-00.000003992000,   0.08000,
,,,-00.000003990000,   0.11200,
,,,-00.000003988000,   0.15200,
,,,-00.000003986000,   0.19200,
,,,-00.000003984000,   0.20800,
,,,-00.000003982000,   0.21600,
,,,-00.000003980000,   0.23200,
,,,-00.000003978000,   0.24800,
,,,-00.000003976000,   0.25600,
,,,-00.000003974000,   0.26400,
,,,-00.000003972000,   0.27200,
,,,-00.000003970000,   0.27200,
,,,-00.000003968000,   0.28000,
,,,-00.000003966000,   0.29600,
,,,-00.000003964000,   0.28800,
,,,-00.000003962000,   0.29600,
,,,-00.000003960000,   0.29600,
,,,-00.000003958000,   0.28800,
,,,-00.000003956000,   0.28800,
,,,-00.000003954000,   0.29600,
,,,-00.000003952000,   0.29600,
,,,-00.000003950000,   0.29600,
,,,-00.000003948000,   0.30400,
,,,-00.000003946000,   0.29600,
,,,-00.000003944000,   0.29600,
,,,-00.000003942000,   0.30400,
,,,-00.000003940000,   0.29600,
,,,-00.000003938000,   0.29600,
,,,-00.000003936000,   0.29600,
,,,-00.000003934000,   0.29600,
,,,-00.000003932000,   0.30400,
,,,-00.000003930000,   0.29600,
,,,-00.000003928000,   0.30400,
,,,-00.000003926000,   0.30400,
,,,-00.000003924000,   0.30400,
,,,-00.000003922000,   0.30400,
,,,-00.000003920000,   0.30400,
,,,-00.000003918000,   0.29600,
,,,-00.000003916000,   0.30400,
,,,-00.000003914000,   0.29600,
,,,-00.000003912000,   0.29600,
,,,-00.000003910000,   0.29600,
,,,-00.000003908000,   0.29600,
,,,-00.000003906000,   0.29600,
,,,-00.000003904000,   0.30400,
,,,-00.000003902000,   0.29600,
,,,-00.000003900000,   0.30400,
,,,-00.000003898000,   0.29600,
,,,-00.000003896000,   0.29600,
,,,-00.000003894000,   0.29600,
,,,-00.000003892000,   0.30400,
,,,-00.000003890000,   0.30400,
,,,-00.000003888000,   0.30400,
,,,-00.000003886000,   0.29600,
,,,-00.000003884000,   0.29600,
,,,-00.000003882000,   0.29600,
,,,-00.000003880000,   0.30400,
,,,-00.000003878000,   0.29600,
,,,-00.000003876000,   0.30400,
,,,-00.000003874000,   0.28800,
,,,-00.000003872000,   0.29600,
,,,-00.000003870000,   0.30400,
,,,-00.000003868000,   0.28800,
,,,-00.000003866000,   0.29600,
,,,-00.000003864000,   0.28800,
,,,-00.000003862000,   0.29600,
,,,-00.000003860000,   0.30400,
,,,-00.000003858000,   0.29600,
,,,-00.000003856000,   0.28800,
,,,-00.000003854000,   0.29600,
,,,-00.000003852000,   0.28800,
,,,-00.000003850000,   0.28800,
,,,-00.000003848000,   0.29600,
,,,-00.000003846000,   0.28800,
,,,-00.000003844000,   0.29600,
,,,-00.000003842000,   0.28800,
,,,-00.000003840000,   0.28800,
,,,-00.000003838000,   0.28800,
,,,-00.000003836000,   0.28800,
,,,-00.000003834000,   0.28800,
,,,-00.000003832000,   0.28800,
,,,-00.000003830000,   0.28800,
,,,-00.000003828000,   0.28800,
,,,-00.000003826000,   0.29600,
,,,-00.000003824000,   0.29600,
,,,-00.000003822000,   0.29600,
,,,-00.000003820000,   0.28800,
,,,-00.000003818000,   0.28000,
,,,-00.000003816000,   0.28800,
,,,-00.000003814000,   0.28800,
,,,-00.000003812000,   0.28000,
,,,-00.000003810000,   0.28000,
,,,-00.000003808000,   0.28000,
,,,-00.000003806000,   0.28000,
,,,-00.000003804000,   0.28800,
,,,-00.000003802000,   0.28800,
,,,-00.000003800000,   0.29600,
,,,-00.000003798000,   0.28800,
,,,-00.000003796000,   0.28800,
,,,-00.000003794000,   0.28000,
,,,-00.000003792000,   0.28000,
,,,-00.000003790000,   0.27200,
,,,-00.000003788000,   0.28800,
,,,-00.000003786000,   0.28800,
,,,-00.000003784000,   0.27200,
,,,-00.000003782000,   0.28000,
,,,-00.000003780000,   0.27200,
,,,-00.000003778000,   0.28000,
,,,-00.000003776000,   0.28000,
,,,-00.000003774000,   0.28000,
,,,-00.000003772000,   0.28000,
,,,-00.000003770000,   0.28000,
,,,-00.000003768000,   0.28000,
,,,-00.000003766000,   0.27200,
,,,-00.000003764000,   0.28800,
,,,-00.000003762000,   0.28000,
,,,-00.000003760000,   0.28000,
,,,-00.000003758000,   0.28000,
,,,-00.000003756000,   0.28000,
,,,-00.000003754000,   0.27200,
,,,-00.000003752000,   0.28000,
,,,-00.000003750000,   0.28000,
,,,-00.000003748000,   0.28000,
,,,-00.000003746000,   0.28000,
,,,-00.000003744000,   0.27200,
,,,-00.000003742000,   0.28000,
,,,-00.000003740000,   0.28000,
,,,-00.000003738000,   0.28800,
,,,-00.000003736000,   0.27200,
,,,-00.000003734000,   0.28000,
,,,-00.000003732000,   0.27200,
,,,-00.000003730000,   0.28000,
,,,-00.000003728000,   0.28000,
,,,-00.000003726000,   0.28800,
,,,-00.000003724000,   0.28800,
,,,-00.000003722000,   0.28000,
,,,-00.000003720000,   0.28800,
,,,-00.000003718000,   0.27200,
,,,-00.000003716000,   0.28000,
,,,-00.000003714000,   0.26400,
,,,-00.000003712000,   0.26400,
,,,-00.000003710000,   0.26400,
,,,-00.000003708000,   0.26400,
,,,-00.000003706000,   0.28000,
,,,-00.000003704000,   0.26400,
,,,-00.000003702000,   0.26400,
,,,-00.000003700000,   0.26400,
,,,-00.000003698000,   0.27200,
,,,-00.000003696000,   0.27200,
,,,-00.000003694000,   0.27200,
,,,-00.000003692000,   0.27200,
,,,-00.000003690000,   0.27200,
,,,-00.000003688000,   0.26400,
,,,-00.000003686000,   0.26400,
,,,-00.000003684000,   0.27200,
,,,-00.000003682000,   0.27200,
,,,-00.000003680000,   0.28000,
,,,-00.000003678000,   0.27200,
,,,-00.000003676000,   0.27200,
,,,-00.000003674000,   0.28000,
,,,-00.000003672000,   0.27200,
,,,-00.000003670000,   0.27200,
,,,-00.000003668000,   0.28000,
,,,-00.000003666000,   0.27200,
,,,-00.000003664000,   0.28000,
,,,-00.000003662000,   0.27200,
,,,-00.000003660000,   0.28000,
,,,-00.000003658000,   0.27200,
,,,-00.000003656000,   0.27200,
,,,-00.000003654000,   0.27200,
,,,-00.000003652000,   0.28000,
,,,-00.000003650000,   0.27200,
,,,-00.000003648000,   0.27200,
,,,-00.000003646000,   0.28000,
,,,-00.000003644000,   0.26400,
,,,-00.000003642000,   0.26400,
,,,-00.000003640000,   0.27200,
,,,-00.000003638000,   0.27200,
,,,-00.000003636000,   0.26400,
,,,-00.000003634000,   0.26400,
,,,-00.000003632000,   0.27200,
,,,-00.000003630000,   0.28000,
,,,-00.000003628000,   0.27200,
,,,-00.000003626000,   0.28000,
,,,-00.000003624000,   0.28800,
,,,-00.000003622000,   0.26400,
,,,-00.000003620000,   0.26400,
,,,-00.000003618000,   0.26400,
,,,-00.000003616000,   0.27200,
,,,-00.000003614000,   0.27200,
,,,-00.000003612000,   0.27200,
,,,-00.000003610000,   0.27200,
,,,-00.000003608000,   0.27200,
,,,-00.000003606000,   0.26400,
,,,-00.000003604000,   0.25600,
,,,-00.000003602000,   0.26400,
,,,-00.000003600000,   0.26400,
,,,-00.000003598000,   0.26400,
,,,-00.000003596000,   0.26400,
,,,-00.000003594000,   0.26400,
,,,-00.000003592000,   0.26400,
,,,-00.000003590000,   0.26400,
,,,-00.000003588000,   0.27200,
,,,-00.000003586000,   0.26400,
,,,-00.000003584000,   0.27200,
,,,-00.000003582000,   0.26400,
,,,-00.000003580000,   0.26400,
,,,-00.000003578000,   0.26400,
,,,-00.000003576000,   0.27200,
,,,-00.000003574000,   0.26400,
,,,-00.000003572000,   0.26400,
,,,-00.000003570000,   0.28000,
,,,-00.000003568000,   0.26400,
,,,-00.000003566000,   0.26400,
,,,-00.000003564000,   0.26400,
,,,-00.000003562000,   0.25600,
,,,-00.000003560000,   0.24800,
,,,-00.000003558000,   0.25600,
,,,-00.000003556000,   0.25600,
,,,-00.000003554000,   0.26400,
,,,-00.000003552000,   0.25600,
,,,-00.000003550000,   0.24800,
,,,-00.000003548000,   0.26400,
,,,-00.000003546000,   0.25600,
,,,-00.000003544000,   0.25600,
,,,-00.000003542000,   0.25600,
,,,-00.000003540000,   0.24800,
,,,-00.000003538000,   0.25600,
,,,-00.000003536000,   0.25600,
,,,-00.000003534000,   0.25600,
,,,-00.000003532000,   0.26400,
,,,-00.000003530000,   0.25600,
,,,-00.000003528000,   0.27200,
,,,-00.000003526000,   0.26400,
,,,-00.000003524000,   0.27200,
,,,-00.000003522000,   0.27200,
,,,-00.000003520000,   0.26400,
,,,-00.000003518000,   0.26400,
,,,-00.000003516000,   0.26400,
,,,-00.000003514000,   0.25600,
,,,-00.000003512000,   0.25600,
,,,-00.000003510000,   0.24800,
,,,-00.000003508000,   0.24000,
,,,-00.000003506000,   0.24000,
,,,-00.000003504000,   0.21600,
,,,-00.000003502000,   0.16800,
,,,-00.000003500000,   0.12000,
,,,-00.000003498000,   0.05600,
,,,-00.000003496000,  -0.00800,
,,,-00.000003494000,  -0.07200,
,,,-00.000003492000,  -0.11200,
,,,-00.000003490000,  -0.15200,
,,,-00.000003488000,  -0.19200,
,,,-00.000003486000,  -0.20800,
,,,-00.000003484000,  -0.23200,
,,,-00.000003482000,  -0.25600,
,,,-00.000003480000,  -0.26400,
,,,-00.000003478000,  -0.27200,
,,,-00.000003476000,  -0.28000,
,,,-00.000003474000,  -0.28800,
,,,-00.000003472000,  -0.31200,
,,,-00.000003470000,  -0.31200,
,,,-00.000003468000,  -0.32000,
,,,-00.000003466000,  -0.32000,
,,,-00.000003464000,  -0.32000,
,,,-00.000003462000,  -0.32800,
,,,-00.000003460000,  -0.32800,
,,,-00.000003458000,  -0.32800,
,,,-00.000003456000,  -0.32800,
,,,-00.000003454000,  -0.34400,
,,,-00.000003452000,  -0.34400,
,,,-00.000003450000,  -0.34400,
,,,-00.000003448000,  -0.32800,
,,,-00.000003446000,  -0.32800,
,,,-00.000003444000,  -0.32800,
,,,-00.000003442000,  -0.32800,
,,,-00.000003440000,  -0.33600,
,,,-00.000003438000,  -0.32000,
,,,-00.000003436000,  -0.32000,
,,,-00.000003434000,  -0.33600,
,,,-00.000003432000,  -0.33600,
,,,-00.000003430000,  -0.33600,
,,,-00.000003428000,  -0.32800,
,,,-00.000003426000,  -0.31200,
,,,-00.000003424000,  -0.32800,
,,,-00.000003422000,  -0.32800,
,,,-00.000003420000,  -0.32000,
,,,-00.000003418000,  -0.32000,
,,,-00.000003416000,  -0.32800,
,,,-00.000003414000,  -0.32800,
,,,-00.000003412000,  -0.33600,
,,,-00.000003410000,  -0.34400,
,,,-00.000003408000,  -0.32800,
,,,-00.000003406000,  -0.32800,
,,,-00.000003404000,  -0.33600,
,,,-00.000003402000,  -0.33600,
,,,-00.000003400000,  -0.33600,
,,,-00.000003398000,  -0.33600,
,,,-00.000003396000,  -0.33600,
,,,-00.000003394000,  -0.32800,
,,,-00.000003392000,  -0.33600,
,,,-00.000003390000,  -0.32800,
,,,-00.000003388000,  -0.32800,
,,,-00.000003386000,  -0.32800,
,,,-00.000003384000,  -0.32800,
,,,-00.000003382000,  -0.32800,
,,,-00.000003380000,  -0.32000,
,,,-00.000003378000,  -0.32000,
,,,-00.000003376000,  -0.33600,
,,,-00.000003374000,  -0.34400,
,,,-00.000003372000,  -0.32000,
,,,-00.000003370000,  -0.32800,
,,,-00.000003368000,  -0.32800,
,,,-00.000003366000,  -0.32800,
,,,-00.000003364000,  -0.32000,
,,,-00.000003362000,  -0.32800,
,,,-00.000003360000,  -0.32000,
,,,-00.000003358000,  -0.32000,
,,,-00.000003356000,  -0.32000,
,,,-00.000003354000,  -0.33600,
,,,-00.000003352000,  -0.32800,
,,,-00.000003350000,  -0.32000,
,,,-00.000003348000,  -0.32000,
,,,-00.000003346000,  -0.32000,
,,,-00.000003344000,  -0.32800,
,,,-00.000003342000,  -0.33600,
,,,-00.000003340000,  -0.32800,
,,,-00.000003338000,  -0.31200,
,,,-00.000003336000,  -0.32800,
,,,-00.000003334000,  -0.32000,
,,,-00.000003332000,  -0.32800,
,,,-00.000003330000,  -0.32000,
,,,-00.000003328000,  -0.32000,
,,,-00.000003326000,  -0.32000,
,,,-00.000003324000,  -0.31200,
,,,-00.000003322000,  -0.32000,
,,,-00.000003320000,  -0.32800,
,,,-00.000003318000,  -0.32800,
,,,-00.000003316000,  -0.32000,
,,,-00.000003314000,  -0.32000,
,,,-00.000003312000,  -0.32000,
,,,-00.000003310000,  -0.31200,
,,,-00.000003308000,  -0.32000,
,,,-00.000003306000,  -0.32800,
,,,-00.000003304000,  -0.32800,
,,,-00.000003302000,  -0.31200,
,,,-00.000003300000,  -0.32000,
,,,-00.000003298000,  -0.32000,
,,,-00.000003296000,  -0.32000,
,,,-00.000003294000,  -0.32800,
,,,-00.000003292000,  -0.32000,
,,,-00.000003290000,  -0.31200,
,,,-00.000003288000,  -0.30400,
,,,-00.000003286000,  -0.32000,
,,,-00.000003284000,  -0.31200,
,,,-00.000003282000,  -0.30400,
,,,-00.000003280000,  -0.32000,
,,,-00.000003278000,  -0.30400,
,,,-00.000003276000,  -0.31200,
,,,-00.000003274000,  -0.31200,
